<svg xmlns="http://www.w3.org/2000/svg" width="674" height="172" viewBox="0 0 674 172">
  <g id="Grupo_1228" data-name="Grupo 1228" transform="translate(-1050 -3140)">
    <path id="Caminho_1078" data-name="Caminho 1078" d="M0,0H674V44H0Z" transform="translate(1050 3140)" fill="#fab44a"/>
    <g id="Caminho_1074" data-name="Caminho 1074" transform="translate(1050 3198)" fill="none">
      <path d="M0,0H330V44H0Z" stroke="none"/>
      <path d="M 2 2 L 2 42 L 328 42 L 328 2 L 2 2 M 0 0 L 330 0 L 330 44 L 0 44 L 0 0 Z" stroke="none" fill="#fab44a"/>
    </g>
    <g id="Caminho_1075" data-name="Caminho 1075" transform="translate(1394 3198)" fill="none">
      <path d="M0,0H330V44H0Z" stroke="none"/>
      <path d="M 2 2 L 2 42 L 328 42 L 328 2 L 2 2 M 0 0 L 330 0 L 330 44 L 0 44 L 0 0 Z" stroke="none" fill="#fab44a"/>
    </g>
    <path id="Caminho_1081" data-name="Caminho 1081" d="M-37.834,0a5.975,5.975,0,0,0,4.505-1.683A6.238,6.238,0,0,0-31.68-6.256a6.392,6.392,0,0,0-1.615-4.607,5.79,5.79,0,0,0-4.437-1.7h-4.913V0Zm-2.295-10.149h2.414A3.059,3.059,0,0,1-35.2-9.044a4.178,4.178,0,0,1,.9,2.737,4.288,4.288,0,0,1-.9,2.788,3.059,3.059,0,0,1-2.516,1.105h-2.414ZM-29.555,0h2.533V-12.563h-2.533Zm10.217-3.876-3.315-8.687H-25.56L-20.341,0h2.006l5.151-12.563H-16.04ZM-3.171,0V-2.346H-9.155V-5.168h5.542V-7.514H-9.155v-2.7h5.984v-2.346h-8.517V0ZM8.746,0,5.7-4.9a3.758,3.758,0,0,0,2.55-3.689,3.927,3.927,0,0,0-1.105-2.822,4.228,4.228,0,0,0-3.2-1.156H-.859V0H1.657V-4.573h1.5L5.805,0ZM3.935-10.234A1.62,1.62,0,0,1,5.669-8.551c0,.969-.646,1.717-1.955,1.717H1.657v-3.4ZM14.254.2A5,5,0,0,0,17.586-.867a3.433,3.433,0,0,0,1.275-2.754,3.337,3.337,0,0,0-2.142-3.128q-.484-.229-1.53-.663l-1.241-.544c-.68-.34-1.02-.748-1.02-1.241,0-.731.612-1.207,1.615-1.207A3.967,3.967,0,0,1,17.3-9.231l1.343-1.836a5.566,5.566,0,0,0-4.131-1.7,4.551,4.551,0,0,0-3.094,1.054A3.314,3.314,0,0,0,10.225-9.1a3.485,3.485,0,0,0,1.989,3.128,13.121,13.121,0,0,0,1.479.68c.663.255,1.071.408,1.241.493.765.357,1.139.8,1.139,1.309,0,.8-.765,1.343-1.8,1.343a4.07,4.07,0,0,1-3.332-1.751L9.494-2.142A5.653,5.653,0,0,0,14.254.2ZM26.63.2a6.32,6.32,0,0,0,4.658-1.887,6.2,6.2,0,0,0,1.9-4.59,6.263,6.263,0,0,0-1.9-4.607,6.258,6.258,0,0,0-4.641-1.9,6.323,6.323,0,0,0-4.658,1.9A6.363,6.363,0,0,0,20.1-6.239a6.244,6.244,0,0,0,1.87,4.59A6.33,6.33,0,0,0,26.63.2Zm3.944-6.477a3.791,3.791,0,0,1-1.122,2.856,3.808,3.808,0,0,1-2.805,1.139,3.808,3.808,0,0,1-2.805-1.139A3.923,3.923,0,0,1,22.72-6.273a3.908,3.908,0,0,1,1.139-2.873A3.785,3.785,0,0,1,26.647-10.3a3.785,3.785,0,0,1,2.788,1.156A3.882,3.882,0,0,1,30.574-6.273ZM38.819.2A5,5,0,0,0,42.152-.867a3.433,3.433,0,0,0,1.275-2.754,3.337,3.337,0,0,0-2.142-3.128q-.484-.229-1.53-.663l-1.241-.544c-.68-.34-1.02-.748-1.02-1.241,0-.731.612-1.207,1.615-1.207a3.967,3.967,0,0,1,2.754,1.173l1.343-1.836a5.566,5.566,0,0,0-4.131-1.7,4.551,4.551,0,0,0-3.094,1.054A3.314,3.314,0,0,0,34.791-9.1a3.485,3.485,0,0,0,1.989,3.128,13.121,13.121,0,0,0,1.479.68c.663.255,1.071.408,1.241.493.765.357,1.139.8,1.139,1.309,0,.8-.765,1.343-1.8,1.343A4.07,4.07,0,0,1,35.5-3.893L34.06-2.142A5.653,5.653,0,0,0,38.819.2Z" transform="translate(1390 3168)" fill="#fcf2e5"/>
    <path id="Caminho_1079" data-name="Caminho 1079" d="M-54.323.187a6.874,6.874,0,0,0,5.542-2.669l-1.734-1.581A4.486,4.486,0,0,1-54.17-2.227a3.87,3.87,0,0,1-2.856-1.139,3.882,3.882,0,0,1-1.139-2.873A4,4,0,0,1-57.009-9.18a3.833,3.833,0,0,1,2.856-1.173,4.484,4.484,0,0,1,3.587,1.819l1.683-1.649a6.626,6.626,0,0,0-5.406-2.6A6.35,6.35,0,0,0-58.9-10.931a6.263,6.263,0,0,0-1.887,4.692A6.186,6.186,0,0,0-58.93-1.6,6.417,6.417,0,0,0-54.323.187ZM-40.417-8.16A3.84,3.84,0,0,0-43.375-9.5a4.338,4.338,0,0,0-3.281,1.377,4.788,4.788,0,0,0-1.309,3.451,4.956,4.956,0,0,0,1.292,3.5,4.3,4.3,0,0,0,3.3,1.394,3.855,3.855,0,0,0,2.958-1.292V0h2.278V-9.265h-2.278Zm.034,3.519a2.686,2.686,0,0,1-.748,1.9,2.416,2.416,0,0,1-1.853.782,2.416,2.416,0,0,1-1.853-.782,2.671,2.671,0,0,1-.731-1.9,2.719,2.719,0,0,1,.714-1.887,2.427,2.427,0,0,1,1.87-.782,2.416,2.416,0,0,1,1.853.782A2.674,2.674,0,0,1-40.383-4.641Zm6.7-6.086a1.509,1.509,0,0,0,0-2.091,1.531,1.531,0,0,0-2.108,0,1.509,1.509,0,0,0,0,2.091A1.531,1.531,0,0,0-33.685-10.727Zm.136,1.462h-2.4V0h2.4Zm7.293,4.607,2.89-4.607h-2.7l-1.7,2.839L-29.35-9.265h-2.737l2.737,4.539L-32.427,0h2.771L-27.8-3.043-26.035,0h2.754Zm10.829-3.5A3.84,3.84,0,0,0-18.385-9.5a4.338,4.338,0,0,0-3.281,1.377,4.788,4.788,0,0,0-1.309,3.451,4.956,4.956,0,0,0,1.292,3.5,4.3,4.3,0,0,0,3.3,1.394,3.855,3.855,0,0,0,2.958-1.292V0h2.278V-9.265h-2.278Zm.034,3.519a2.686,2.686,0,0,1-.748,1.9,2.416,2.416,0,0,1-1.853.782,2.416,2.416,0,0,1-1.853-.782,2.671,2.671,0,0,1-.731-1.9,2.719,2.719,0,0,1,.714-1.887,2.427,2.427,0,0,1,1.87-.782,2.416,2.416,0,0,1,1.853.782A2.674,2.674,0,0,1-15.393-4.641Zm8.908-7.922V0h2.516V-4.335h1.938A4.716,4.716,0,0,0,1.437-5.491,4.012,4.012,0,0,0,2.593-8.415a4.152,4.152,0,0,0-1.122-2.941,4.279,4.279,0,0,0-3.315-1.207Zm2.516,5.95v-3.621H-1.81A1.727,1.727,0,0,1,.026-8.449,1.788,1.788,0,0,1-1.946-6.613ZM6.469-12.92h-2.4V0h2.4Zm6.766-.714-1.054,2.992h2.125l1.6-2.992ZM15.683-8.16A3.84,3.84,0,0,0,12.725-9.5,4.338,4.338,0,0,0,9.444-8.126,4.788,4.788,0,0,0,8.135-4.675a4.956,4.956,0,0,0,1.292,3.5,4.3,4.3,0,0,0,3.3,1.394,3.855,3.855,0,0,0,2.958-1.292V0h2.278V-9.265H15.683Zm.034,3.519a2.686,2.686,0,0,1-.748,1.9,2.416,2.416,0,0,1-1.853.782,2.416,2.416,0,0,1-1.853-.782,2.671,2.671,0,0,1-.731-1.9,2.719,2.719,0,0,1,.714-1.887,2.427,2.427,0,0,1,1.87-.782,2.416,2.416,0,0,1,1.853.782A2.674,2.674,0,0,1,15.717-4.641ZM23.248.238A4.014,4.014,0,0,0,25.917-.6a2.656,2.656,0,0,0,1.02-2.142,2.558,2.558,0,0,0-1.564-2.346c-.255-.136-1-.442-2.227-.9-.544-.187-.816-.459-.816-.85,0-.425.425-.782,1.054-.782a3.042,3.042,0,0,1,2.125.918L26.7-8.245a4.318,4.318,0,0,0-3.247-1.326,3.808,3.808,0,0,0-2.516.782,2.5,2.5,0,0,0-.952,2.006,2.509,2.509,0,0,0,1.6,2.4c.2.1.595.272,1.19.493s.952.357,1.105.425c.442.2.663.476.663.8,0,.527-.544.9-1.275.9A3.447,3.447,0,0,1,20.7-3.06L19.423-1.547A4.6,4.6,0,0,0,23.248.238ZM34.417-2.431a3.161,3.161,0,0,1-1.547.476c-.867,0-1.309-.544-1.309-1.632V-7.259h3.06V-9.265h-3.06v-3.281h-2.38v3.281h-1.53v2.006h1.513v3.825c0,2.4,1.1,3.655,3.23,3.655a4.794,4.794,0,0,0,2.737-.765Zm4.148-8.3a1.509,1.509,0,0,0,0-2.091,1.531,1.531,0,0,0-2.108,0,1.509,1.509,0,0,0,0,2.091A1.531,1.531,0,0,0,38.564-10.727ZM38.7-9.265H36.3V0h2.4ZM45.263.2a4.844,4.844,0,0,0,4.352-2.448L47.677-3.383a2.724,2.724,0,0,1-2.363,1.394,2.539,2.539,0,0,1-1.853-.748,2.616,2.616,0,0,1-.731-1.9,2.55,2.55,0,0,1,.748-1.87,2.511,2.511,0,0,1,1.887-.765,2.644,2.644,0,0,1,2.363,1.411l1.921-1.054A4.611,4.611,0,0,0,45.331-9.5a4.9,4.9,0,0,0-3.587,1.377A4.636,4.636,0,0,0,40.35-4.641a4.687,4.687,0,0,0,1.377,3.485A4.833,4.833,0,0,0,45.263.2ZM58.115-8.16A3.84,3.84,0,0,0,55.157-9.5a4.338,4.338,0,0,0-3.281,1.377,4.788,4.788,0,0,0-1.309,3.451,4.956,4.956,0,0,0,1.292,3.5,4.3,4.3,0,0,0,3.3,1.394,3.855,3.855,0,0,0,2.958-1.292V0h2.278V-9.265H58.115Zm.034,3.519a2.686,2.686,0,0,1-.748,1.9,2.416,2.416,0,0,1-1.853.782,2.416,2.416,0,0,1-1.853-.782,2.671,2.671,0,0,1-.731-1.9,2.719,2.719,0,0,1,.714-1.887,2.427,2.427,0,0,1,1.87-.782,2.416,2.416,0,0,1,1.853.782A2.674,2.674,0,0,1,58.148-4.641Z" transform="translate(1212 3226)" fill="#fab44a"/>
    <path id="Caminho_1080" data-name="Caminho 1080" d="M-105.179-6.885a2.729,2.729,0,0,0,1.717-2.55,3.017,3.017,0,0,0-.952-2.193,3.525,3.525,0,0,0-2.618-.935h-5.474V0h5.729a3.973,3.973,0,0,0,2.89-1.054,3.44,3.44,0,0,0,1.088-2.6A3.141,3.141,0,0,0-105.179-6.885Zm-2.278-3.485a1.355,1.355,0,0,1,1.5,1.326,1.44,1.44,0,0,1-1.6,1.411h-2.465V-10.37Zm-2.567,8.16V-5.525h2.754a1.677,1.677,0,0,1,1.87,1.666,1.683,1.683,0,0,1-1.87,1.649Zm8.483-2.431a4.7,4.7,0,0,0,1.394,3.468A4.842,4.842,0,0,0-96.577.238a4.842,4.842,0,0,0,3.57-1.411,4.7,4.7,0,0,0,1.394-3.468,4.692,4.692,0,0,0-1.394-3.451,4.79,4.79,0,0,0-3.57-1.428,4.79,4.79,0,0,0-3.57,1.428A4.692,4.692,0,0,0-101.541-4.641Zm3.128,1.887a2.659,2.659,0,0,1-.731-1.887,2.591,2.591,0,0,1,.731-1.87,2.45,2.45,0,0,1,1.836-.765,2.413,2.413,0,0,1,1.819.765,2.606,2.606,0,0,1,.748,1.87,2.674,2.674,0,0,1-.748,1.887,2.413,2.413,0,0,1-1.819.765A2.45,2.45,0,0,1-98.413-2.754Zm13.158-1.9,2.89-4.607h-2.7l-1.7,2.839-1.581-2.839h-2.737l2.737,4.539L-91.426,0h2.771L-86.8-3.043-85.034,0h2.754Zm14.5,4.845a6.874,6.874,0,0,0,5.542-2.669l-1.734-1.581A4.486,4.486,0,0,1-70.6-2.227a3.87,3.87,0,0,1-2.856-1.139A3.882,3.882,0,0,1-74.6-6.239,4,4,0,0,1-73.44-9.18a3.833,3.833,0,0,1,2.856-1.173A4.484,4.484,0,0,1-67-8.534l1.683-1.649a6.626,6.626,0,0,0-5.406-2.6,6.35,6.35,0,0,0-4.607,1.853,6.263,6.263,0,0,0-1.887,4.692A6.186,6.186,0,0,0-75.361-1.6,6.417,6.417,0,0,0-70.754.187ZM-56.848-8.16A3.84,3.84,0,0,0-59.806-9.5a4.338,4.338,0,0,0-3.281,1.377A4.788,4.788,0,0,0-64.4-4.675a4.956,4.956,0,0,0,1.292,3.5,4.3,4.3,0,0,0,3.3,1.394,3.855,3.855,0,0,0,2.958-1.292V0h2.278V-9.265h-2.278Zm.034,3.519a2.686,2.686,0,0,1-.748,1.9,2.416,2.416,0,0,1-1.853.782,2.416,2.416,0,0,1-1.853-.782A2.671,2.671,0,0,1-62-4.641a2.719,2.719,0,0,1,.714-1.887,2.427,2.427,0,0,1,1.87-.782,2.416,2.416,0,0,1,1.853.782A2.674,2.674,0,0,1-56.814-4.641ZM-50.014,0V-4.4c0-1.921.9-2.8,2.261-2.8a3.859,3.859,0,0,1,1.1.187l.2-2.3a3.264,3.264,0,0,0-1.122-.2,2.734,2.734,0,0,0-2.55,1.5V-9.265h-2.295V0Zm10.965-2.431a3.161,3.161,0,0,1-1.547.476c-.867,0-1.309-.544-1.309-1.632V-7.259h3.06V-9.265h-3.06v-3.281h-2.38v3.281h-1.53v2.006H-44.3v3.825c0,2.4,1.1,3.655,3.23,3.655a4.794,4.794,0,0,0,2.737-.765Zm5.406-9.01a2.793,2.793,0,0,1,1.054.391,2.854,2.854,0,0,0,1.275.374,2.56,2.56,0,0,0,2.295-1.955l-1.513-.714c-.289.527-.612.8-1,.8a2.924,2.924,0,0,1-1-.357,2.741,2.741,0,0,0-1.275-.374,2.671,2.671,0,0,0-2.448,1.955l1.53.748C-34.442-11.152-34.085-11.441-33.643-11.441Zm3.366,3.281A3.84,3.84,0,0,0-33.235-9.5a4.338,4.338,0,0,0-3.281,1.377,4.788,4.788,0,0,0-1.309,3.451,4.956,4.956,0,0,0,1.292,3.5,4.3,4.3,0,0,0,3.3,1.394,3.855,3.855,0,0,0,2.958-1.292V0H-28V-9.265h-2.278Zm.034,3.519a2.686,2.686,0,0,1-.748,1.9,2.416,2.416,0,0,1-1.853.782A2.416,2.416,0,0,1-34.7-2.737a2.671,2.671,0,0,1-.731-1.9,2.719,2.719,0,0,1,.714-1.887,2.427,2.427,0,0,1,1.87-.782,2.416,2.416,0,0,1,1.853.782A2.674,2.674,0,0,1-30.243-4.641Zm3.944,0a4.7,4.7,0,0,0,1.394,3.468A4.842,4.842,0,0,0-21.335.238a4.842,4.842,0,0,0,3.57-1.411,4.7,4.7,0,0,0,1.394-3.468,4.692,4.692,0,0,0-1.394-3.451,4.79,4.79,0,0,0-3.57-1.428,4.79,4.79,0,0,0-3.57,1.428A4.692,4.692,0,0,0-26.3-4.641Zm3.128,1.887A2.659,2.659,0,0,1-23.9-4.641a2.591,2.591,0,0,1,.731-1.87,2.45,2.45,0,0,1,1.836-.765,2.413,2.413,0,0,1,1.819.765,2.606,2.606,0,0,1,.748,1.87,2.674,2.674,0,0,1-.748,1.887,2.413,2.413,0,0,1-1.819.765A2.45,2.45,0,0,1-23.171-2.754ZM-4.556,1.887A7.991,7.991,0,0,1-8.364-5a7.72,7.72,0,0,1,3.808-6.851l-1.02-1.9A9.413,9.413,0,0,0-10.982-5,9.455,9.455,0,0,0-5.661,3.74ZM3.009-8.16A3.84,3.84,0,0,0,.051-9.5,4.338,4.338,0,0,0-3.23-8.126,4.788,4.788,0,0,0-4.539-4.675a4.956,4.956,0,0,0,1.292,3.5A4.3,4.3,0,0,0,.051.221,3.855,3.855,0,0,0,3.009-1.071V0H5.287V-9.265H3.009Zm.034,3.519a2.686,2.686,0,0,1-.748,1.9,2.416,2.416,0,0,1-1.853.782,2.416,2.416,0,0,1-1.853-.782,2.671,2.671,0,0,1-.731-1.9,2.719,2.719,0,0,1,.714-1.887A2.427,2.427,0,0,1,.442-7.31a2.416,2.416,0,0,1,1.853.782A2.674,2.674,0,0,1,3.043-4.641ZM12.767-9.5A3.736,3.736,0,0,0,9.826-8.126V-9.265H7.446V3.808h2.4V-1.071A3.8,3.8,0,0,0,12.75.221,4.271,4.271,0,0,0,16.014-1.19a4.9,4.9,0,0,0,1.309-3.451,4.889,4.889,0,0,0-1.292-3.451A4.271,4.271,0,0,0,12.767-9.5Zm-.425,7.531a2.4,2.4,0,0,1-1.836-.765,2.661,2.661,0,0,1-.714-1.887,2.661,2.661,0,0,1,.714-1.887,2.4,2.4,0,0,1,1.836-.765,2.41,2.41,0,0,1,1.853.765,2.661,2.661,0,0,1,.714,1.887A2.661,2.661,0,0,1,14.2-2.737,2.41,2.41,0,0,1,12.342-1.972ZM21.42,0V-4.4c0-1.921.9-2.8,2.261-2.8a3.859,3.859,0,0,1,1.1.187l.2-2.3a3.264,3.264,0,0,0-1.122-.2,2.734,2.734,0,0,0-2.55,1.5V-9.265h-2.3V0Zm3.944-4.641a4.7,4.7,0,0,0,1.394,3.468A4.842,4.842,0,0,0,30.328.238,4.842,4.842,0,0,0,33.9-1.173a4.7,4.7,0,0,0,1.394-3.468A4.692,4.692,0,0,0,33.9-8.092a4.79,4.79,0,0,0-3.57-1.428,4.79,4.79,0,0,0-3.57,1.428A4.692,4.692,0,0,0,25.364-4.641Zm3.128,1.887a2.659,2.659,0,0,1-.731-1.887,2.591,2.591,0,0,1,.731-1.87,2.45,2.45,0,0,1,1.836-.765,2.413,2.413,0,0,1,1.819.765,2.606,2.606,0,0,1,.748,1.87,2.674,2.674,0,0,1-.748,1.887,2.413,2.413,0,0,1-1.819.765A2.45,2.45,0,0,1,28.492-2.754Zm13.158-1.9,2.89-4.607h-2.7l-1.7,2.839L38.556-9.265H35.819l2.737,4.539L35.479,0H38.25L40.1-3.043,41.871,0h2.754ZM46.937.272A1.361,1.361,0,0,0,48.3-1.122a1.353,1.353,0,0,0-1.36-1.36,1.365,1.365,0,0,0-1.411,1.36A1.372,1.372,0,0,0,46.937.272ZM57.545.2A4.913,4.913,0,0,0,60.809-.833a3.336,3.336,0,0,0,1.258-2.686A3.036,3.036,0,0,0,59.6-6.613v-.068A2.984,2.984,0,0,0,61.727-9.5a2.88,2.88,0,0,0-1.139-2.329,4.307,4.307,0,0,0-2.839-.952,6.018,6.018,0,0,0-4.012,1.53l1.207,1.8a4.391,4.391,0,0,1,2.5-.969c1.02,0,1.751.544,1.751,1.445,0,.884-.748,1.479-1.9,1.479H55.913v2.244h1.6c1.156,0,1.938.629,1.938,1.564,0,.952-.765,1.581-2.04,1.581A5.65,5.65,0,0,1,54.5-3.043L53.448-1.037A7.539,7.539,0,0,0,57.545.2ZM68.68.2c3.5,0,5.083-3.026,5.083-6.494s-1.581-6.494-5.083-6.494A4.734,4.734,0,0,0,64.124-9.52,9.131,9.131,0,0,0,63.6-6.29c0,2.4.663,4.352,2.227,5.576A4.493,4.493,0,0,0,68.68.2ZM71.264-6.29c0,2.448-.867,4.131-2.584,4.131S66.113-3.842,66.113-6.29a6.122,6.122,0,0,1,.646-2.975,2.08,2.08,0,0,1,1.921-1.156,2.087,2.087,0,0,1,1.938,1.156A6.122,6.122,0,0,1,71.264-6.29ZM80.376.2c3.5,0,5.083-3.026,5.083-6.494s-1.581-6.494-5.083-6.494A4.734,4.734,0,0,0,75.82-9.52a9.131,9.131,0,0,0-.527,3.23c0,2.4.663,4.352,2.227,5.576A4.493,4.493,0,0,0,80.376.2ZM82.96-6.29c0,2.448-.867,4.131-2.584,4.131S77.809-3.842,77.809-6.29a6.122,6.122,0,0,1,.646-2.975,2.08,2.08,0,0,1,1.921-1.156,2.087,2.087,0,0,1,1.938,1.156A6.122,6.122,0,0,1,82.96-6.29ZM96.339,0,91.97-5.474,96.1-9.265H93.075L89.709-6.1V-12.92h-2.4V0h2.4V-3.4l.629-.561L93.4,0Zm7.327-8.245A3.727,3.727,0,0,0,100.81-9.5a4.576,4.576,0,0,0-3.366,1.36,4.638,4.638,0,0,0-1.36,3.417,4.682,4.682,0,0,0,1.292,3.4A4.407,4.407,0,0,0,100.708.017a3.635,3.635,0,0,0,2.856-1.19V-.7c0,1.5-1.054,2.567-2.89,2.567A5.715,5.715,0,0,1,97.427.782l-.935,1.8a7.066,7.066,0,0,0,4.25,1.343,5.305,5.305,0,0,0,3.706-1.309,4.561,4.561,0,0,0,1.428-3.536V-9.265h-2.21ZM98.5-4.709a2.5,2.5,0,0,1,.731-1.853,2.5,2.5,0,0,1,1.836-.748,2.5,2.5,0,0,1,1.836.748,2.5,2.5,0,0,1,.731,1.853,2.6,2.6,0,0,1-.731,1.887,2.5,2.5,0,0,1-1.836.748,2.5,2.5,0,0,1-1.836-.748A2.549,2.549,0,0,1,98.5-4.709Zm9.469,8.449A9.442,9.442,0,0,0,113.305-5a9.413,9.413,0,0,0-5.406-8.755l-1.02,1.9A7.72,7.72,0,0,1,110.687-5a7.991,7.991,0,0,1-3.808,6.885Z" transform="translate(1556 3226)" fill="#fab44a"/>
    <path id="Caminho_1076" data-name="Caminho 1076" d="M0,0H674V44H0Z" transform="translate(1050 3268)" fill="#fab44a"/>
    <path id="Caminho_1077" data-name="Caminho 1077" d="M-75.514.187a6.874,6.874,0,0,0,5.542-2.669l-1.734-1.581a4.486,4.486,0,0,1-3.655,1.836,3.87,3.87,0,0,1-2.856-1.139,3.882,3.882,0,0,1-1.139-2.873A4,4,0,0,1-78.2-9.18a3.833,3.833,0,0,1,2.856-1.173,4.484,4.484,0,0,1,3.587,1.819l1.683-1.649a6.626,6.626,0,0,0-5.406-2.6,6.35,6.35,0,0,0-4.607,1.853,6.263,6.263,0,0,0-1.887,4.692A6.186,6.186,0,0,0-80.121-1.6,6.417,6.417,0,0,0-75.514.187ZM-58.242,0l-4.726-12.563h-2.057L-69.819,0h2.635l.969-2.72h4.386L-60.894,0Zm-4.3-4.964H-65.5l1.5-4.182ZM-56.712,0h2.533V-12.563h-2.533Zm6.953,0,2.652-4.4L-44.489,0h2.907l-3.944-6.358,3.961-6.205h-2.958l-2.567,4.3-2.448-4.3h-2.907l3.757,6.205L-52.717,0Zm20.043,0-4.726-12.563H-36.5L-41.293,0h2.635l.969-2.72H-33.3L-32.368,0Zm-4.3-4.964h-2.958l1.5-4.182ZM-19.6,0A5.975,5.975,0,0,0-15.1-1.683a6.238,6.238,0,0,0,1.649-4.573,6.392,6.392,0,0,0-1.615-4.607,5.79,5.79,0,0,0-4.437-1.7h-4.913V0Zm-2.3-10.149h2.414a3.059,3.059,0,0,1,2.516,1.105,4.178,4.178,0,0,1,.9,2.737,4.288,4.288,0,0,1-.9,2.788,3.059,3.059,0,0,1-2.516,1.105H-21.9ZM-2.8,0V-2.346H-8.789V-5.168h5.542V-7.514H-8.789v-2.7H-2.8v-2.346h-8.517V0ZM6.188,0V-7.123L9.843-1.87h.867l3.655-5.253V0h2.516V-12.563h-1.7L10.3-5.44l-4.93-7.123H3.706V0ZM29.971,0,25.245-12.563H23.188L18.394,0h2.635L22-2.72h4.386L27.319,0Zm-4.3-4.964H22.712l1.5-4.182ZM36.312,0a5.975,5.975,0,0,0,4.5-1.683,6.238,6.238,0,0,0,1.649-4.573,6.392,6.392,0,0,0-1.615-4.607,5.79,5.79,0,0,0-4.437-1.7H31.5V0Zm-2.3-10.149h2.414a3.059,3.059,0,0,1,2.516,1.105,4.178,4.178,0,0,1,.9,2.737,4.288,4.288,0,0,1-.9,2.788,3.059,3.059,0,0,1-2.516,1.105H34.017ZM53.108,0V-2.346H47.124V-5.168h5.542V-7.514H47.124v-2.7h5.984v-2.346H44.591V0ZM55.42,0h2.533V-12.563H55.42ZM70.346,0,67.3-4.9a3.758,3.758,0,0,0,2.55-3.689,3.927,3.927,0,0,0-1.1-2.822,4.228,4.228,0,0,0-3.2-1.156H60.741V0h2.516V-4.573h1.5L67.405,0ZM65.535-10.234a1.62,1.62,0,0,1,1.734,1.683c0,.969-.646,1.717-1.955,1.717H63.257v-3.4ZM82.518,0,77.792-12.563H75.735L70.941,0h2.635l.969-2.72h4.386L79.866,0Zm-4.3-4.964H75.259l1.5-4.182Z" transform="translate(1390 3296)" fill="#fff"/>
  </g>
</svg>
