<svg id="down-arrow_1_" data-name="down-arrow (1)" xmlns="http://www.w3.org/2000/svg" width="35.172" height="35.172" viewBox="0 0 35.172 35.172">
  <g id="Grupo_897" data-name="Grupo 897">
    <g id="Grupo_896" data-name="Grupo 896">
      <path id="Caminho_546" data-name="Caminho 546" d="M17.586,0A17.586,17.586,0,1,0,35.172,17.586,17.561,17.561,0,0,0,17.586,0Zm0,32.82A15.235,15.235,0,1,1,32.821,17.586,15.2,15.2,0,0,1,17.586,32.82Z" fill="#fff"/>
    </g>
  </g>
  <g id="Grupo_899" data-name="Grupo 899" transform="translate(8.798 13.366)">
    <g id="Grupo_898" data-name="Grupo 898">
      <path id="Caminho_547" data-name="Caminho 547" d="M145.327,194.969a1.144,1.144,0,0,0-1.645,0l-6.795,6.795-6.795-6.795a1.163,1.163,0,0,0-1.645,1.645l7.617,7.617a1.061,1.061,0,0,0,.823.349.991.991,0,0,0,.706-.232l7.734-7.734A1.145,1.145,0,0,0,145.327,194.969Z" transform="translate(-128.099 -194.62)" fill="#fff"/>
    </g>
  </g>
</svg>
