<svg xmlns="http://www.w3.org/2000/svg" width="17.911" height="17.914" viewBox="0 0 17.911 17.914">
  <g id="_4" data-name="4" transform="translate(-855.219 -101.533)">
    <g id="Grupo_937" data-name="Grupo 937" transform="translate(866.298 111.883)">
      <path id="Caminho_641" data-name="Caminho 641" d="M901.74,147.875a1.882,1.882,0,0,1-1.335-.552l-3.359-3.359.485-.485,3.359,3.359a1.2,1.2,0,1,0,1.7-1.7l-4.092-4.092.485-.485,4.092,4.092a1.887,1.887,0,0,1-1.335,3.222Z" transform="translate(-897.046 -140.561)" fill="#f9e7ce" stroke="#f9e7ce" stroke-width="0.5"/>
    </g>
    <g id="Grupo_938" data-name="Grupo 938" transform="translate(855.469 101.783)">
      <path id="Caminho_642" data-name="Caminho 642" d="M862.343,115.539a6.834,6.834,0,0,1-4.864-2.015h0a6.878,6.878,0,1,1,4.864,2.015Zm-4.379-2.5a6.193,6.193,0,1,0,0-8.757,6.152,6.152,0,0,0,0,8.757Z" transform="translate(-855.469 -101.783)" fill="#f9e7ce" stroke="#f9e7ce" stroke-width="0.5"/>
    </g>
  </g>
</svg>
