<svg xmlns="http://www.w3.org/2000/svg" width="32" height="1" viewBox="0 0 32 1">
  <line id="Linha_6" data-name="Linha 6" x2="32" transform="translate(0 0.5)" fill="none" stroke="#f9e7ce" stroke-width="1"/>
</svg>
