<svg xmlns="http://www.w3.org/2000/svg" width="675" height="230" viewBox="0 0 675 230">
  <g id="Grupo_1224" data-name="Grupo 1224" transform="translate(-1050 -3140)">
    <path id="Caminho_1050" data-name="Caminho 1050" d="M0,0H674V44H0Z" transform="translate(1050 3140)" fill="#75904a"/>
    <path id="Caminho_1039" data-name="Caminho 1039" d="M0,0H674V44H0Z" transform="translate(1050 3268)" fill="#75904a"/>
    <g id="Caminho_1040" data-name="Caminho 1040" transform="translate(1050 3326)" fill="none">
      <path d="M0,0H330V44H0Z" stroke="none"/>
      <path d="M 2 2 L 2 42 L 328 42 L 328 2 L 2 2 M 0 0 L 330 0 L 330 44 L 0 44 L 0 0 Z" stroke="none" fill="#75904a"/>
    </g>
    <g id="Caminho_1038" data-name="Caminho 1038" transform="translate(1394 3326)" fill="none">
      <path d="M0,0H330V44H0Z" stroke="none"/>
      <path d="M 2 2 L 2 42 L 328 42 L 328 2 L 2 2 M 0 0 L 330 0 L 330 44 L 0 44 L 0 0 Z" stroke="none" fill="#75904a"/>
    </g>
    <path id="Caminho_1051" data-name="Caminho 1051" d="M-70.644.187A6.874,6.874,0,0,0-65.1-2.482l-1.734-1.581a4.486,4.486,0,0,1-3.655,1.836,3.87,3.87,0,0,1-2.856-1.139,3.882,3.882,0,0,1-1.139-2.873A4,4,0,0,1-73.329-9.18a3.833,3.833,0,0,1,2.856-1.173,4.484,4.484,0,0,1,3.587,1.819l1.683-1.649a6.626,6.626,0,0,0-5.406-2.6,6.35,6.35,0,0,0-4.607,1.853A6.263,6.263,0,0,0-77.1-6.239,6.186,6.186,0,0,0-75.251-1.6,6.417,6.417,0,0,0-70.644.187ZM-53.372,0-58.1-12.563h-2.057L-64.949,0h2.635l.969-2.72h4.386L-56.024,0Zm-4.3-4.964h-2.958l1.5-4.182ZM-51.841,0h2.533V-12.563h-2.533Zm6.953,0,2.652-4.4L-39.618,0h2.907l-3.944-6.358,3.961-6.205h-2.958l-2.567,4.3-2.448-4.3h-2.907l3.757,6.205L-47.847,0Zm20.043,0-4.726-12.563h-2.057L-36.423,0h2.635l.969-2.72h4.386L-27.5,0Zm-4.3-4.964H-32.1l1.5-4.182ZM-14.731,0a5.975,5.975,0,0,0,4.505-1.683A6.238,6.238,0,0,0-8.577-6.256a6.392,6.392,0,0,0-1.615-4.607,5.79,5.79,0,0,0-4.437-1.7h-4.913V0Zm-2.3-10.149h2.414A3.059,3.059,0,0,1-12.1-9.044a4.178,4.178,0,0,1,.9,2.737,4.288,4.288,0,0,1-.9,2.788,3.059,3.059,0,0,1-2.516,1.105h-2.414ZM2.066,0V-2.346H-3.918V-5.168H1.624V-7.514H-3.918v-2.7H2.066v-2.346H-6.451V0ZM14.323.187a6.874,6.874,0,0,0,5.542-2.669L18.131-4.063a4.486,4.486,0,0,1-3.655,1.836A3.87,3.87,0,0,1,11.62-3.366a3.882,3.882,0,0,1-1.139-2.873A4,4,0,0,1,11.637-9.18a3.833,3.833,0,0,1,2.856-1.173A4.484,4.484,0,0,1,18.08-8.534l1.683-1.649a6.626,6.626,0,0,0-5.406-2.6A6.35,6.35,0,0,0,9.75-10.931,6.263,6.263,0,0,0,7.863-6.239,6.186,6.186,0,0,0,9.716-1.6,6.417,6.417,0,0,0,14.323.187ZM31.594,0,26.868-12.563H24.811L20.017,0h2.635l.969-2.72h4.386L28.942,0Zm-4.3-4.964H24.335l1.5-4.182ZM42.729,0,39.687-4.9a3.758,3.758,0,0,0,2.55-3.689,3.927,3.927,0,0,0-1.1-2.822,4.228,4.228,0,0,0-3.2-1.156H33.125V0H35.64V-4.573h1.5L39.788,0ZM37.918-10.234a1.62,1.62,0,0,1,1.734,1.683c0,.969-.646,1.717-1.955,1.717H35.64v-3.4ZM46.809,0h2.55V-10.132h3.587v-2.431H43.222v2.431h3.587Zm10-14.314a2.993,2.993,0,0,1,1.088.391,3.1,3.1,0,0,0,1.309.391,2.629,2.629,0,0,0,2.346-2.006L60-16.269c-.289.544-.646.816-1.037.816a2.721,2.721,0,0,1-1-.374,2.923,2.923,0,0,0-1.326-.374,2.708,2.708,0,0,0-2.5,2.006l1.564.765C55.989-14.025,56.346-14.314,56.805-14.314ZM63.707,0,58.981-12.563H56.924L52.13,0h2.635l.969-2.72H60.12L61.055,0Zm-4.3-4.964H56.448l1.5-4.182ZM70.559.2a6.32,6.32,0,0,0,4.658-1.887,6.2,6.2,0,0,0,1.9-4.59,6.263,6.263,0,0,0-1.9-4.607,6.258,6.258,0,0,0-4.641-1.9,6.323,6.323,0,0,0-4.658,1.9,6.363,6.363,0,0,0-1.887,4.641,6.244,6.244,0,0,0,1.87,4.59A6.33,6.33,0,0,0,70.559.2ZM74.5-6.273a3.791,3.791,0,0,1-1.122,2.856,3.808,3.808,0,0,1-2.805,1.139,3.808,3.808,0,0,1-2.805-1.139,3.923,3.923,0,0,1-1.122-2.856,3.908,3.908,0,0,1,1.139-2.873A3.785,3.785,0,0,1,70.576-10.3a3.785,3.785,0,0,1,2.788,1.156A3.882,3.882,0,0,1,74.5-6.273Z" transform="translate(1390 3168)" fill="#fcf2e5"/>
    <path id="Caminho_1041" data-name="Caminho 1041" d="M-37.834,0a5.975,5.975,0,0,0,4.505-1.683A6.238,6.238,0,0,0-31.68-6.256a6.392,6.392,0,0,0-1.615-4.607,5.79,5.79,0,0,0-4.437-1.7h-4.913V0Zm-2.295-10.149h2.414A3.059,3.059,0,0,1-35.2-9.044a4.178,4.178,0,0,1,.9,2.737,4.288,4.288,0,0,1-.9,2.788,3.059,3.059,0,0,1-2.516,1.105h-2.414ZM-29.555,0h2.533V-12.563h-2.533Zm10.217-3.876-3.315-8.687H-25.56L-20.341,0h2.006l5.151-12.563H-16.04ZM-3.171,0V-2.346H-9.155V-5.168h5.542V-7.514H-9.155v-2.7h5.984v-2.346h-8.517V0ZM8.746,0,5.7-4.9a3.758,3.758,0,0,0,2.55-3.689,3.927,3.927,0,0,0-1.105-2.822,4.228,4.228,0,0,0-3.2-1.156H-.859V0H1.657V-4.573h1.5L5.805,0ZM3.935-10.234A1.62,1.62,0,0,1,5.669-8.551c0,.969-.646,1.717-1.955,1.717H1.657v-3.4ZM14.254.2A5,5,0,0,0,17.586-.867a3.433,3.433,0,0,0,1.275-2.754,3.337,3.337,0,0,0-2.142-3.128q-.484-.229-1.53-.663l-1.241-.544c-.68-.34-1.02-.748-1.02-1.241,0-.731.612-1.207,1.615-1.207A3.967,3.967,0,0,1,17.3-9.231l1.343-1.836a5.566,5.566,0,0,0-4.131-1.7,4.551,4.551,0,0,0-3.094,1.054A3.314,3.314,0,0,0,10.225-9.1a3.485,3.485,0,0,0,1.989,3.128,13.121,13.121,0,0,0,1.479.68c.663.255,1.071.408,1.241.493.765.357,1.139.8,1.139,1.309,0,.8-.765,1.343-1.8,1.343a4.07,4.07,0,0,1-3.332-1.751L9.494-2.142A5.653,5.653,0,0,0,14.254.2ZM26.63.2a6.32,6.32,0,0,0,4.658-1.887,6.2,6.2,0,0,0,1.9-4.59,6.263,6.263,0,0,0-1.9-4.607,6.258,6.258,0,0,0-4.641-1.9,6.323,6.323,0,0,0-4.658,1.9A6.363,6.363,0,0,0,20.1-6.239a6.244,6.244,0,0,0,1.87,4.59A6.33,6.33,0,0,0,26.63.2Zm3.944-6.477a3.791,3.791,0,0,1-1.122,2.856,3.808,3.808,0,0,1-2.805,1.139,3.808,3.808,0,0,1-2.805-1.139A3.923,3.923,0,0,1,22.72-6.273a3.908,3.908,0,0,1,1.139-2.873A3.785,3.785,0,0,1,26.647-10.3a3.785,3.785,0,0,1,2.788,1.156A3.882,3.882,0,0,1,30.574-6.273ZM38.819.2A5,5,0,0,0,42.152-.867a3.433,3.433,0,0,0,1.275-2.754,3.337,3.337,0,0,0-2.142-3.128q-.484-.229-1.53-.663l-1.241-.544c-.68-.34-1.02-.748-1.02-1.241,0-.731.612-1.207,1.615-1.207a3.967,3.967,0,0,1,2.754,1.173l1.343-1.836a5.566,5.566,0,0,0-4.131-1.7,4.551,4.551,0,0,0-3.094,1.054A3.314,3.314,0,0,0,34.791-9.1a3.485,3.485,0,0,0,1.989,3.128,13.121,13.121,0,0,0,1.479.68c.663.255,1.071.408,1.241.493.765.357,1.139.8,1.139,1.309,0,.8-.765,1.343-1.8,1.343A4.07,4.07,0,0,1,35.5-3.893L34.06-2.142A5.653,5.653,0,0,0,38.819.2Z" transform="translate(1390 3296)" fill="#fff"/>
    <path id="Caminho_1043" data-name="Caminho 1043" d="M-16.482.2A5,5,0,0,0-13.15-.867a3.433,3.433,0,0,0,1.275-2.754,3.337,3.337,0,0,0-2.142-3.128q-.484-.229-1.53-.663l-1.241-.544c-.68-.34-1.02-.748-1.02-1.241,0-.731.612-1.207,1.615-1.207a3.967,3.967,0,0,1,2.754,1.173l1.343-1.836a5.566,5.566,0,0,0-4.131-1.7,4.551,4.551,0,0,0-3.094,1.054A3.314,3.314,0,0,0-20.51-9.1a3.485,3.485,0,0,0,1.989,3.128,13.121,13.121,0,0,0,1.479.68c.663.255,1.071.408,1.241.493.765.357,1.139.8,1.139,1.309,0,.8-.765,1.343-1.8,1.343A4.07,4.07,0,0,1-19.8-3.893l-1.445,1.751A5.653,5.653,0,0,0-16.482.2ZM-3.12-8.16A3.84,3.84,0,0,0-6.078-9.5,4.338,4.338,0,0,0-9.359-8.126a4.788,4.788,0,0,0-1.309,3.451,4.956,4.956,0,0,0,1.292,3.5A4.3,4.3,0,0,0-6.078.221,3.855,3.855,0,0,0-3.12-1.071V0H-.842V-9.265H-3.12Zm.034,3.519a2.686,2.686,0,0,1-.748,1.9,2.416,2.416,0,0,1-1.853.782A2.416,2.416,0,0,1-7.54-2.737a2.671,2.671,0,0,1-.731-1.9,2.719,2.719,0,0,1,.714-1.887,2.427,2.427,0,0,1,1.87-.782,2.416,2.416,0,0,1,1.853.782A2.674,2.674,0,0,1-3.086-4.641ZM5.737.2a4.844,4.844,0,0,0,4.352-2.448L8.151-3.383A2.724,2.724,0,0,1,5.788-1.989a2.539,2.539,0,0,1-1.853-.748,2.616,2.616,0,0,1-.731-1.9,2.55,2.55,0,0,1,.748-1.87,2.511,2.511,0,0,1,1.887-.765A2.644,2.644,0,0,1,8.2-5.865l1.921-1.054A4.611,4.611,0,0,0,5.806-9.5,4.9,4.9,0,0,0,2.218-8.126,4.636,4.636,0,0,0,.824-4.641,4.687,4.687,0,0,0,2.2-1.156,4.833,4.833,0,0,0,5.737.2Zm5.3-4.845a4.7,4.7,0,0,0,1.394,3.468A4.842,4.842,0,0,0,16.006.238a4.842,4.842,0,0,0,3.57-1.411A4.7,4.7,0,0,0,20.97-4.641a4.692,4.692,0,0,0-1.394-3.451,4.79,4.79,0,0,0-3.57-1.428,4.79,4.79,0,0,0-3.57,1.428A4.692,4.692,0,0,0,11.042-4.641ZM14.17-2.754a2.659,2.659,0,0,1-.731-1.887,2.591,2.591,0,0,1,.731-1.87,2.45,2.45,0,0,1,1.836-.765,2.413,2.413,0,0,1,1.819.765,2.606,2.606,0,0,1,.748,1.87,2.674,2.674,0,0,1-.748,1.887,2.413,2.413,0,0,1-1.819.765A2.45,2.45,0,0,1,14.17-2.754Z" transform="translate(1212 3354)" fill="#75904a"/>
    <path id="Caminho_1042" data-name="Caminho 1042" d="M-36.15,0h2.55V-10.132h3.587v-2.431h-9.724v2.431h3.587Zm13.09-8.16A3.84,3.84,0,0,0-26.018-9.5,4.338,4.338,0,0,0-29.3-8.126a4.788,4.788,0,0,0-1.309,3.451,4.956,4.956,0,0,0,1.292,3.5,4.3,4.3,0,0,0,3.3,1.394A3.855,3.855,0,0,0-23.06-1.071V0h2.278V-9.265H-23.06Zm.034,3.519a2.686,2.686,0,0,1-.748,1.9,2.416,2.416,0,0,1-1.853.782,2.416,2.416,0,0,1-1.853-.782,2.671,2.671,0,0,1-.731-1.9A2.719,2.719,0,0,1-27.5-6.528a2.427,2.427,0,0,1,1.87-.782,2.416,2.416,0,0,1,1.853.782A2.674,2.674,0,0,1-23.026-4.641ZM-13.4-9.5a3.619,3.619,0,0,0-2.822,1.309V-12.92h-2.4V0h2.329V-1.156A3.59,3.59,0,0,0-13.4.221a4.4,4.4,0,0,0,3.3-1.377A4.855,4.855,0,0,0-8.78-4.624a4.855,4.855,0,0,0-1.326-3.468A4.37,4.37,0,0,0-13.4-9.5Zm-2.924,4.862a2.649,2.649,0,0,1,.714-1.87,2.355,2.355,0,0,1,1.836-.782,2.4,2.4,0,0,1,1.836.765,2.661,2.661,0,0,1,.714,1.887,2.732,2.732,0,0,1-.714,1.9,2.4,2.4,0,0,1-1.836.765,2.4,2.4,0,0,1-1.836-.765A2.732,2.732,0,0,1-16.328-4.641ZM-2.966.221c2.652,0,4.25-1.53,4.25-4.131V-9.265h-2.4V-3.91A1.764,1.764,0,0,1-2.966-1.972,1.764,1.764,0,0,1-4.819-3.91V-9.265h-2.4V-3.91C-7.216-1.309-5.6.221-2.966.221Zm8.7-13.141h-2.4V0h2.4ZM16.89-4.845a4.482,4.482,0,0,0-1.309-3.4A4.636,4.636,0,0,0,12.249-9.5,4.661,4.661,0,0,0,8.764-8.126,4.755,4.755,0,0,0,7.421-4.641,4.876,4.876,0,0,0,8.713-1.207,4.845,4.845,0,0,0,12.453.2,6.705,6.705,0,0,0,16.5-1.071l-.952-1.683a5.755,5.755,0,0,1-2.992.935,2.492,2.492,0,0,1-2.7-1.972H16.8A7.972,7.972,0,0,0,16.89-4.845ZM12.249-7.514a2.227,2.227,0,0,1,2.312,1.938H9.852A2.373,2.373,0,0,1,12.249-7.514Zm8.585-3.213a1.509,1.509,0,0,0,0-2.091,1.531,1.531,0,0,0-2.108,0,1.509,1.509,0,0,0,0,2.091A1.531,1.531,0,0,0,20.833-10.727Zm.136,1.462h-2.4V0h2.4ZM25.509,0V-4.4c0-1.921.9-2.8,2.261-2.8a3.859,3.859,0,0,1,1.1.187l.2-2.3a3.264,3.264,0,0,0-1.122-.2,2.734,2.734,0,0,0-2.55,1.5V-9.265h-2.3V0Zm3.944-4.641a4.7,4.7,0,0,0,1.394,3.468A4.842,4.842,0,0,0,34.417.238a4.842,4.842,0,0,0,3.57-1.411,4.7,4.7,0,0,0,1.394-3.468,4.692,4.692,0,0,0-1.394-3.451,4.79,4.79,0,0,0-3.57-1.428,4.79,4.79,0,0,0-3.57,1.428A4.692,4.692,0,0,0,29.453-4.641Zm3.128,1.887a2.659,2.659,0,0,1-.731-1.887,2.591,2.591,0,0,1,.731-1.87,2.45,2.45,0,0,1,1.836-.765,2.413,2.413,0,0,1,1.819.765,2.606,2.606,0,0,1,.748,1.87,2.674,2.674,0,0,1-.748,1.887,2.413,2.413,0,0,1-1.819.765A2.45,2.45,0,0,1,32.581-2.754Z" transform="translate(1556 3354)" fill="#75904a"/>
    <g id="Caminho_1044" data-name="Caminho 1044" transform="translate(1050 3198)" fill="none">
      <path d="M0,0H216V44H0Z" stroke="none"/>
      <path d="M 2 2 L 2 42 L 214 42 L 214 2 L 2 2 M 0 0 L 216 0 L 216 44 L 0 44 L 0 0 Z" stroke="none" fill="#75904a"/>
    </g>
    <g id="Caminho_1045" data-name="Caminho 1045" transform="translate(1279 3198)" fill="none">
      <path d="M0,0H216V44H0Z" stroke="none"/>
      <path d="M 2 2 L 2 42 L 214 42 L 214 2 L 2 2 M 0 0 L 216 0 L 216 44 L 0 44 L 0 0 Z" stroke="none" fill="#75904a"/>
    </g>
    <g id="Caminho_1046" data-name="Caminho 1046" transform="translate(1509 3198)" fill="none">
      <path d="M0,0H216V44H0Z" stroke="none"/>
      <path d="M 2 2 L 2 42 L 214 42 L 214 2 L 2 2 M 0 0 L 216 0 L 216 44 L 0 44 L 0 0 Z" stroke="none" fill="#75904a"/>
    </g>
    <path id="Caminho_1047" data-name="Caminho 1047" d="M-43.656-9.469l1.292,1.785,2.006-1.547V0h2.465V-12.563h-1.87ZM-25.16.187a6.874,6.874,0,0,0,5.542-2.669l-1.734-1.581a4.486,4.486,0,0,1-3.655,1.836,3.87,3.87,0,0,1-2.856-1.139A3.882,3.882,0,0,1-29-6.239,4,4,0,0,1-27.846-9.18a3.833,3.833,0,0,1,2.856-1.173A4.484,4.484,0,0,1-21.4-8.534l1.683-1.649a6.626,6.626,0,0,0-5.406-2.6,6.35,6.35,0,0,0-4.607,1.853A6.263,6.263,0,0,0-31.62-6.239,6.186,6.186,0,0,0-29.767-1.6,6.417,6.417,0,0,0-25.16.187ZM-11.254-8.16A3.84,3.84,0,0,0-14.212-9.5a4.338,4.338,0,0,0-3.281,1.377A4.788,4.788,0,0,0-18.8-4.675a4.956,4.956,0,0,0,1.292,3.5,4.3,4.3,0,0,0,3.3,1.394,3.855,3.855,0,0,0,2.958-1.292V0h2.278V-9.265h-2.278Zm.034,3.519a2.686,2.686,0,0,1-.748,1.9,2.416,2.416,0,0,1-1.853.782,2.416,2.416,0,0,1-1.853-.782,2.671,2.671,0,0,1-.731-1.9,2.719,2.719,0,0,1,.714-1.887,2.427,2.427,0,0,1,1.87-.782,2.416,2.416,0,0,1,1.853.782A2.674,2.674,0,0,1-11.22-4.641ZM4.386-9.52A3.946,3.946,0,0,0,1.071-7.888,2.9,2.9,0,0,0-1.649-9.52,3.147,3.147,0,0,0-4.471-7.939V-9.265H-6.817V0h2.4V-5.066A2.029,2.029,0,0,1-2.4-7.31c1.139,0,1.87.8,1.87,2.176V0h2.4V-5.083A2.018,2.018,0,0,1,3.91-7.31c1.105,0,1.853.748,1.853,2.159V0h2.4V-5.593a3.835,3.835,0,0,0-1.071-2.89A3.652,3.652,0,0,0,4.386-9.52ZM17.272-8.16A3.84,3.84,0,0,0,14.314-9.5a4.338,4.338,0,0,0-3.281,1.377A4.788,4.788,0,0,0,9.724-4.675a4.956,4.956,0,0,0,1.292,3.5,4.3,4.3,0,0,0,3.3,1.394,3.855,3.855,0,0,0,2.958-1.292V0H19.55V-9.265H17.272Zm.034,3.519a2.686,2.686,0,0,1-.748,1.9,2.416,2.416,0,0,1-1.853.782,2.416,2.416,0,0,1-1.853-.782,2.671,2.671,0,0,1-.731-1.9,2.719,2.719,0,0,1,.714-1.887,2.427,2.427,0,0,1,1.87-.782,2.416,2.416,0,0,1,1.853.782A2.674,2.674,0,0,1,17.306-4.641ZM28.628-8.194A3.619,3.619,0,0,0,25.806-9.5a4.318,4.318,0,0,0-3.281,1.394,4.915,4.915,0,0,0-1.309,3.468,4.927,4.927,0,0,0,1.309,3.485A4.338,4.338,0,0,0,25.806.221a3.568,3.568,0,0,0,2.873-1.36V0h2.346V-12.92h-2.4Zm.119,3.553a2.744,2.744,0,0,1-.714,1.921,2.41,2.41,0,0,1-1.853.765,2.473,2.473,0,0,1-1.87-.765A2.744,2.744,0,0,1,23.6-4.641a2.661,2.661,0,0,1,.714-1.887,2.427,2.427,0,0,1,1.87-.782,2.366,2.366,0,0,1,1.853.782A2.661,2.661,0,0,1,28.747-4.641ZM40.256-8.16A3.84,3.84,0,0,0,37.3-9.5a4.338,4.338,0,0,0-3.281,1.377,4.788,4.788,0,0,0-1.309,3.451A4.956,4.956,0,0,0,34-1.173,4.3,4.3,0,0,0,37.3.221a3.855,3.855,0,0,0,2.958-1.292V0h2.278V-9.265H40.256Zm.034,3.519a2.686,2.686,0,0,1-.748,1.9,2.416,2.416,0,0,1-1.853.782,2.416,2.416,0,0,1-1.853-.782,2.671,2.671,0,0,1-.731-1.9,2.719,2.719,0,0,1,.714-1.887,2.427,2.427,0,0,1,1.87-.782,2.416,2.416,0,0,1,1.853.782A2.674,2.674,0,0,1,40.29-4.641Z" transform="translate(1159 3226)" fill="#75904a"/>
    <path id="Caminho_1048" data-name="Caminho 1048" d="M-42.619-4.675c1.564-1.632,2.346-3.06,2.346-4.267A3.605,3.605,0,0,0-41.429-11.7a4.086,4.086,0,0,0-2.941-1.088,6.1,6.1,0,0,0-4.4,1.955l1.377,1.8a4.291,4.291,0,0,1,2.822-1.394A1.614,1.614,0,0,1-42.84-8.806a2.035,2.035,0,0,1-.289.969,5.516,5.516,0,0,1-.51.8c-.153.187-.425.459-.8.85l-3.91,4.1V0h8.194V-2.312h-4.675ZM-28,.187a6.874,6.874,0,0,0,5.542-2.669l-1.734-1.581a4.486,4.486,0,0,1-3.655,1.836A3.87,3.87,0,0,1-30.7-3.366a3.882,3.882,0,0,1-1.139-2.873A4,4,0,0,1-30.685-9.18a3.833,3.833,0,0,1,2.856-1.173,4.484,4.484,0,0,1,3.587,1.819l1.683-1.649a6.626,6.626,0,0,0-5.406-2.6,6.35,6.35,0,0,0-4.607,1.853,6.263,6.263,0,0,0-1.887,4.692A6.186,6.186,0,0,0-32.606-1.6,6.417,6.417,0,0,0-28,.187ZM-14.093-8.16A3.84,3.84,0,0,0-17.051-9.5a4.338,4.338,0,0,0-3.281,1.377,4.788,4.788,0,0,0-1.309,3.451,4.956,4.956,0,0,0,1.292,3.5,4.3,4.3,0,0,0,3.3,1.394,3.855,3.855,0,0,0,2.958-1.292V0h2.278V-9.265h-2.278Zm.034,3.519a2.686,2.686,0,0,1-.748,1.9,2.416,2.416,0,0,1-1.853.782,2.416,2.416,0,0,1-1.853-.782,2.671,2.671,0,0,1-.731-1.9,2.719,2.719,0,0,1,.714-1.887,2.427,2.427,0,0,1,1.87-.782,2.416,2.416,0,0,1,1.853.782A2.674,2.674,0,0,1-14.059-4.641ZM1.547-9.52A3.946,3.946,0,0,0-1.768-7.888,2.9,2.9,0,0,0-4.488-9.52,3.147,3.147,0,0,0-7.31-7.939V-9.265H-9.656V0h2.4V-5.066A2.029,2.029,0,0,1-5.236-7.31c1.139,0,1.87.8,1.87,2.176V0h2.4V-5.083A2.018,2.018,0,0,1,1.071-7.31c1.105,0,1.853.748,1.853,2.159V0h2.4V-5.593A3.835,3.835,0,0,0,4.25-8.483,3.652,3.652,0,0,0,1.547-9.52ZM14.433-8.16A3.84,3.84,0,0,0,11.475-9.5,4.338,4.338,0,0,0,8.194-8.126,4.788,4.788,0,0,0,6.885-4.675a4.956,4.956,0,0,0,1.292,3.5,4.3,4.3,0,0,0,3.3,1.394,3.855,3.855,0,0,0,2.958-1.292V0h2.278V-9.265H14.433Zm.034,3.519a2.686,2.686,0,0,1-.748,1.9,2.416,2.416,0,0,1-1.853.782,2.416,2.416,0,0,1-1.853-.782,2.671,2.671,0,0,1-.731-1.9A2.719,2.719,0,0,1,10-6.528a2.427,2.427,0,0,1,1.87-.782,2.416,2.416,0,0,1,1.853.782A2.674,2.674,0,0,1,14.467-4.641ZM25.789-8.194A3.619,3.619,0,0,0,22.967-9.5a4.318,4.318,0,0,0-3.281,1.394,4.915,4.915,0,0,0-1.309,3.468,4.927,4.927,0,0,0,1.309,3.485A4.338,4.338,0,0,0,22.967.221a3.568,3.568,0,0,0,2.873-1.36V0h2.346V-12.92h-2.4Zm.119,3.553a2.744,2.744,0,0,1-.714,1.921,2.41,2.41,0,0,1-1.853.765,2.473,2.473,0,0,1-1.87-.765,2.744,2.744,0,0,1-.714-1.921,2.661,2.661,0,0,1,.714-1.887,2.427,2.427,0,0,1,1.87-.782,2.366,2.366,0,0,1,1.853.782A2.661,2.661,0,0,1,25.908-4.641ZM37.417-8.16A3.84,3.84,0,0,0,34.459-9.5a4.338,4.338,0,0,0-3.281,1.377,4.788,4.788,0,0,0-1.309,3.451,4.956,4.956,0,0,0,1.292,3.5,4.3,4.3,0,0,0,3.3,1.394,3.855,3.855,0,0,0,2.958-1.292V0h2.278V-9.265H37.417Zm.034,3.519a2.686,2.686,0,0,1-.748,1.9,2.416,2.416,0,0,1-1.853.782A2.416,2.416,0,0,1,33-2.737a2.671,2.671,0,0,1-.731-1.9,2.719,2.719,0,0,1,.714-1.887,2.427,2.427,0,0,1,1.87-.782,2.416,2.416,0,0,1,1.853.782A2.674,2.674,0,0,1,37.451-4.641Zm7.5,4.879A4.014,4.014,0,0,0,47.617-.6a2.656,2.656,0,0,0,1.02-2.142,2.558,2.558,0,0,0-1.564-2.346c-.255-.136-1-.442-2.227-.9-.544-.187-.816-.459-.816-.85,0-.425.425-.782,1.054-.782a3.042,3.042,0,0,1,2.125.918L48.4-8.245a4.318,4.318,0,0,0-3.247-1.326,3.808,3.808,0,0,0-2.516.782,2.5,2.5,0,0,0-.952,2.006,2.509,2.509,0,0,0,1.6,2.4c.2.1.6.272,1.19.493s.952.357,1.1.425c.442.2.663.476.663.8,0,.527-.544.9-1.275.9A3.447,3.447,0,0,1,42.4-3.06L41.123-1.547A4.6,4.6,0,0,0,44.948.238Z" transform="translate(1388 3226)" fill="#75904a"/>
    <path id="Caminho_1049" data-name="Caminho 1049" d="M-48.008.187a6.874,6.874,0,0,0,5.542-2.669L-44.2-4.063a4.486,4.486,0,0,1-3.655,1.836,3.87,3.87,0,0,1-2.856-1.139A3.882,3.882,0,0,1-51.85-6.239,4,4,0,0,1-50.694-9.18a3.833,3.833,0,0,1,2.856-1.173,4.484,4.484,0,0,1,3.587,1.819l1.683-1.649a6.626,6.626,0,0,0-5.406-2.6,6.35,6.35,0,0,0-4.607,1.853,6.263,6.263,0,0,0-1.887,4.692A6.186,6.186,0,0,0-52.615-1.6,6.417,6.417,0,0,0-48.008.187ZM-34.1-8.16A3.84,3.84,0,0,0-37.06-9.5a4.338,4.338,0,0,0-3.281,1.377A4.788,4.788,0,0,0-41.65-4.675a4.956,4.956,0,0,0,1.292,3.5A4.3,4.3,0,0,0-37.06.221,3.855,3.855,0,0,0-34.1-1.071V0h2.278V-9.265H-34.1Zm.034,3.519a2.686,2.686,0,0,1-.748,1.9,2.416,2.416,0,0,1-1.853.782,2.416,2.416,0,0,1-1.853-.782,2.671,2.671,0,0,1-.731-1.9,2.719,2.719,0,0,1,.714-1.887,2.427,2.427,0,0,1,1.87-.782,2.416,2.416,0,0,1,1.853.782A2.674,2.674,0,0,1-34.068-4.641Zm6.7-6.086a1.509,1.509,0,0,0,0-2.091,1.531,1.531,0,0,0-2.108,0,1.509,1.509,0,0,0,0,2.091A1.531,1.531,0,0,0-27.37-10.727Zm.136,1.462h-2.4V0h2.4Zm7.293,4.607,2.89-4.607h-2.7l-1.7,2.839-1.581-2.839h-2.737l2.737,4.539L-26.112,0h2.771l1.853-3.043L-19.72,0h2.754Zm10.829-3.5A3.84,3.84,0,0,0-12.07-9.5a4.338,4.338,0,0,0-3.281,1.377A4.788,4.788,0,0,0-16.66-4.675a4.956,4.956,0,0,0,1.292,3.5A4.3,4.3,0,0,0-12.07.221,3.855,3.855,0,0,0-9.112-1.071V0h2.278V-9.265H-9.112Zm.034,3.519a2.686,2.686,0,0,1-.748,1.9,2.416,2.416,0,0,1-1.853.782,2.416,2.416,0,0,1-1.853-.782,2.671,2.671,0,0,1-.731-1.9,2.719,2.719,0,0,1,.714-1.887,2.427,2.427,0,0,1,1.87-.782,2.416,2.416,0,0,1,1.853.782A2.674,2.674,0,0,1-9.078-4.641ZM7.157-6.885a2.729,2.729,0,0,0,1.717-2.55,3.017,3.017,0,0,0-.952-2.193A3.525,3.525,0,0,0,5.3-12.563H-.17V0H5.559a3.973,3.973,0,0,0,2.89-1.054,3.44,3.44,0,0,0,1.088-2.6A3.141,3.141,0,0,0,7.157-6.885ZM4.879-10.37a1.355,1.355,0,0,1,1.5,1.326,1.44,1.44,0,0,1-1.6,1.411H2.312V-10.37ZM2.312-2.21V-5.525H5.066a1.677,1.677,0,0,1,1.87,1.666A1.683,1.683,0,0,1,5.066-2.21ZM15.419.221c2.652,0,4.25-1.53,4.25-4.131V-9.265h-2.4V-3.91a1.764,1.764,0,0,1-1.853,1.938A1.764,1.764,0,0,1,13.566-3.91V-9.265h-2.4V-3.91C11.169-1.309,12.784.221,15.419.221Zm9.367.017A4.014,4.014,0,0,0,27.455-.6a2.656,2.656,0,0,0,1.02-2.142,2.558,2.558,0,0,0-1.564-2.346c-.255-.136-1-.442-2.227-.9-.544-.187-.816-.459-.816-.85,0-.425.425-.782,1.054-.782a3.042,3.042,0,0,1,2.125.918l1.19-1.547A4.318,4.318,0,0,0,24.99-9.571a3.808,3.808,0,0,0-2.516.782,2.5,2.5,0,0,0-.952,2.006,2.509,2.509,0,0,0,1.6,2.4c.2.1.595.272,1.19.493s.952.357,1.105.425c.442.2.663.476.663.8,0,.527-.544.9-1.275.9A3.447,3.447,0,0,1,22.236-3.06L20.961-1.547A4.6,4.6,0,0,0,24.786.238ZM32.521,0V-4.964A2.135,2.135,0,0,1,34.646-7.31c1.173,0,1.938.816,1.938,2.3V0h2.4V-5.661a3.759,3.759,0,0,0-1.054-2.856,3.57,3.57,0,0,0-2.55-1,3.4,3.4,0,0,0-2.924,1.462V-12.92H30.124V0Zm17.51-4.845a4.482,4.482,0,0,0-1.309-3.4A4.636,4.636,0,0,0,45.39-9.5a4.661,4.661,0,0,0-3.485,1.377,4.755,4.755,0,0,0-1.343,3.485,4.876,4.876,0,0,0,1.292,3.434A4.845,4.845,0,0,0,45.594.2,6.705,6.705,0,0,0,49.64-1.071l-.952-1.683a5.755,5.755,0,0,1-2.992.935,2.492,2.492,0,0,1-2.7-1.972h6.953A7.971,7.971,0,0,0,50.031-4.845ZM45.39-7.514A2.227,2.227,0,0,1,47.7-5.576H42.993A2.373,2.373,0,0,1,45.39-7.514Zm8.687-5.406h-2.4V0h2.4Z" transform="translate(1618 3226)" fill="#75904a"/>
  </g>
</svg>
