<svg xmlns="http://www.w3.org/2000/svg" width="15" height="15" viewBox="0 0 15 15">
  <g id="Grupo_1220" data-name="Grupo 1220" transform="translate(12186 -4131)">
    <rect id="Retângulo_146" data-name="Retângulo 146" width="15" height="15" transform="translate(-12186 4131)" fill="none"/>
    <g id="Grupo_1215" data-name="Grupo 1215" transform="translate(-12182 4131.535)">
      <g id="Grupo_5" data-name="Grupo 5" transform="translate(0 0)">
        <path id="Caminho_14" data-name="Caminho 14" d="M334.529,730.384v6.75a.177.177,0,0,0,.179.176h2.543a.177.177,0,0,0,.179-.176v-6.86h1.844a.178.178,0,0,0,.178-.161l.177-2.067a.177.177,0,0,0-.178-.191h-2.021v-1.466a.627.627,0,0,1,.631-.622h1.421a.177.177,0,0,0,.178-.176v-2.067a.177.177,0,0,0-.178-.176h-2.4a2.533,2.533,0,0,0-2.551,2.515v1.993h-1.271a.177.177,0,0,0-.179.176V730.1a.177.177,0,0,0,.179.176h1.271Z" transform="translate(-333.079 -723.348)" fill="#fff" fill-rule="evenodd"/>
      </g>
    </g>
  </g>
</svg>
