<svg xmlns="http://www.w3.org/2000/svg" width="599.5" height="408" viewBox="0 0 599.5 408">
  <g id="Grupo_1220" data-name="Grupo 1220" transform="translate(-1128 -1750)">
    <g id="Caminho_988" data-name="Caminho 988" transform="translate(1128 1750)" fill="none">
      <path d="M0,0H599V44H0Z" stroke="none"/>
      <path d="M 2 2 L 2 42 L 597 42 L 597 2 L 2 2 M 0 0 L 599 0 L 599 44 L 0 44 L 0 0 Z" stroke="none" fill="#f9e7ce"/>
    </g>
    <g id="Caminho_976" data-name="Caminho 976" transform="translate(1128 1885)" fill="none">
      <path d="M0,0H599V44H0Z" stroke="none"/>
      <path d="M 2 2 L 2 42 L 597 42 L 597 2 L 2 2 M 0 0 L 599 0 L 599 44 L 0 44 L 0 0 Z" stroke="none" fill="#f9e7ce"/>
    </g>
    <g id="Caminho_964" data-name="Caminho 964" transform="translate(1128 2020)" fill="none">
      <path d="M0,0H599V44H0Z" stroke="none"/>
      <path d="M 2 2 L 2 42 L 597 42 L 597 2 L 2 2 M 0 0 L 599 0 L 599 44 L 0 44 L 0 0 Z" stroke="none" fill="#f9e7ce"/>
    </g>
    <path id="Caminho_989" data-name="Caminho 989" d="M-26.545-10.727a1.509,1.509,0,0,0,0-2.091,1.531,1.531,0,0,0-2.108,0,1.509,1.509,0,0,0,0,2.091A1.531,1.531,0,0,0-26.545-10.727Zm-3.4,14.671c2.125,0,3.553-1.292,3.553-3.808v-9.4h-2.4V.017c0,1.207-.51,1.819-1.547,1.819a3.989,3.989,0,0,1-1.275-.272l-.442,1.9A3.834,3.834,0,0,0-29.945,3.944Zm12.784-12.1A3.84,3.84,0,0,0-20.12-9.5,4.338,4.338,0,0,0-23.4-8.126,4.788,4.788,0,0,0-24.71-4.675a4.956,4.956,0,0,0,1.292,3.5A4.3,4.3,0,0,0-20.12.221a3.855,3.855,0,0,0,2.958-1.292V0h2.278V-9.265h-2.278Zm.034,3.519a2.686,2.686,0,0,1-.748,1.9,2.416,2.416,0,0,1-1.853.782,2.416,2.416,0,0,1-1.853-.782,2.671,2.671,0,0,1-.731-1.9A2.719,2.719,0,0,1-21.6-6.528a2.427,2.427,0,0,1,1.87-.782,2.416,2.416,0,0,1,1.853.782A2.674,2.674,0,0,1-17.128-4.641ZM-10.328,0V-4.964A2.135,2.135,0,0,1-8.2-7.31c1.173,0,1.955.816,1.955,2.3V0h2.4V-5.661A3.759,3.759,0,0,0-4.9-8.517a3.61,3.61,0,0,0-2.567-1,3.275,3.275,0,0,0-2.907,1.547V-9.265h-2.346V0ZM7.2-4.845a4.482,4.482,0,0,0-1.309-3.4A4.636,4.636,0,0,0,2.558-9.5,4.661,4.661,0,0,0-.927-8.126,4.755,4.755,0,0,0-2.27-4.641,4.876,4.876,0,0,0-.978-1.207,4.845,4.845,0,0,0,2.762.2,6.705,6.705,0,0,0,6.808-1.071L5.856-2.754a5.755,5.755,0,0,1-2.992.935,2.492,2.492,0,0,1-2.7-1.972H7.115A7.972,7.972,0,0,0,7.2-4.845ZM2.558-7.514A2.227,2.227,0,0,1,4.87-5.576H.161A2.373,2.373,0,0,1,2.558-7.514Zm8.585-3.213a1.509,1.509,0,0,0,0-2.091,1.531,1.531,0,0,0-2.108,0,1.509,1.509,0,0,0,0,2.091A1.531,1.531,0,0,0,11.144-10.727Zm.136,1.462h-2.4V0h2.4ZM15.818,0V-4.4c0-1.921.9-2.8,2.261-2.8a3.859,3.859,0,0,1,1.1.187l.2-2.3a3.264,3.264,0,0,0-1.122-.2,2.734,2.734,0,0,0-2.55,1.5V-9.265H13.422V0Zm3.944-4.641a4.7,4.7,0,0,0,1.394,3.468A4.842,4.842,0,0,0,24.726.238,4.842,4.842,0,0,0,28.3-1.173a4.7,4.7,0,0,0,1.394-3.468A4.692,4.692,0,0,0,28.3-8.092a4.79,4.79,0,0,0-3.57-1.428,4.79,4.79,0,0,0-3.57,1.428A4.692,4.692,0,0,0,19.762-4.641ZM22.89-2.754a2.659,2.659,0,0,1-.731-1.887,2.591,2.591,0,0,1,.731-1.87,2.45,2.45,0,0,1,1.836-.765,2.413,2.413,0,0,1,1.819.765,2.606,2.606,0,0,1,.748,1.87,2.674,2.674,0,0,1-.748,1.887,2.413,2.413,0,0,1-1.819.765A2.45,2.45,0,0,1,22.89-2.754Z" transform="translate(1227 1776)" fill="#f9e7ce"/>
    <path id="Caminho_977" data-name="Caminho 977" d="M-9.818-9.52a3.946,3.946,0,0,0-3.315,1.632,2.9,2.9,0,0,0-2.72-1.632,3.147,3.147,0,0,0-2.822,1.581V-9.265h-2.346V0h2.4V-5.066A2.029,2.029,0,0,1-16.6-7.31c1.139,0,1.87.8,1.87,2.176V0h2.4V-5.083a2.018,2.018,0,0,1,2.04-2.227c1.105,0,1.853.748,1.853,2.159V0h2.4V-5.593a3.835,3.835,0,0,0-1.071-2.89A3.652,3.652,0,0,0-9.818-9.52ZM3.069-8.16A3.84,3.84,0,0,0,.111-9.5,4.338,4.338,0,0,0-3.17-8.126,4.788,4.788,0,0,0-4.479-4.675a4.956,4.956,0,0,0,1.292,3.5A4.3,4.3,0,0,0,.111.221,3.855,3.855,0,0,0,3.069-1.071V0H5.347V-9.265H3.069ZM3.1-4.641a2.686,2.686,0,0,1-.748,1.9A2.416,2.416,0,0,1,.5-1.955a2.416,2.416,0,0,1-1.853-.782,2.671,2.671,0,0,1-.731-1.9,2.719,2.719,0,0,1,.714-1.887A2.427,2.427,0,0,1,.5-7.31a2.416,2.416,0,0,1,1.853.782A2.674,2.674,0,0,1,3.1-4.641Zm6.7-6.086a1.509,1.509,0,0,0,0-2.091,1.531,1.531,0,0,0-2.108,0,1.509,1.509,0,0,0,0,2.091A1.531,1.531,0,0,0,9.8-10.727Zm.136,1.462h-2.4V0h2.4Zm1.649,4.624a4.7,4.7,0,0,0,1.394,3.468A4.842,4.842,0,0,0,16.549.238a4.842,4.842,0,0,0,3.57-1.411,4.7,4.7,0,0,0,1.394-3.468,4.692,4.692,0,0,0-1.394-3.451,4.79,4.79,0,0,0-3.57-1.428,4.79,4.79,0,0,0-3.57,1.428A4.692,4.692,0,0,0,11.585-4.641Zm3.128,1.887a2.659,2.659,0,0,1-.731-1.887,2.591,2.591,0,0,1,.731-1.87,2.45,2.45,0,0,1,1.836-.765,2.413,2.413,0,0,1,1.819.765,2.606,2.606,0,0,1,.748,1.87,2.674,2.674,0,0,1-.748,1.887,2.413,2.413,0,0,1-1.819.765A2.45,2.45,0,0,1,14.713-2.754Z" transform="translate(1226 1911)" fill="#f9e7ce"/>
    <path id="Caminho_973" data-name="Caminho 973" d="M-37.7.238A4.014,4.014,0,0,0-35.028-.6a2.656,2.656,0,0,0,1.02-2.142,2.558,2.558,0,0,0-1.564-2.346c-.255-.136-1-.442-2.227-.9-.544-.187-.816-.459-.816-.85,0-.425.425-.782,1.054-.782a3.042,3.042,0,0,1,2.125.918l1.19-1.547a4.318,4.318,0,0,0-3.247-1.326,3.808,3.808,0,0,0-2.516.782,2.5,2.5,0,0,0-.952,2.006,2.509,2.509,0,0,0,1.6,2.4c.2.1.6.272,1.19.493s.952.357,1.1.425c.442.2.663.476.663.8,0,.527-.544.9-1.275.9A3.447,3.447,0,0,1-40.247-3.06l-1.275,1.513A4.6,4.6,0,0,0-37.7.238Zm14.3-5.083a4.482,4.482,0,0,0-1.309-3.4A4.636,4.636,0,0,0-28.041-9.5a4.661,4.661,0,0,0-3.485,1.377,4.755,4.755,0,0,0-1.343,3.485,4.876,4.876,0,0,0,1.292,3.434A4.845,4.845,0,0,0-27.837.2a6.705,6.705,0,0,0,4.046-1.275l-.952-1.683a5.755,5.755,0,0,1-2.992.935,2.492,2.492,0,0,1-2.7-1.972h6.953A7.972,7.972,0,0,0-23.4-4.845Zm-4.641-2.669a2.227,2.227,0,0,1,2.312,1.938h-4.709A2.373,2.373,0,0,1-28.041-7.514ZM-15.9-2.431a3.161,3.161,0,0,1-1.547.476c-.867,0-1.309-.544-1.309-1.632V-7.259h3.06V-9.265h-3.06v-3.281h-2.38v3.281h-1.53v2.006h1.513v3.825c0,2.4,1.1,3.655,3.23,3.655a4.794,4.794,0,0,0,2.737-.765Zm10.71-2.414A4.482,4.482,0,0,0-6.5-8.245,4.636,4.636,0,0,0-9.834-9.5a4.661,4.661,0,0,0-3.485,1.377,4.755,4.755,0,0,0-1.343,3.485A4.876,4.876,0,0,0-13.37-1.207,4.845,4.845,0,0,0-9.63.2,6.705,6.705,0,0,0-5.584-1.071l-.952-1.683a5.755,5.755,0,0,1-2.992.935,2.492,2.492,0,0,1-2.7-1.972h6.953A7.972,7.972,0,0,0-5.193-4.845ZM-9.834-7.514A2.227,2.227,0,0,1-7.522-5.576h-4.709A2.373,2.373,0,0,1-9.834-7.514ZM7.659-9.52A3.946,3.946,0,0,0,4.344-7.888,2.9,2.9,0,0,0,1.624-9.52,3.147,3.147,0,0,0-1.2-7.939V-9.265H-3.544V0h2.4V-5.066A2.029,2.029,0,0,1,.876-7.31c1.139,0,1.87.8,1.87,2.176V0h2.4V-5.083A2.018,2.018,0,0,1,7.183-7.31c1.105,0,1.853.748,1.853,2.159V0h2.4V-5.593a3.835,3.835,0,0,0-1.071-2.89A3.652,3.652,0,0,0,7.659-9.52Zm11.05.017a3.619,3.619,0,0,0-2.822,1.309V-12.92h-2.4V0h2.329V-1.156A3.59,3.59,0,0,0,18.708.221a4.4,4.4,0,0,0,3.3-1.377,4.855,4.855,0,0,0,1.326-3.468,4.855,4.855,0,0,0-1.326-3.468A4.37,4.37,0,0,0,18.708-9.5ZM15.785-4.641a2.649,2.649,0,0,1,.714-1.87,2.355,2.355,0,0,1,1.836-.782,2.4,2.4,0,0,1,1.836.765,2.661,2.661,0,0,1,.714,1.887,2.732,2.732,0,0,1-.714,1.9,2.4,2.4,0,0,1-1.836.765A2.4,2.4,0,0,1,16.5-2.737,2.732,2.732,0,0,1,15.785-4.641ZM27.413,0V-4.4c0-1.921.9-2.8,2.261-2.8a3.859,3.859,0,0,1,1.1.187l.2-2.3a3.264,3.264,0,0,0-1.122-.2,2.734,2.734,0,0,0-2.55,1.5V-9.265h-2.3V0Zm3.944-4.641A4.7,4.7,0,0,0,32.75-1.173,4.842,4.842,0,0,0,36.321.238a4.842,4.842,0,0,0,3.57-1.411,4.7,4.7,0,0,0,1.394-3.468,4.692,4.692,0,0,0-1.394-3.451,4.79,4.79,0,0,0-3.57-1.428,4.79,4.79,0,0,0-3.57,1.428A4.692,4.692,0,0,0,31.357-4.641Zm3.128,1.887a2.659,2.659,0,0,1-.731-1.887,2.591,2.591,0,0,1,.731-1.87,2.45,2.45,0,0,1,1.836-.765,2.413,2.413,0,0,1,1.819.765,2.606,2.606,0,0,1,.748,1.87,2.674,2.674,0,0,1-.748,1.887,2.413,2.413,0,0,1-1.819.765A2.45,2.45,0,0,1,34.485-2.754Z" transform="translate(1226 2047)" fill="#f9e7ce"/>
    <path id="Caminho_990" data-name="Caminho 990" d="M-32.759-11.2a3.83,3.83,0,0,1,1.5.391l.782-1.836a5.484,5.484,0,0,0-2.635-.68,3.929,3.929,0,0,0-2.72.952,3.5,3.5,0,0,0-1.037,2.737v.374H-38.3v2.006h1.428V0h2.4V-7.259H-31.6V-9.265h-2.873v-.323A1.507,1.507,0,0,1-32.759-11.2Zm11.118,6.358a4.482,4.482,0,0,0-1.309-3.4A4.636,4.636,0,0,0-26.282-9.5a4.661,4.661,0,0,0-3.485,1.377A4.755,4.755,0,0,0-31.11-4.641a4.876,4.876,0,0,0,1.292,3.434A4.845,4.845,0,0,0-26.078.2a6.705,6.705,0,0,0,4.046-1.275l-.952-1.683a5.755,5.755,0,0,1-2.992.935,2.492,2.492,0,0,1-2.7-1.972h6.953A7.972,7.972,0,0,0-21.641-4.845Zm-4.641-2.669A2.227,2.227,0,0,1-23.97-5.576h-4.709A2.373,2.373,0,0,1-26.282-7.514Zm9.843,4.25-2.329-6H-21.4l4.012,9.248h1.836l4.029-9.248h-2.635ZM-1.785-4.845a4.482,4.482,0,0,0-1.309-3.4A4.636,4.636,0,0,0-6.426-9.5,4.661,4.661,0,0,0-9.911-8.126a4.755,4.755,0,0,0-1.343,3.485A4.876,4.876,0,0,0-9.962-1.207,4.845,4.845,0,0,0-6.222.2,6.705,6.705,0,0,0-2.176-1.071l-.952-1.683a5.755,5.755,0,0,1-2.992.935,2.492,2.492,0,0,1-2.7-1.972H-1.87A7.972,7.972,0,0,0-1.785-4.845ZM-6.426-7.514A2.227,2.227,0,0,1-4.114-5.576H-8.823A2.373,2.373,0,0,1-6.426-7.514ZM2.261,0V-4.4c0-1.921.9-2.8,2.261-2.8a3.859,3.859,0,0,1,1.105.187l.2-2.3a3.264,3.264,0,0,0-1.122-.2,2.734,2.734,0,0,0-2.55,1.5V-9.265H-.136V0Zm13.43-4.845a4.482,4.482,0,0,0-1.309-3.4A4.636,4.636,0,0,0,11.05-9.5,4.661,4.661,0,0,0,7.565-8.126,4.755,4.755,0,0,0,6.222-4.641,4.876,4.876,0,0,0,7.514-1.207,4.845,4.845,0,0,0,11.254.2,6.705,6.705,0,0,0,15.3-1.071l-.952-1.683a5.755,5.755,0,0,1-2.992.935,2.492,2.492,0,0,1-2.7-1.972h6.953A7.972,7.972,0,0,0,15.691-4.845ZM11.05-7.514a2.227,2.227,0,0,1,2.312,1.938H8.653A2.373,2.373,0,0,1,11.05-7.514Zm8.585-3.213a1.509,1.509,0,0,0,0-2.091,1.531,1.531,0,0,0-2.108,0,1.509,1.509,0,0,0,0,2.091A1.531,1.531,0,0,0,19.635-10.727Zm.136,1.462h-2.4V0h2.4ZM24.31,0V-4.4c0-1.921.9-2.8,2.261-2.8a3.859,3.859,0,0,1,1.1.187l.2-2.3a3.264,3.264,0,0,0-1.122-.2,2.734,2.734,0,0,0-2.55,1.5V-9.265h-2.3V0Zm3.944-4.641a4.7,4.7,0,0,0,1.394,3.468A4.842,4.842,0,0,0,33.218.238a4.842,4.842,0,0,0,3.57-1.411,4.7,4.7,0,0,0,1.394-3.468,4.692,4.692,0,0,0-1.394-3.451,4.79,4.79,0,0,0-3.57-1.428,4.79,4.79,0,0,0-3.57,1.428A4.692,4.692,0,0,0,28.254-4.641Zm3.128,1.887a2.659,2.659,0,0,1-.731-1.887,2.591,2.591,0,0,1,.731-1.87,2.45,2.45,0,0,1,1.836-.765,2.413,2.413,0,0,1,1.819.765,2.606,2.606,0,0,1,.748,1.87,2.674,2.674,0,0,1-.748,1.887,2.413,2.413,0,0,1-1.819.765A2.45,2.45,0,0,1,31.382-2.754Z" transform="translate(1358 1776)" fill="#f9e7ce"/>
    <path id="Caminho_978" data-name="Caminho 978" d="M-20.451-10.727a1.509,1.509,0,0,0,0-2.091,1.531,1.531,0,0,0-2.108,0,1.509,1.509,0,0,0,0,2.091A1.531,1.531,0,0,0-20.451-10.727Zm-3.4,14.671c2.125,0,3.553-1.292,3.553-3.808v-9.4h-2.4V.017c0,1.207-.51,1.819-1.547,1.819a3.989,3.989,0,0,1-1.275-.272l-.442,1.9A3.834,3.834,0,0,0-23.851,3.944Zm9.86-3.723c2.652,0,4.25-1.53,4.25-4.131V-9.265h-2.4V-3.91a1.764,1.764,0,0,1-1.853,1.938A1.764,1.764,0,0,1-15.844-3.91V-9.265h-2.4V-3.91C-18.241-1.309-16.626.221-13.991.221ZM-5.287,0V-4.964A2.135,2.135,0,0,1-3.162-7.31c1.173,0,1.955.816,1.955,2.3V0h2.4V-5.661A3.759,3.759,0,0,0,.136-8.517a3.61,3.61,0,0,0-2.567-1A3.275,3.275,0,0,0-5.338-7.973V-9.265H-7.684V0ZM5.644,0V-4.964A2.135,2.135,0,0,1,7.769-7.31c1.173,0,1.938.816,1.938,2.3V0h2.4V-5.661A3.759,3.759,0,0,0,11.05-8.517a3.57,3.57,0,0,0-2.55-1A3.4,3.4,0,0,0,5.576-8.058V-12.92H3.247V0Zm8.024-4.641a4.7,4.7,0,0,0,1.394,3.468A4.842,4.842,0,0,0,18.632.238,4.842,4.842,0,0,0,22.2-1.173,4.7,4.7,0,0,0,23.6-4.641,4.692,4.692,0,0,0,22.2-8.092a4.79,4.79,0,0,0-3.57-1.428,4.79,4.79,0,0,0-3.57,1.428A4.692,4.692,0,0,0,13.668-4.641ZM16.8-2.754a2.659,2.659,0,0,1-.731-1.887,2.591,2.591,0,0,1,.731-1.87,2.45,2.45,0,0,1,1.836-.765,2.413,2.413,0,0,1,1.819.765,2.606,2.606,0,0,1,.748,1.87,2.674,2.674,0,0,1-.748,1.887,2.413,2.413,0,0,1-1.819.765A2.45,2.45,0,0,1,16.8-2.754Z" transform="translate(1359 1911)" fill="#f9e7ce"/>
    <path id="Caminho_965" data-name="Caminho 965" d="M-34.059-4.641a4.7,4.7,0,0,0,1.394,3.468A4.842,4.842,0,0,0-29.1.238a4.842,4.842,0,0,0,3.57-1.411,4.7,4.7,0,0,0,1.394-3.468,4.692,4.692,0,0,0-1.394-3.451A4.79,4.79,0,0,0-29.1-9.52a4.79,4.79,0,0,0-3.57,1.428A4.692,4.692,0,0,0-34.059-4.641Zm3.128,1.887a2.659,2.659,0,0,1-.731-1.887,2.591,2.591,0,0,1,.731-1.87A2.45,2.45,0,0,1-29.1-7.276a2.413,2.413,0,0,1,1.819.765,2.606,2.606,0,0,1,.748,1.87,2.674,2.674,0,0,1-.748,1.887,2.413,2.413,0,0,1-1.819.765A2.45,2.45,0,0,1-30.931-2.754ZM-18.317.221c2.652,0,4.25-1.53,4.25-4.131V-9.265h-2.4V-3.91a1.764,1.764,0,0,1-1.853,1.938A1.764,1.764,0,0,1-20.17-3.91V-9.265h-2.4V-3.91C-22.567-1.309-20.952.221-18.317.221ZM-6.026-2.431a3.161,3.161,0,0,1-1.547.476c-.867,0-1.309-.544-1.309-1.632V-7.259h3.06V-9.265h-3.06v-3.281h-2.38v3.281h-1.53v2.006h1.513v3.825c0,2.4,1.1,3.655,3.23,3.655A4.794,4.794,0,0,0-5.312-.544ZM-.042.221c2.652,0,4.25-1.53,4.25-4.131V-9.265h-2.4V-3.91A1.764,1.764,0,0,1-.042-1.972,1.764,1.764,0,0,1-1.9-3.91V-9.265h-2.4V-3.91C-4.292-1.309-2.677.221-.042.221ZM11.484-9.5A3.619,3.619,0,0,0,8.662-8.194V-12.92h-2.4V0H8.594V-1.156A3.59,3.59,0,0,0,11.484.221a4.4,4.4,0,0,0,3.3-1.377,4.855,4.855,0,0,0,1.326-3.468,4.855,4.855,0,0,0-1.326-3.468A4.37,4.37,0,0,0,11.484-9.5ZM8.56-4.641a2.649,2.649,0,0,1,.714-1.87,2.355,2.355,0,0,1,1.836-.782,2.4,2.4,0,0,1,1.836.765,2.661,2.661,0,0,1,.714,1.887,2.732,2.732,0,0,1-.714,1.9,2.4,2.4,0,0,1-1.836.765,2.4,2.4,0,0,1-1.836-.765A2.732,2.732,0,0,1,8.56-4.641ZM20.188,0V-4.4c0-1.921.9-2.8,2.261-2.8a3.859,3.859,0,0,1,1.1.187l.2-2.3a3.264,3.264,0,0,0-1.122-.2,2.734,2.734,0,0,0-2.55,1.5V-9.265h-2.3V0Zm3.944-4.641a4.7,4.7,0,0,0,1.394,3.468A4.842,4.842,0,0,0,29.1.238a4.842,4.842,0,0,0,3.57-1.411A4.7,4.7,0,0,0,34.06-4.641a4.692,4.692,0,0,0-1.394-3.451A4.79,4.79,0,0,0,29.1-9.52a4.79,4.79,0,0,0-3.57,1.428A4.692,4.692,0,0,0,24.132-4.641ZM27.26-2.754a2.659,2.659,0,0,1-.731-1.887,2.591,2.591,0,0,1,.731-1.87A2.45,2.45,0,0,1,29.1-7.276a2.413,2.413,0,0,1,1.819.765,2.606,2.606,0,0,1,.748,1.87,2.674,2.674,0,0,1-.748,1.887,2.413,2.413,0,0,1-1.819.765A2.45,2.45,0,0,1,27.26-2.754Z" transform="translate(1362 2047)" fill="#f9e7ce"/>
    <path id="Caminho_991" data-name="Caminho 991" d="M-15.112-8.96a3.714,3.714,0,0,0-3.12,1.536,2.729,2.729,0,0,0-2.56-1.536,2.961,2.961,0,0,0-2.656,1.488V-8.72h-2.208V0H-23.4V-4.768A1.91,1.91,0,0,1-21.5-6.88c1.072,0,1.76.752,1.76,2.048V0h2.256V-4.784a1.9,1.9,0,0,1,1.92-2.1c1.04,0,1.744.7,1.744,2.032V0h2.256V-5.264a3.61,3.61,0,0,0-1.008-2.72A3.437,3.437,0,0,0-15.112-8.96ZM-2.984-7.68A3.614,3.614,0,0,0-5.768-8.944a4.083,4.083,0,0,0-3.088,1.3A4.507,4.507,0,0,0-10.088-4.4,4.665,4.665,0,0,0-8.872-1.1,4.051,4.051,0,0,0-5.768.208,3.628,3.628,0,0,0-2.984-1.008V0H-.84V-8.72H-2.984Zm.032,3.312a2.528,2.528,0,0,1-.7,1.792A2.273,2.273,0,0,1-5.4-1.84a2.273,2.273,0,0,1-1.744-.736,2.514,2.514,0,0,1-.688-1.792A2.559,2.559,0,0,1-7.16-6.144,2.284,2.284,0,0,1-5.4-6.88a2.273,2.273,0,0,1,1.744.736A2.517,2.517,0,0,1-2.952-4.368ZM3.448,0V-4.144c0-1.808.848-2.64,2.128-2.64a3.632,3.632,0,0,1,1.04.176l.192-2.16A3.072,3.072,0,0,0,5.752-8.96a2.573,2.573,0,0,0-2.4,1.408V-8.72H1.192V0Zm8.384-1.872a2.389,2.389,0,0,1-1.744-.7A2.462,2.462,0,0,1,9.4-4.368a2.4,2.4,0,0,1,.7-1.76,2.363,2.363,0,0,1,1.776-.72A2.489,2.489,0,0,1,14.1-5.52l1.808-.992a4.34,4.34,0,0,0-4.064-2.432,4.609,4.609,0,0,0-3.376,1.3A4.364,4.364,0,0,0,7.16-4.368a4.536,4.536,0,0,0,.976,2.944A4.341,4.341,0,0,0,10.76.1L10.3,1.248l.128.432h.864c.592,0,.9.176.9.544,0,.336-.272.608-.832.608a2.894,2.894,0,0,1-1.3-.336l-.5,1.3a4.537,4.537,0,0,0,1.984.5,2.072,2.072,0,0,0,2.336-1.92,1.646,1.646,0,0,0-1.728-1.6L12.408.16A4.5,4.5,0,0,0,15.88-2.112L14.056-3.184A2.564,2.564,0,0,1,11.832-1.872Zm4.944-2.5A4.427,4.427,0,0,0,18.088-1.1,4.558,4.558,0,0,0,21.448.224,4.558,4.558,0,0,0,24.808-1.1,4.427,4.427,0,0,0,26.12-4.368a4.416,4.416,0,0,0-1.312-3.248,4.509,4.509,0,0,0-3.36-1.344,4.509,4.509,0,0,0-3.36,1.344A4.416,4.416,0,0,0,16.776-4.368ZM19.72-2.592a2.5,2.5,0,0,1-.688-1.776,2.439,2.439,0,0,1,.688-1.76,2.306,2.306,0,0,1,1.728-.72,2.271,2.271,0,0,1,1.712.72,2.453,2.453,0,0,1,.7,1.76,2.517,2.517,0,0,1-.7,1.776,2.271,2.271,0,0,1-1.712.72A2.306,2.306,0,0,1,19.72-2.592Z" transform="translate(1491 1776)" fill="#f9e7ce"/>
    <path id="Caminho_979" data-name="Caminho 979" d="M-17.264-10.727a1.509,1.509,0,0,0,0-2.091,1.531,1.531,0,0,0-2.108,0,1.509,1.509,0,0,0,0,2.091A1.531,1.531,0,0,0-17.264-10.727Zm-3.4,14.671c2.125,0,3.553-1.292,3.553-3.808v-9.4h-2.4V.017c0,1.207-.51,1.819-1.547,1.819a3.989,3.989,0,0,1-1.275-.272l-.442,1.9A3.834,3.834,0,0,0-20.663,3.944ZM-10.8.221c2.652,0,4.25-1.53,4.25-4.131V-9.265h-2.4V-3.91A1.764,1.764,0,0,1-10.8-1.972,1.764,1.764,0,0,1-12.656-3.91V-9.265h-2.4V-3.91C-15.053-1.309-13.438.221-10.8.221ZM-2.1-12.92H-4.5V0h2.4ZM2.457,0V-4.964A2.135,2.135,0,0,1,4.582-7.31c1.173,0,1.938.816,1.938,2.3V0h2.4V-5.661A3.759,3.759,0,0,0,7.863-8.517a3.57,3.57,0,0,0-2.55-1A3.4,3.4,0,0,0,2.389-8.058V-12.92H.06V0Zm8.024-4.641a4.7,4.7,0,0,0,1.394,3.468A4.842,4.842,0,0,0,15.444.238a4.842,4.842,0,0,0,3.57-1.411,4.7,4.7,0,0,0,1.394-3.468,4.692,4.692,0,0,0-1.394-3.451,4.79,4.79,0,0,0-3.57-1.428,4.79,4.79,0,0,0-3.57,1.428A4.692,4.692,0,0,0,10.481-4.641Zm3.128,1.887a2.659,2.659,0,0,1-.731-1.887,2.591,2.591,0,0,1,.731-1.87,2.45,2.45,0,0,1,1.836-.765,2.413,2.413,0,0,1,1.819.765,2.606,2.606,0,0,1,.748,1.87,2.674,2.674,0,0,1-.748,1.887,2.413,2.413,0,0,1-1.819.765A2.45,2.45,0,0,1,13.608-2.754Z" transform="translate(1497 1911)" fill="#f9e7ce"/>
    <path id="Caminho_966" data-name="Caminho 966" d="M-40.723,0V-4.964A2.135,2.135,0,0,1-38.6-7.31c1.173,0,1.955.816,1.955,2.3V0h2.4V-5.661A3.759,3.759,0,0,0-35.3-8.517a3.61,3.61,0,0,0-2.567-1,3.275,3.275,0,0,0-2.907,1.547V-9.265H-43.12V0Zm8.041-4.641a4.7,4.7,0,0,0,1.394,3.468A4.842,4.842,0,0,0-27.719.238a4.842,4.842,0,0,0,3.57-1.411,4.7,4.7,0,0,0,1.394-3.468,4.692,4.692,0,0,0-1.394-3.451,4.79,4.79,0,0,0-3.57-1.428,4.79,4.79,0,0,0-3.57,1.428A4.692,4.692,0,0,0-32.682-4.641Zm3.128,1.887a2.659,2.659,0,0,1-.731-1.887,2.591,2.591,0,0,1,.731-1.87,2.45,2.45,0,0,1,1.836-.765,2.413,2.413,0,0,1,1.819.765,2.606,2.606,0,0,1,.748,1.87A2.674,2.674,0,0,1-25.9-2.754a2.413,2.413,0,0,1-1.819.765A2.45,2.45,0,0,1-29.555-2.754Zm12.036-.51-2.329-6h-2.635L-18.47-.017h1.836l4.029-9.248H-15.24ZM-2.864-4.845a4.482,4.482,0,0,0-1.309-3.4A4.636,4.636,0,0,0-7.505-9.5,4.661,4.661,0,0,0-10.99-8.126a4.755,4.755,0,0,0-1.343,3.485,4.876,4.876,0,0,0,1.292,3.434A4.845,4.845,0,0,0-7.3.2,6.705,6.705,0,0,0-3.255-1.071l-.952-1.683A5.755,5.755,0,0,1-7.2-1.819,2.492,2.492,0,0,1-9.9-3.791h6.953A7.972,7.972,0,0,0-2.864-4.845ZM-7.505-7.514A2.227,2.227,0,0,1-5.193-5.576H-9.9A2.373,2.373,0,0,1-7.505-7.514ZM9.987-9.52A3.946,3.946,0,0,0,6.672-7.888,2.9,2.9,0,0,0,3.952-9.52,3.147,3.147,0,0,0,1.13-7.939V-9.265H-1.216V0h2.4V-5.066A2.029,2.029,0,0,1,3.2-7.31c1.139,0,1.87.8,1.87,2.176V0h2.4V-5.083A2.018,2.018,0,0,1,9.511-7.31c1.105,0,1.853.748,1.853,2.159V0h2.4V-5.593a3.835,3.835,0,0,0-1.071-2.89A3.652,3.652,0,0,0,9.987-9.52Zm11.05.017a3.619,3.619,0,0,0-2.822,1.309V-12.92h-2.4V0h2.329V-1.156A3.59,3.59,0,0,0,21.037.221a4.4,4.4,0,0,0,3.3-1.377,4.855,4.855,0,0,0,1.326-3.468,4.855,4.855,0,0,0-1.326-3.468A4.37,4.37,0,0,0,21.037-9.5ZM18.113-4.641a2.649,2.649,0,0,1,.714-1.87,2.355,2.355,0,0,1,1.836-.782,2.4,2.4,0,0,1,1.836.765,2.661,2.661,0,0,1,.714,1.887,2.732,2.732,0,0,1-.714,1.9,2.4,2.4,0,0,1-1.836.765,2.4,2.4,0,0,1-1.836-.765A2.732,2.732,0,0,1,18.113-4.641ZM29.741,0V-4.4c0-1.921.9-2.8,2.261-2.8a3.859,3.859,0,0,1,1.105.187l.2-2.3a3.264,3.264,0,0,0-1.122-.2,2.734,2.734,0,0,0-2.55,1.5V-9.265h-2.3V0Zm3.944-4.641A4.7,4.7,0,0,0,35.08-1.173,4.842,4.842,0,0,0,38.65.238a4.842,4.842,0,0,0,3.57-1.411,4.7,4.7,0,0,0,1.394-3.468A4.692,4.692,0,0,0,42.22-8.092,4.79,4.79,0,0,0,38.65-9.52a4.79,4.79,0,0,0-3.57,1.428A4.692,4.692,0,0,0,33.686-4.641Zm3.128,1.887a2.659,2.659,0,0,1-.731-1.887,2.591,2.591,0,0,1,.731-1.87,2.45,2.45,0,0,1,1.836-.765,2.413,2.413,0,0,1,1.819.765,2.606,2.606,0,0,1,.748,1.87,2.674,2.674,0,0,1-.748,1.887,2.413,2.413,0,0,1-1.819.765A2.45,2.45,0,0,1,36.814-2.754Z" transform="translate(1491 2047)" fill="#f9e7ce"/>
    <path id="Caminho_992" data-name="Caminho 992" d="M-11.509-8.16A3.84,3.84,0,0,0-14.467-9.5a4.338,4.338,0,0,0-3.281,1.377,4.788,4.788,0,0,0-1.309,3.451,4.956,4.956,0,0,0,1.292,3.5,4.3,4.3,0,0,0,3.3,1.394,3.855,3.855,0,0,0,2.958-1.292V0h2.278V-9.265h-2.278Zm.034,3.519a2.686,2.686,0,0,1-.748,1.9,2.416,2.416,0,0,1-1.853.782,2.416,2.416,0,0,1-1.853-.782,2.671,2.671,0,0,1-.731-1.9,2.719,2.719,0,0,1,.714-1.887,2.427,2.427,0,0,1,1.87-.782,2.416,2.416,0,0,1,1.853.782A2.674,2.674,0,0,1-11.475-4.641ZM-1.853-9.5A3.619,3.619,0,0,0-4.675-8.194V-12.92h-2.4V0h2.329V-1.156A3.59,3.59,0,0,0-1.853.221a4.4,4.4,0,0,0,3.3-1.377A4.855,4.855,0,0,0,2.771-4.624,4.855,4.855,0,0,0,1.445-8.092,4.37,4.37,0,0,0-1.853-9.5ZM-4.777-4.641a2.649,2.649,0,0,1,.714-1.87,2.355,2.355,0,0,1,1.836-.782,2.4,2.4,0,0,1,1.836.765A2.661,2.661,0,0,1,.323-4.641a2.732,2.732,0,0,1-.714,1.9,2.4,2.4,0,0,1-1.836.765,2.4,2.4,0,0,1-1.836-.765A2.732,2.732,0,0,1-4.777-4.641ZM6.851,0V-4.4c0-1.921.9-2.8,2.261-2.8a3.859,3.859,0,0,1,1.1.187l.2-2.3A3.264,3.264,0,0,0,9.3-9.52a2.734,2.734,0,0,0-2.55,1.5V-9.265H4.454V0Zm7.055-10.727a1.509,1.509,0,0,0,0-2.091,1.531,1.531,0,0,0-2.108,0,1.509,1.509,0,0,0,0,2.091A1.531,1.531,0,0,0,13.906-10.727Zm.136,1.462h-2.4V0h2.4Zm4.539-3.655h-2.4V0h2.4Z" transform="translate(1628 1777)" fill="#f9e7ce"/>
    <path id="Caminho_980" data-name="Caminho 980" d="M-22.415-8.16A3.84,3.84,0,0,0-25.373-9.5a4.338,4.338,0,0,0-3.281,1.377,4.788,4.788,0,0,0-1.309,3.451,4.956,4.956,0,0,0,1.292,3.5,4.3,4.3,0,0,0,3.3,1.394,3.855,3.855,0,0,0,2.958-1.292V0h2.278V-9.265h-2.278Zm.034,3.519a2.686,2.686,0,0,1-.748,1.9,2.416,2.416,0,0,1-1.853.782,2.416,2.416,0,0,1-1.853-.782,2.671,2.671,0,0,1-.731-1.9,2.719,2.719,0,0,1,.714-1.887,2.427,2.427,0,0,1,1.87-.782,2.416,2.416,0,0,1,1.853.782A2.674,2.674,0,0,1-22.381-4.641Zm11.492-3.6A3.727,3.727,0,0,0-13.745-9.5a4.576,4.576,0,0,0-3.366,1.36,4.638,4.638,0,0,0-1.36,3.417,4.682,4.682,0,0,0,1.292,3.4A4.407,4.407,0,0,0-13.847.017a3.635,3.635,0,0,0,2.856-1.19V-.7c0,1.5-1.054,2.567-2.89,2.567A5.715,5.715,0,0,1-17.128.782l-.935,1.8a7.066,7.066,0,0,0,4.25,1.343,5.305,5.305,0,0,0,3.706-1.309A4.561,4.561,0,0,0-8.679-.918V-9.265h-2.21Zm-5.168,3.536a2.5,2.5,0,0,1,.731-1.853A2.5,2.5,0,0,1-13.49-7.31a2.5,2.5,0,0,1,1.836.748,2.5,2.5,0,0,1,.731,1.853,2.6,2.6,0,0,1-.731,1.887,2.5,2.5,0,0,1-1.836.748,2.5,2.5,0,0,1-1.836-.748A2.549,2.549,0,0,1-16.057-4.709ZM-7-4.641A4.7,4.7,0,0,0-5.6-1.173,4.842,4.842,0,0,0-2.032.238a4.842,4.842,0,0,0,3.57-1.411A4.7,4.7,0,0,0,2.932-4.641,4.692,4.692,0,0,0,1.538-8.092,4.79,4.79,0,0,0-2.032-9.52,4.79,4.79,0,0,0-5.6-8.092,4.692,4.692,0,0,0-7-4.641Zm3.128,1.887A2.659,2.659,0,0,1-4.6-4.641a2.591,2.591,0,0,1,.731-1.87,2.45,2.45,0,0,1,1.836-.765,2.413,2.413,0,0,1,1.819.765,2.606,2.606,0,0,1,.748,1.87A2.674,2.674,0,0,1-.213-2.754a2.413,2.413,0,0,1-1.819.765A2.45,2.45,0,0,1-3.868-2.754ZM7.641.238A4.014,4.014,0,0,0,10.31-.6a2.656,2.656,0,0,0,1.02-2.142A2.558,2.558,0,0,0,9.766-5.083c-.255-.136-1-.442-2.227-.9-.544-.187-.816-.459-.816-.85,0-.425.425-.782,1.054-.782A3.042,3.042,0,0,1,9.9-6.7l1.19-1.547A4.318,4.318,0,0,0,7.845-9.571a3.808,3.808,0,0,0-2.516.782,2.5,2.5,0,0,0-.952,2.006,2.509,2.509,0,0,0,1.6,2.4c.2.1.6.272,1.19.493s.952.357,1.105.425c.442.2.663.476.663.8,0,.527-.544.9-1.275.9A3.447,3.447,0,0,1,5.091-3.06L3.816-1.547A4.6,4.6,0,0,0,7.641.238ZM18.811-2.431a3.161,3.161,0,0,1-1.547.476c-.867,0-1.309-.544-1.309-1.632V-7.259h3.06V-9.265h-3.06v-3.281h-2.38v3.281h-1.53v2.006h1.513v3.825c0,2.4,1.1,3.655,3.23,3.655a4.794,4.794,0,0,0,2.737-.765Zm1.224-2.21a4.7,4.7,0,0,0,1.394,3.468A4.842,4.842,0,0,0,25,.238a4.842,4.842,0,0,0,3.57-1.411,4.7,4.7,0,0,0,1.394-3.468,4.692,4.692,0,0,0-1.394-3.451A4.79,4.79,0,0,0,25-9.52a4.79,4.79,0,0,0-3.57,1.428A4.692,4.692,0,0,0,20.035-4.641Zm3.128,1.887a2.659,2.659,0,0,1-.731-1.887,2.591,2.591,0,0,1,.731-1.87A2.45,2.45,0,0,1,25-7.276a2.413,2.413,0,0,1,1.819.765,2.606,2.606,0,0,1,.748,1.87,2.674,2.674,0,0,1-.748,1.887A2.413,2.413,0,0,1,25-1.989,2.45,2.45,0,0,1,23.163-2.754Z" transform="translate(1628 1912)" fill="#f9e7ce"/>
    <path id="Caminho_967" data-name="Caminho 967" d="M-36.108-8.194A3.619,3.619,0,0,0-38.93-9.5a4.318,4.318,0,0,0-3.281,1.394A4.915,4.915,0,0,0-43.52-4.641a4.927,4.927,0,0,0,1.309,3.485A4.338,4.338,0,0,0-38.93.221a3.568,3.568,0,0,0,2.873-1.36V0h2.346V-12.92h-2.4Zm.119,3.553A2.744,2.744,0,0,1-36.7-2.72a2.41,2.41,0,0,1-1.853.765,2.473,2.473,0,0,1-1.87-.765,2.744,2.744,0,0,1-.714-1.921,2.661,2.661,0,0,1,.714-1.887,2.427,2.427,0,0,1,1.87-.782,2.366,2.366,0,0,1,1.853.782A2.661,2.661,0,0,1-35.989-4.641Zm13.447-.2a4.482,4.482,0,0,0-1.309-3.4A4.636,4.636,0,0,0-27.183-9.5a4.661,4.661,0,0,0-3.485,1.377,4.755,4.755,0,0,0-1.343,3.485,4.876,4.876,0,0,0,1.292,3.434A4.845,4.845,0,0,0-26.979.2a6.705,6.705,0,0,0,4.046-1.275l-.952-1.683a5.755,5.755,0,0,1-2.992.935,2.492,2.492,0,0,1-2.7-1.972h6.953A7.972,7.972,0,0,0-22.542-4.845Zm-4.641-2.669a2.227,2.227,0,0,1,2.312,1.938H-29.58A2.373,2.373,0,0,1-27.183-7.514Zm13.549-.119V-9.248H-21.25v1.989h4.4l-4.641,5.627V0h8.024V-1.989H-18.19ZM-2.958-4.845a4.482,4.482,0,0,0-1.309-3.4A4.636,4.636,0,0,0-7.6-9.5a4.661,4.661,0,0,0-3.485,1.377,4.755,4.755,0,0,0-1.343,3.485,4.876,4.876,0,0,0,1.292,3.434A4.845,4.845,0,0,0-7.395.2,6.705,6.705,0,0,0-3.349-1.071L-4.3-2.754a5.755,5.755,0,0,1-2.992.935A2.492,2.492,0,0,1-10-3.791h6.953A7.972,7.972,0,0,0-2.958-4.845ZM-7.6-7.514A2.227,2.227,0,0,1-5.287-5.576H-10A2.373,2.373,0,0,1-7.6-7.514ZM9.894-9.52A3.946,3.946,0,0,0,6.579-7.888,2.9,2.9,0,0,0,3.859-9.52,3.147,3.147,0,0,0,1.037-7.939V-9.265H-1.309V0h2.4V-5.066A2.029,2.029,0,0,1,3.111-7.31c1.139,0,1.87.8,1.87,2.176V0h2.4V-5.083A2.018,2.018,0,0,1,9.418-7.31c1.105,0,1.853.748,1.853,2.159V0h2.4V-5.593A3.835,3.835,0,0,0,12.6-8.483,3.652,3.652,0,0,0,9.894-9.52Zm11.05.017a3.619,3.619,0,0,0-2.822,1.309V-12.92h-2.4V0h2.329V-1.156A3.59,3.59,0,0,0,20.944.221a4.4,4.4,0,0,0,3.3-1.377,4.855,4.855,0,0,0,1.326-3.468,4.855,4.855,0,0,0-1.326-3.468A4.37,4.37,0,0,0,20.944-9.5ZM18.02-4.641a2.649,2.649,0,0,1,.714-1.87,2.355,2.355,0,0,1,1.836-.782,2.4,2.4,0,0,1,1.836.765,2.661,2.661,0,0,1,.714,1.887,2.732,2.732,0,0,1-.714,1.9,2.4,2.4,0,0,1-1.836.765,2.4,2.4,0,0,1-1.836-.765A2.732,2.732,0,0,1,18.02-4.641ZM29.648,0V-4.4c0-1.921.9-2.8,2.261-2.8a3.859,3.859,0,0,1,1.1.187l.2-2.3a3.264,3.264,0,0,0-1.122-.2,2.734,2.734,0,0,0-2.55,1.5V-9.265h-2.3V0Zm3.944-4.641a4.7,4.7,0,0,0,1.394,3.468A4.842,4.842,0,0,0,38.556.238a4.842,4.842,0,0,0,3.57-1.411A4.7,4.7,0,0,0,43.52-4.641a4.692,4.692,0,0,0-1.394-3.451,4.79,4.79,0,0,0-3.57-1.428,4.79,4.79,0,0,0-3.57,1.428A4.692,4.692,0,0,0,33.592-4.641ZM36.72-2.754a2.659,2.659,0,0,1-.731-1.887,2.591,2.591,0,0,1,.731-1.87,2.45,2.45,0,0,1,1.836-.765,2.413,2.413,0,0,1,1.819.765,2.606,2.606,0,0,1,.748,1.87,2.674,2.674,0,0,1-.748,1.887,2.413,2.413,0,0,1-1.819.765A2.45,2.45,0,0,1,36.72-2.754Z" transform="translate(1629 2047)" fill="#f9e7ce"/>
    <path id="Caminho_983" data-name="Caminho 983" d="M0,0V91" transform="translate(1293.344 1794.5)" fill="none" stroke="#f9e7ce" stroke-width="1"/>
    <path id="Caminho_974" data-name="Caminho 974" d="M0,0V91" transform="translate(1293.344 1930.5)" fill="none" stroke="#f9e7ce" stroke-width="1"/>
    <path id="Caminho_975" data-name="Caminho 975" d="M0,0V91" transform="translate(1293.344 2065.5)" fill="none" stroke="#f9e7ce" stroke-width="1"/>
    <path id="Caminho_984" data-name="Caminho 984" d="M0,0V91" transform="translate(1561.656 1794.5)" fill="none" stroke="#f9e7ce" stroke-width="1"/>
    <path id="Caminho_970" data-name="Caminho 970" d="M0,0V91" transform="translate(1561.656 1930.5)" fill="none" stroke="#f9e7ce" stroke-width="1"/>
    <path id="Caminho_968" data-name="Caminho 968" d="M0,0V91" transform="translate(1561.656 2065.5)" fill="none" stroke="#f9e7ce" stroke-width="1"/>
    <path id="Caminho_985" data-name="Caminho 985" d="M0,0V91" transform="translate(1695.813 1794.5)" fill="none" stroke="#f9e7ce" stroke-width="1"/>
    <path id="Caminho_971" data-name="Caminho 971" d="M0,0V91" transform="translate(1695.813 1930.5)" fill="none" stroke="#f9e7ce" stroke-width="1"/>
    <path id="Caminho_962" data-name="Caminho 962" d="M0,0V91" transform="translate(1695.813 2065.5)" fill="none" stroke="#f9e7ce" stroke-width="1"/>
    <path id="Caminho_986" data-name="Caminho 986" d="M0,0V91" transform="translate(1159.188 1794.5)" fill="none" stroke="#f9e7ce" stroke-width="1"/>
    <path id="Caminho_981" data-name="Caminho 981" d="M0,0V91" transform="translate(1159.188 1930.5)" fill="none" stroke="#f9e7ce" stroke-width="1"/>
    <path id="Caminho_982" data-name="Caminho 982" d="M0,0V91" transform="translate(1159.188 2065.5)" fill="none" stroke="#f9e7ce" stroke-width="1"/>
    <path id="Caminho_987" data-name="Caminho 987" d="M0,0V91" transform="translate(1427.5 1794.5)" fill="none" stroke="#f9e7ce" stroke-width="1"/>
    <path id="Caminho_972" data-name="Caminho 972" d="M0,0V91" transform="translate(1427.5 1930.5)" fill="none" stroke="#f9e7ce" stroke-width="1"/>
    <path id="Caminho_969" data-name="Caminho 969" d="M0,0V91" transform="translate(1427.5 2065.5)" fill="none" stroke="#f9e7ce" stroke-width="1"/>
    <path id="Caminho_963" data-name="Caminho 963" d="M0,0H599" transform="translate(1128.5 2156.5)" fill="none" stroke="#f9e7ce" stroke-width="3"/>
    <g id="Grupo_1096" data-name="Grupo 1096" transform="translate(2)">
      <g id="Grupo_1094" data-name="Grupo 1094" transform="translate(1453.844 1945.873)">
        <path id="Caminho_604" data-name="Caminho 604" d="M33.348,19.841c-1.8-1.932-4.848-2.9-10.409-2.818-.587-.031-1.272.02-1.194,0-5.365-.323-8.615.887-10.409,2.819C7.759,23.691,6.958,31.3,9.513,37.156c1.931,4.43,5.413,6.971,9.552,6.971h6.554c4.138,0,7.62-2.541,9.551-6.971C37.724,31.3,36.924,23.69,33.348,19.841Zm.727,16.838c-1.018,2.335-3.47,6.253-8.455,6.253H19.065c-4.986,0-7.439-3.919-8.457-6.255-2.379-5.457-1.676-12.5,1.6-16.023a7.537,7.537,0,0,1,5.733-2.432c3.841-.059,3.8.3,3.8.3h0c.555,2.357-.176,4.092-2.679,6.546s5.074.3,3.937-6.546c3.186-.78,7.2-.322,9.47,2.126C35.75,24.183,36.454,31.221,34.074,36.679Z" transform="translate(0 0)"/>
      </g>
      <g id="Grupo_1095" data-name="Grupo 1095" transform="translate(1493.084 1942.172) rotate(11)">
        <path id="Caminho_604-2" data-name="Caminho 604" d="M33.348,19.841c-1.8-1.932-4.848-2.9-10.409-2.818-.587-.031-1.272.02-1.194,0-5.365-.323-8.615.887-10.409,2.819C7.759,23.691,6.958,31.3,9.513,37.156c1.931,4.43,5.413,6.971,9.552,6.971h6.554c4.138,0,7.62-2.541,9.551-6.971C37.724,31.3,36.924,23.69,33.348,19.841Zm.727,16.838c-1.018,2.335-3.47,6.253-8.455,6.253H19.065c-4.986,0-7.439-3.919-8.457-6.255-2.379-5.457-1.676-12.5,1.6-16.023a7.537,7.537,0,0,1,5.733-2.432c3.841-.059,3.8.3,3.8.3h0c.555,2.357-.176,4.092-2.679,6.546s5.074.3,3.937-6.546c3.186-.78,7.2-.322,9.47,2.126C35.75,24.183,36.454,31.221,34.074,36.679Z" transform="translate(0 0)"/>
      </g>
    </g>
    <g id="Grupo_1097" data-name="Grupo 1097" transform="translate(136)">
      <g id="Grupo_1094-2" data-name="Grupo 1094" transform="translate(1453.844 1945.873)">
        <path id="Caminho_604-3" data-name="Caminho 604" d="M33.348,19.841c-1.8-1.932-4.848-2.9-10.409-2.818-.587-.031-1.272.02-1.194,0-5.365-.323-8.615.887-10.409,2.819C7.759,23.691,6.958,31.3,9.513,37.156c1.931,4.43,5.413,6.971,9.552,6.971h6.554c4.138,0,7.62-2.541,9.551-6.971C37.724,31.3,36.924,23.69,33.348,19.841Zm.727,16.838c-1.018,2.335-3.47,6.253-8.455,6.253H19.065c-4.986,0-7.439-3.919-8.457-6.255-2.379-5.457-1.676-12.5,1.6-16.023a7.537,7.537,0,0,1,5.733-2.432c3.841-.059,3.8.3,3.8.3h0c.555,2.357-.176,4.092-2.679,6.546s5.074.3,3.937-6.546c3.186-.78,7.2-.322,9.47,2.126C35.75,24.183,36.454,31.221,34.074,36.679Z" transform="translate(0 0)"/>
      </g>
      <g id="Grupo_1095-2" data-name="Grupo 1095" transform="translate(1493.084 1942.172) rotate(11)">
        <path id="Caminho_604-4" data-name="Caminho 604" d="M33.348,19.841c-1.8-1.932-4.848-2.9-10.409-2.818-.587-.031-1.272.02-1.194,0-5.365-.323-8.615.887-10.409,2.819C7.759,23.691,6.958,31.3,9.513,37.156c1.931,4.43,5.413,6.971,9.552,6.971h6.554c4.138,0,7.62-2.541,9.551-6.971C37.724,31.3,36.924,23.69,33.348,19.841Zm.727,16.838c-1.018,2.335-3.47,6.253-8.455,6.253H19.065c-4.986,0-7.439-3.919-8.457-6.255-2.379-5.457-1.676-12.5,1.6-16.023a7.537,7.537,0,0,1,5.733-2.432c3.841-.059,3.8.3,3.8.3h0c.555,2.357-.176,4.092-2.679,6.546s5.074.3,3.937-6.546c3.186-.78,7.2-.322,9.47,2.126C35.75,24.183,36.454,31.221,34.074,36.679Z" transform="translate(0 0)"/>
      </g>
    </g>
    <g id="Grupo_1098" data-name="Grupo 1098" transform="translate(-268 134)">
      <g id="Grupo_1094-3" data-name="Grupo 1094" transform="translate(1453.844 1945.873)">
        <path id="Caminho_604-5" data-name="Caminho 604" d="M33.348,19.841c-1.8-1.932-4.848-2.9-10.409-2.818-.587-.031-1.272.02-1.194,0-5.365-.323-8.615.887-10.409,2.819C7.759,23.691,6.958,31.3,9.513,37.156c1.931,4.43,5.413,6.971,9.552,6.971h6.554c4.138,0,7.62-2.541,9.551-6.971C37.724,31.3,36.924,23.69,33.348,19.841Zm.727,16.838c-1.018,2.335-3.47,6.253-8.455,6.253H19.065c-4.986,0-7.439-3.919-8.457-6.255-2.379-5.457-1.676-12.5,1.6-16.023a7.537,7.537,0,0,1,5.733-2.432c3.841-.059,3.8.3,3.8.3h0c.555,2.357-.176,4.092-2.679,6.546s5.074.3,3.937-6.546c3.186-.78,7.2-.322,9.47,2.126C35.75,24.183,36.454,31.221,34.074,36.679Z" transform="translate(0 0)"/>
      </g>
      <g id="Grupo_1095-3" data-name="Grupo 1095" transform="translate(1493.084 1942.172) rotate(11)">
        <path id="Caminho_604-6" data-name="Caminho 604" d="M33.348,19.841c-1.8-1.932-4.848-2.9-10.409-2.818-.587-.031-1.272.02-1.194,0-5.365-.323-8.615.887-10.409,2.819C7.759,23.691,6.958,31.3,9.513,37.156c1.931,4.43,5.413,6.971,9.552,6.971h6.554c4.138,0,7.62-2.541,9.551-6.971C37.724,31.3,36.924,23.69,33.348,19.841Zm.727,16.838c-1.018,2.335-3.47,6.253-8.455,6.253H19.065c-4.986,0-7.439-3.919-8.457-6.255-2.379-5.457-1.676-12.5,1.6-16.023a7.537,7.537,0,0,1,5.733-2.432c3.841-.059,3.8.3,3.8.3h0c.555,2.357-.176,4.092-2.679,6.546s5.074.3,3.937-6.546c3.186-.78,7.2-.322,9.47,2.126C35.75,24.183,36.454,31.221,34.074,36.679Z" transform="translate(0 0)"/>
      </g>
    </g>
  </g>
</svg>
