<svg xmlns="http://www.w3.org/2000/svg" width="675" height="102" viewBox="0 0 675 102">
  <g id="Grupo_1226" data-name="Grupo 1226" transform="translate(-1050 -3140)">
    <path id="Caminho_1061" data-name="Caminho 1061" d="M0,0H674V44H0Z" transform="translate(1050 3140)" fill="#f28d27"/>
    <g id="Caminho_1063" data-name="Caminho 1063" transform="translate(1050 3198)" fill="none">
      <path d="M0,0H675V44H0Z" stroke="none"/>
      <path d="M 2 2 L 2 42 L 673 42 L 673 2 L 2 2 M 0 0 L 675 0 L 675 44 L 0 44 L 0 0 Z" stroke="none" fill="#f28d27"/>
    </g>
    <path id="Caminho_1060" data-name="Caminho 1060" d="M-70.644.187A6.874,6.874,0,0,0-65.1-2.482l-1.734-1.581a4.486,4.486,0,0,1-3.655,1.836,3.87,3.87,0,0,1-2.856-1.139,3.882,3.882,0,0,1-1.139-2.873A4,4,0,0,1-73.329-9.18a3.833,3.833,0,0,1,2.856-1.173,4.484,4.484,0,0,1,3.587,1.819l1.683-1.649a6.626,6.626,0,0,0-5.406-2.6,6.35,6.35,0,0,0-4.607,1.853A6.263,6.263,0,0,0-77.1-6.239,6.186,6.186,0,0,0-75.251-1.6,6.417,6.417,0,0,0-70.644.187ZM-53.372,0-58.1-12.563h-2.057L-64.949,0h2.635l.969-2.72h4.386L-56.024,0Zm-4.3-4.964h-2.958l1.5-4.182ZM-51.841,0h2.533V-12.563h-2.533Zm6.953,0,2.652-4.4L-39.618,0h2.907l-3.944-6.358,3.961-6.205h-2.958l-2.567,4.3-2.448-4.3h-2.907l3.757,6.205L-47.847,0Zm20.043,0-4.726-12.563h-2.057L-36.423,0h2.635l.969-2.72h4.386L-27.5,0Zm-4.3-4.964H-32.1l1.5-4.182ZM-14.731,0a5.975,5.975,0,0,0,4.505-1.683A6.238,6.238,0,0,0-8.577-6.256a6.392,6.392,0,0,0-1.615-4.607,5.79,5.79,0,0,0-4.437-1.7h-4.913V0Zm-2.3-10.149h2.414A3.059,3.059,0,0,1-12.1-9.044a4.178,4.178,0,0,1,.9,2.737,4.288,4.288,0,0,1-.9,2.788,3.059,3.059,0,0,1-2.516,1.105h-2.414ZM2.066,0V-2.346H-3.918V-5.168H1.624V-7.514H-3.918v-2.7H2.066v-2.346H-6.451V0ZM14.323.187a6.874,6.874,0,0,0,5.542-2.669L18.131-4.063a4.486,4.486,0,0,1-3.655,1.836A3.87,3.87,0,0,1,11.62-3.366a3.882,3.882,0,0,1-1.139-2.873A4,4,0,0,1,11.637-9.18a3.833,3.833,0,0,1,2.856-1.173A4.484,4.484,0,0,1,18.08-8.534l1.683-1.649a6.626,6.626,0,0,0-5.406-2.6A6.35,6.35,0,0,0,9.75-10.931,6.263,6.263,0,0,0,7.863-6.239,6.186,6.186,0,0,0,9.716-1.6,6.417,6.417,0,0,0,14.323.187ZM31.594,0,26.868-12.563H24.811L20.017,0h2.635l.969-2.72h4.386L28.942,0Zm-4.3-4.964H24.335l1.5-4.182ZM42.729,0,39.687-4.9a3.758,3.758,0,0,0,2.55-3.689,3.927,3.927,0,0,0-1.1-2.822,4.228,4.228,0,0,0-3.2-1.156H33.125V0H35.64V-4.573h1.5L39.788,0ZM37.918-10.234a1.62,1.62,0,0,1,1.734,1.683c0,.969-.646,1.717-1.955,1.717H35.64v-3.4ZM46.809,0h2.55V-10.132h3.587v-2.431H43.222v2.431h3.587Zm10-14.314a2.993,2.993,0,0,1,1.088.391,3.1,3.1,0,0,0,1.309.391,2.629,2.629,0,0,0,2.346-2.006L60-16.269c-.289.544-.646.816-1.037.816a2.721,2.721,0,0,1-1-.374,2.923,2.923,0,0,0-1.326-.374,2.708,2.708,0,0,0-2.5,2.006l1.564.765C55.989-14.025,56.346-14.314,56.805-14.314ZM63.707,0,58.981-12.563H56.924L52.13,0h2.635l.969-2.72H60.12L61.055,0Zm-4.3-4.964H56.448l1.5-4.182ZM70.559.2a6.32,6.32,0,0,0,4.658-1.887,6.2,6.2,0,0,0,1.9-4.59,6.263,6.263,0,0,0-1.9-4.607,6.258,6.258,0,0,0-4.641-1.9,6.323,6.323,0,0,0-4.658,1.9,6.363,6.363,0,0,0-1.887,4.641,6.244,6.244,0,0,0,1.87,4.59A6.33,6.33,0,0,0,70.559.2ZM74.5-6.273a3.791,3.791,0,0,1-1.122,2.856,3.808,3.808,0,0,1-2.805,1.139,3.808,3.808,0,0,1-2.805-1.139,3.923,3.923,0,0,1-1.122-2.856,3.908,3.908,0,0,1,1.139-2.873A3.785,3.785,0,0,1,70.576-10.3a3.785,3.785,0,0,1,2.788,1.156A3.882,3.882,0,0,1,74.5-6.273Z" transform="translate(1390 3168)" fill="#fff"/>
    <path id="Caminho_1062" data-name="Caminho 1062" d="M-42.619-4.675c1.564-1.632,2.346-3.06,2.346-4.267A3.605,3.605,0,0,0-41.429-11.7a4.086,4.086,0,0,0-2.941-1.088,6.1,6.1,0,0,0-4.4,1.955l1.377,1.8a4.291,4.291,0,0,1,2.822-1.394A1.614,1.614,0,0,1-42.84-8.806a2.035,2.035,0,0,1-.289.969,5.516,5.516,0,0,1-.51.8c-.153.187-.425.459-.8.85l-3.91,4.1V0h8.194V-2.312h-4.675ZM-28,.187a6.874,6.874,0,0,0,5.542-2.669l-1.734-1.581a4.486,4.486,0,0,1-3.655,1.836A3.87,3.87,0,0,1-30.7-3.366a3.882,3.882,0,0,1-1.139-2.873A4,4,0,0,1-30.685-9.18a3.833,3.833,0,0,1,2.856-1.173,4.484,4.484,0,0,1,3.587,1.819l1.683-1.649a6.626,6.626,0,0,0-5.406-2.6,6.35,6.35,0,0,0-4.607,1.853,6.263,6.263,0,0,0-1.887,4.692A6.186,6.186,0,0,0-32.606-1.6,6.417,6.417,0,0,0-28,.187ZM-14.093-8.16A3.84,3.84,0,0,0-17.051-9.5a4.338,4.338,0,0,0-3.281,1.377,4.788,4.788,0,0,0-1.309,3.451,4.956,4.956,0,0,0,1.292,3.5,4.3,4.3,0,0,0,3.3,1.394,3.855,3.855,0,0,0,2.958-1.292V0h2.278V-9.265h-2.278Zm.034,3.519a2.686,2.686,0,0,1-.748,1.9,2.416,2.416,0,0,1-1.853.782,2.416,2.416,0,0,1-1.853-.782,2.671,2.671,0,0,1-.731-1.9,2.719,2.719,0,0,1,.714-1.887,2.427,2.427,0,0,1,1.87-.782,2.416,2.416,0,0,1,1.853.782A2.674,2.674,0,0,1-14.059-4.641ZM1.547-9.52A3.946,3.946,0,0,0-1.768-7.888,2.9,2.9,0,0,0-4.488-9.52,3.147,3.147,0,0,0-7.31-7.939V-9.265H-9.656V0h2.4V-5.066A2.029,2.029,0,0,1-5.236-7.31c1.139,0,1.87.8,1.87,2.176V0h2.4V-5.083A2.018,2.018,0,0,1,1.071-7.31c1.105,0,1.853.748,1.853,2.159V0h2.4V-5.593A3.835,3.835,0,0,0,4.25-8.483,3.652,3.652,0,0,0,1.547-9.52ZM14.433-8.16A3.84,3.84,0,0,0,11.475-9.5,4.338,4.338,0,0,0,8.194-8.126,4.788,4.788,0,0,0,6.885-4.675a4.956,4.956,0,0,0,1.292,3.5,4.3,4.3,0,0,0,3.3,1.394,3.855,3.855,0,0,0,2.958-1.292V0h2.278V-9.265H14.433Zm.034,3.519a2.686,2.686,0,0,1-.748,1.9,2.416,2.416,0,0,1-1.853.782,2.416,2.416,0,0,1-1.853-.782,2.671,2.671,0,0,1-.731-1.9A2.719,2.719,0,0,1,10-6.528a2.427,2.427,0,0,1,1.87-.782,2.416,2.416,0,0,1,1.853.782A2.674,2.674,0,0,1,14.467-4.641ZM25.789-8.194A3.619,3.619,0,0,0,22.967-9.5a4.318,4.318,0,0,0-3.281,1.394,4.915,4.915,0,0,0-1.309,3.468,4.927,4.927,0,0,0,1.309,3.485A4.338,4.338,0,0,0,22.967.221a3.568,3.568,0,0,0,2.873-1.36V0h2.346V-12.92h-2.4Zm.119,3.553a2.744,2.744,0,0,1-.714,1.921,2.41,2.41,0,0,1-1.853.765,2.473,2.473,0,0,1-1.87-.765,2.744,2.744,0,0,1-.714-1.921,2.661,2.661,0,0,1,.714-1.887,2.427,2.427,0,0,1,1.87-.782,2.366,2.366,0,0,1,1.853.782A2.661,2.661,0,0,1,25.908-4.641ZM37.417-8.16A3.84,3.84,0,0,0,34.459-9.5a4.338,4.338,0,0,0-3.281,1.377,4.788,4.788,0,0,0-1.309,3.451,4.956,4.956,0,0,0,1.292,3.5,4.3,4.3,0,0,0,3.3,1.394,3.855,3.855,0,0,0,2.958-1.292V0h2.278V-9.265H37.417Zm.034,3.519a2.686,2.686,0,0,1-.748,1.9,2.416,2.416,0,0,1-1.853.782A2.416,2.416,0,0,1,33-2.737a2.671,2.671,0,0,1-.731-1.9,2.719,2.719,0,0,1,.714-1.887,2.427,2.427,0,0,1,1.87-.782,2.416,2.416,0,0,1,1.853.782A2.674,2.674,0,0,1,37.451-4.641Zm7.5,4.879A4.014,4.014,0,0,0,47.617-.6a2.656,2.656,0,0,0,1.02-2.142,2.558,2.558,0,0,0-1.564-2.346c-.255-.136-1-.442-2.227-.9-.544-.187-.816-.459-.816-.85,0-.425.425-.782,1.054-.782a3.042,3.042,0,0,1,2.125.918L48.4-8.245a4.318,4.318,0,0,0-3.247-1.326,3.808,3.808,0,0,0-2.516.782,2.5,2.5,0,0,0-.952,2.006,2.509,2.509,0,0,0,1.6,2.4c.2.1.6.272,1.19.493s.952.357,1.1.425c.442.2.663.476.663.8,0,.527-.544.9-1.275.9A3.447,3.447,0,0,1,42.4-3.06L41.123-1.547A4.6,4.6,0,0,0,44.948.238Z" transform="translate(1387 3226)" fill="#f28d27"/>
  </g>
</svg>
