<svg xmlns="http://www.w3.org/2000/svg" width="1549.426" height="488.709" viewBox="0 0 1549.426 488.709">
  <g id="Grupo_1218" data-name="Grupo 1218" transform="translate(-180 -2979.988)">
    <g id="Grupo_994" data-name="Grupo 994" transform="translate(179 2643.991)" opacity="0.482">
      <path id="Caminho_616" data-name="Caminho 616" d="M34.8,409.48c-11.864-5.128-18.571-13.658-21.106-26.836a3.152,3.152,0,1,0-6.19,1.188c2.925,15.205,11.035,25.484,24.794,31.435a3.152,3.152,0,1,0,2.5-5.787Z" transform="translate(13.873 94.884)" fill="#fff"/>
      <path id="Caminho_617" data-name="Caminho 617" d="M196.314,472.229c-1.734-27.318-22.861-50.76-57.978-64.354-4.778-3.313-8.775-6.66-12.308-9.62-9.661-8.094-17.44-14.584-29.414-8.835-5.806-11.839-12.176-15.58-25.443-15.58H67.892v-8.2a61.9,61.9,0,0,0,20.1,3.7c15.713,0,28.771-7.4,36.9-21.61a3.152,3.152,0,0,0-1.314-4.378c-15.268-7.729-28.841-9.38-40.339-4.9a37.262,37.262,0,0,0-15.347,11.426V339.616a3.152,3.152,0,0,0-6.3,0V373.84H59.666c-15.807.013-21.036,12.63-26.092,24.828a119.246,119.246,0,0,1-5.784,12.558c-25.591,31-33.307,63.4-21.162,88.93,10.225,21.493,33.42,34.769,60.657,34.769.255,0,.511,0,.763,0a71.383,71.383,0,0,0,29.383-6.55,56.63,56.63,0,0,0,31.627,9.333,71.129,71.129,0,0,0,33.622-8.835C184.885,516.921,197.773,495.217,196.314,472.229ZM85.531,344.331c9.005-3.514,19.785-2.452,32.094,3.155-10.329,15.211-27.747,19.5-48.582,11.946C71.268,355.351,76.4,347.893,85.531,344.331ZM67.987,528.619c-.233,0-.466,0-.7,0-24.778,0-45.8-11.9-54.967-31.173-11.073-23.277-3.6-53.319,20.51-82.421a3.036,3.036,0,0,0,.315-.457A121.872,121.872,0,0,0,39.4,401.083c5.377-12.977,9.235-20.929,20.27-20.939h11.5c10.821,0,15.189,2.5,19.886,12.249L83.271,396.5c-13.456,7.092-12.214,20.173-11.013,32.818A114.666,114.666,0,0,1,73,442.339c-7.234,35.466-.416,64.887,18.691,81.655A65.591,65.591,0,0,1,67.987,528.619Zm91.707-5.3c-21,11.312-44.3,10.707-60.811-1.579C79.161,507.059,72,478.48,79.236,443.332a3.359,3.359,0,0,0,.063-.564,118.172,118.172,0,0,0-.763-14.045c-1.27-13.342-1.579-21.768,7.675-26.644l10.6-5.6c3.313-2.027,6.049-2.944,8.608-2.944,5.157,0,9.591,3.716,16.557,9.554,3.716,3.114,7.927,6.645,13.087,10.194a3.271,3.271,0,0,0,.656.344c32.932,12.652,52.723,34.158,54.3,59C191.324,493.13,179.7,512.553,159.694,523.32Z" transform="translate(0 0)" fill="#fff"/>
      <path id="Caminho_618" data-name="Caminho 618" d="M42.611,378.771a3.151,3.151,0,1,0-4.665,4.236l5.018,5.525a3.151,3.151,0,0,0,4.665-4.236Z" transform="translate(77.744 89.831)" fill="#fff"/>
      <path id="Caminho_619" data-name="Caminho 619" d="M50.6,376.037a3.153,3.153,0,0,0-5.935,2.131l2.515,7.013a3.153,3.153,0,0,0,5.935-2.131Z" transform="translate(93.57 81.671)" fill="#fff"/>
    </g>
    <g id="Grupo_1000" data-name="Grupo 1000" transform="translate(856 2643.991)" opacity="0.482">
      <path id="Caminho_616-2" data-name="Caminho 616" d="M34.8,409.48c-11.864-5.128-18.571-13.658-21.106-26.836a3.152,3.152,0,1,0-6.19,1.188c2.925,15.205,11.035,25.484,24.794,31.435a3.152,3.152,0,1,0,2.5-5.787Z" transform="translate(13.873 94.884)" fill="#fff"/>
      <path id="Caminho_617-2" data-name="Caminho 617" d="M196.314,472.229c-1.734-27.318-22.861-50.76-57.978-64.354-4.778-3.313-8.775-6.66-12.308-9.62-9.661-8.094-17.44-14.584-29.414-8.835-5.806-11.839-12.176-15.58-25.443-15.58H67.892v-8.2a61.9,61.9,0,0,0,20.1,3.7c15.713,0,28.771-7.4,36.9-21.61a3.152,3.152,0,0,0-1.314-4.378c-15.268-7.729-28.841-9.38-40.339-4.9a37.262,37.262,0,0,0-15.347,11.426V339.616a3.152,3.152,0,0,0-6.3,0V373.84H59.666c-15.807.013-21.036,12.63-26.092,24.828a119.246,119.246,0,0,1-5.784,12.558c-25.591,31-33.307,63.4-21.162,88.93,10.225,21.493,33.42,34.769,60.657,34.769.255,0,.511,0,.763,0a71.383,71.383,0,0,0,29.383-6.55,56.63,56.63,0,0,0,31.627,9.333,71.129,71.129,0,0,0,33.622-8.835C184.885,516.921,197.773,495.217,196.314,472.229ZM85.531,344.331c9.005-3.514,19.785-2.452,32.094,3.155-10.329,15.211-27.747,19.5-48.582,11.946C71.268,355.351,76.4,347.893,85.531,344.331ZM67.987,528.619c-.233,0-.466,0-.7,0-24.778,0-45.8-11.9-54.967-31.173-11.073-23.277-3.6-53.319,20.51-82.421a3.036,3.036,0,0,0,.315-.457A121.872,121.872,0,0,0,39.4,401.083c5.377-12.977,9.235-20.929,20.27-20.939h11.5c10.821,0,15.189,2.5,19.886,12.249L83.271,396.5c-13.456,7.092-12.214,20.173-11.013,32.818A114.666,114.666,0,0,1,73,442.339c-7.234,35.466-.416,64.887,18.691,81.655A65.591,65.591,0,0,1,67.987,528.619Zm91.707-5.3c-21,11.312-44.3,10.707-60.811-1.579C79.161,507.059,72,478.48,79.236,443.332a3.359,3.359,0,0,0,.063-.564,118.172,118.172,0,0,0-.763-14.045c-1.27-13.342-1.579-21.768,7.675-26.644l10.6-5.6c3.313-2.027,6.049-2.944,8.608-2.944,5.157,0,9.591,3.716,16.557,9.554,3.716,3.114,7.927,6.645,13.087,10.194a3.271,3.271,0,0,0,.656.344c32.932,12.652,52.723,34.158,54.3,59C191.324,493.13,179.7,512.553,159.694,523.32Z" transform="translate(0 0)" fill="#fff"/>
      <path id="Caminho_618-2" data-name="Caminho 618" d="M42.611,378.771a3.151,3.151,0,1,0-4.665,4.236l5.018,5.525a3.151,3.151,0,0,0,4.665-4.236Z" transform="translate(77.744 89.831)" fill="#fff"/>
      <path id="Caminho_619-2" data-name="Caminho 619" d="M50.6,376.037a3.153,3.153,0,0,0-5.935,2.131l2.515,7.013a3.153,3.153,0,0,0,5.935-2.131Z" transform="translate(93.57 81.671)" fill="#fff"/>
    </g>
    <g id="Grupo_996" data-name="Grupo 996" transform="translate(179 2930.991)" opacity="0.482">
      <path id="Caminho_616-3" data-name="Caminho 616" d="M34.8,409.48c-11.864-5.128-18.571-13.658-21.106-26.836a3.152,3.152,0,1,0-6.19,1.188c2.925,15.205,11.035,25.484,24.794,31.435a3.152,3.152,0,1,0,2.5-5.787Z" transform="translate(13.873 94.884)" fill="#fff"/>
      <path id="Caminho_617-3" data-name="Caminho 617" d="M196.314,472.229c-1.734-27.318-22.861-50.76-57.978-64.354-4.778-3.313-8.775-6.66-12.308-9.62-9.661-8.094-17.44-14.584-29.414-8.835-5.806-11.839-12.176-15.58-25.443-15.58H67.892v-8.2a61.9,61.9,0,0,0,20.1,3.7c15.713,0,28.771-7.4,36.9-21.61a3.152,3.152,0,0,0-1.314-4.378c-15.268-7.729-28.841-9.38-40.339-4.9a37.262,37.262,0,0,0-15.347,11.426V339.616a3.152,3.152,0,0,0-6.3,0V373.84H59.666c-15.807.013-21.036,12.63-26.092,24.828a119.246,119.246,0,0,1-5.784,12.558c-25.591,31-33.307,63.4-21.162,88.93,10.225,21.493,33.42,34.769,60.657,34.769.255,0,.511,0,.763,0a71.383,71.383,0,0,0,29.383-6.55,56.63,56.63,0,0,0,31.627,9.333,71.129,71.129,0,0,0,33.622-8.835C184.885,516.921,197.773,495.217,196.314,472.229ZM85.531,344.331c9.005-3.514,19.785-2.452,32.094,3.155-10.329,15.211-27.747,19.5-48.582,11.946C71.268,355.351,76.4,347.893,85.531,344.331ZM67.987,528.619c-.233,0-.466,0-.7,0-24.778,0-45.8-11.9-54.967-31.173-11.073-23.277-3.6-53.319,20.51-82.421a3.036,3.036,0,0,0,.315-.457A121.872,121.872,0,0,0,39.4,401.083c5.377-12.977,9.235-20.929,20.27-20.939h11.5c10.821,0,15.189,2.5,19.886,12.249L83.271,396.5c-13.456,7.092-12.214,20.173-11.013,32.818A114.666,114.666,0,0,1,73,442.339c-7.234,35.466-.416,64.887,18.691,81.655A65.591,65.591,0,0,1,67.987,528.619Zm91.707-5.3c-21,11.312-44.3,10.707-60.811-1.579C79.161,507.059,72,478.48,79.236,443.332a3.359,3.359,0,0,0,.063-.564,118.172,118.172,0,0,0-.763-14.045c-1.27-13.342-1.579-21.768,7.675-26.644l10.6-5.6c3.313-2.027,6.049-2.944,8.608-2.944,5.157,0,9.591,3.716,16.557,9.554,3.716,3.114,7.927,6.645,13.087,10.194a3.271,3.271,0,0,0,.656.344c32.932,12.652,52.723,34.158,54.3,59C191.324,493.13,179.7,512.553,159.694,523.32Z" transform="translate(0 0)" fill="#fff"/>
      <path id="Caminho_618-3" data-name="Caminho 618" d="M42.611,378.771a3.151,3.151,0,1,0-4.665,4.236l5.018,5.525a3.151,3.151,0,0,0,4.665-4.236Z" transform="translate(77.744 89.831)" fill="#fff"/>
      <path id="Caminho_619-3" data-name="Caminho 619" d="M50.6,376.037a3.153,3.153,0,0,0-5.935,2.131l2.515,7.013a3.153,3.153,0,0,0,5.935-2.131Z" transform="translate(93.57 81.671)" fill="#fff"/>
    </g>
    <g id="Grupo_1001" data-name="Grupo 1001" transform="translate(856 2930.991)" opacity="0.482">
      <path id="Caminho_616-4" data-name="Caminho 616" d="M34.8,409.48c-11.864-5.128-18.571-13.658-21.106-26.836a3.152,3.152,0,1,0-6.19,1.188c2.925,15.205,11.035,25.484,24.794,31.435a3.152,3.152,0,1,0,2.5-5.787Z" transform="translate(13.873 94.884)" fill="#fff"/>
      <path id="Caminho_617-4" data-name="Caminho 617" d="M196.314,472.229c-1.734-27.318-22.861-50.76-57.978-64.354-4.778-3.313-8.775-6.66-12.308-9.62-9.661-8.094-17.44-14.584-29.414-8.835-5.806-11.839-12.176-15.58-25.443-15.58H67.892v-8.2a61.9,61.9,0,0,0,20.1,3.7c15.713,0,28.771-7.4,36.9-21.61a3.152,3.152,0,0,0-1.314-4.378c-15.268-7.729-28.841-9.38-40.339-4.9a37.262,37.262,0,0,0-15.347,11.426V339.616a3.152,3.152,0,0,0-6.3,0V373.84H59.666c-15.807.013-21.036,12.63-26.092,24.828a119.246,119.246,0,0,1-5.784,12.558c-25.591,31-33.307,63.4-21.162,88.93,10.225,21.493,33.42,34.769,60.657,34.769.255,0,.511,0,.763,0a71.383,71.383,0,0,0,29.383-6.55,56.63,56.63,0,0,0,31.627,9.333,71.129,71.129,0,0,0,33.622-8.835C184.885,516.921,197.773,495.217,196.314,472.229ZM85.531,344.331c9.005-3.514,19.785-2.452,32.094,3.155-10.329,15.211-27.747,19.5-48.582,11.946C71.268,355.351,76.4,347.893,85.531,344.331ZM67.987,528.619c-.233,0-.466,0-.7,0-24.778,0-45.8-11.9-54.967-31.173-11.073-23.277-3.6-53.319,20.51-82.421a3.036,3.036,0,0,0,.315-.457A121.872,121.872,0,0,0,39.4,401.083c5.377-12.977,9.235-20.929,20.27-20.939h11.5c10.821,0,15.189,2.5,19.886,12.249L83.271,396.5c-13.456,7.092-12.214,20.173-11.013,32.818A114.666,114.666,0,0,1,73,442.339c-7.234,35.466-.416,64.887,18.691,81.655A65.591,65.591,0,0,1,67.987,528.619Zm91.707-5.3c-21,11.312-44.3,10.707-60.811-1.579C79.161,507.059,72,478.48,79.236,443.332a3.359,3.359,0,0,0,.063-.564,118.172,118.172,0,0,0-.763-14.045c-1.27-13.342-1.579-21.768,7.675-26.644l10.6-5.6c3.313-2.027,6.049-2.944,8.608-2.944,5.157,0,9.591,3.716,16.557,9.554,3.716,3.114,7.927,6.645,13.087,10.194a3.271,3.271,0,0,0,.656.344c32.932,12.652,52.723,34.158,54.3,59C191.324,493.13,179.7,512.553,159.694,523.32Z" transform="translate(0 0)" fill="#fff"/>
      <path id="Caminho_618-4" data-name="Caminho 618" d="M42.611,378.771a3.151,3.151,0,1,0-4.665,4.236l5.018,5.525a3.151,3.151,0,0,0,4.665-4.236Z" transform="translate(77.744 89.831)" fill="#fff"/>
      <path id="Caminho_619-4" data-name="Caminho 619" d="M50.6,376.037a3.153,3.153,0,0,0-5.935,2.131l2.515,7.013a3.153,3.153,0,0,0,5.935-2.131Z" transform="translate(93.57 81.671)" fill="#fff"/>
    </g>
    <g id="Grupo_995" data-name="Grupo 995" transform="translate(520 2643.991)" opacity="0.482">
      <path id="Caminho_616-5" data-name="Caminho 616" d="M34.8,409.48c-11.864-5.128-18.571-13.658-21.106-26.836a3.152,3.152,0,1,0-6.19,1.188c2.925,15.205,11.035,25.484,24.794,31.435a3.152,3.152,0,1,0,2.5-5.787Z" transform="translate(13.873 94.884)" fill="#fff"/>
      <path id="Caminho_617-5" data-name="Caminho 617" d="M196.314,472.229c-1.734-27.318-22.861-50.76-57.978-64.354-4.778-3.313-8.775-6.66-12.308-9.62-9.661-8.094-17.44-14.584-29.414-8.835-5.806-11.839-12.176-15.58-25.443-15.58H67.892v-8.2a61.9,61.9,0,0,0,20.1,3.7c15.713,0,28.771-7.4,36.9-21.61a3.152,3.152,0,0,0-1.314-4.378c-15.268-7.729-28.841-9.38-40.339-4.9a37.262,37.262,0,0,0-15.347,11.426V339.616a3.152,3.152,0,0,0-6.3,0V373.84H59.666c-15.807.013-21.036,12.63-26.092,24.828a119.246,119.246,0,0,1-5.784,12.558c-25.591,31-33.307,63.4-21.162,88.93,10.225,21.493,33.42,34.769,60.657,34.769.255,0,.511,0,.763,0a71.383,71.383,0,0,0,29.383-6.55,56.63,56.63,0,0,0,31.627,9.333,71.129,71.129,0,0,0,33.622-8.835C184.885,516.921,197.773,495.217,196.314,472.229ZM85.531,344.331c9.005-3.514,19.785-2.452,32.094,3.155-10.329,15.211-27.747,19.5-48.582,11.946C71.268,355.351,76.4,347.893,85.531,344.331ZM67.987,528.619c-.233,0-.466,0-.7,0-24.778,0-45.8-11.9-54.967-31.173-11.073-23.277-3.6-53.319,20.51-82.421a3.036,3.036,0,0,0,.315-.457A121.872,121.872,0,0,0,39.4,401.083c5.377-12.977,9.235-20.929,20.27-20.939h11.5c10.821,0,15.189,2.5,19.886,12.249L83.271,396.5c-13.456,7.092-12.214,20.173-11.013,32.818A114.666,114.666,0,0,1,73,442.339c-7.234,35.466-.416,64.887,18.691,81.655A65.591,65.591,0,0,1,67.987,528.619Zm91.707-5.3c-21,11.312-44.3,10.707-60.811-1.579C79.161,507.059,72,478.48,79.236,443.332a3.359,3.359,0,0,0,.063-.564,118.172,118.172,0,0,0-.763-14.045c-1.27-13.342-1.579-21.768,7.675-26.644l10.6-5.6c3.313-2.027,6.049-2.944,8.608-2.944,5.157,0,9.591,3.716,16.557,9.554,3.716,3.114,7.927,6.645,13.087,10.194a3.271,3.271,0,0,0,.656.344c32.932,12.652,52.723,34.158,54.3,59C191.324,493.13,179.7,512.553,159.694,523.32Z" transform="translate(0 0)" fill="#fff"/>
      <path id="Caminho_618-5" data-name="Caminho 618" d="M42.611,378.771a3.151,3.151,0,1,0-4.665,4.236l5.018,5.525a3.151,3.151,0,0,0,4.665-4.236Z" transform="translate(77.744 89.831)" fill="#fff"/>
      <path id="Caminho_619-5" data-name="Caminho 619" d="M50.6,376.037a3.153,3.153,0,0,0-5.935,2.131l2.515,7.013a3.153,3.153,0,0,0,5.935-2.131Z" transform="translate(93.57 81.671)" fill="#fff"/>
    </g>
    <g id="Grupo_999" data-name="Grupo 999" transform="translate(1197 2643.991)" opacity="0.482">
      <path id="Caminho_616-6" data-name="Caminho 616" d="M34.8,409.48c-11.864-5.128-18.571-13.658-21.106-26.836a3.152,3.152,0,1,0-6.19,1.188c2.925,15.205,11.035,25.484,24.794,31.435a3.152,3.152,0,1,0,2.5-5.787Z" transform="translate(13.873 94.884)" fill="#fff"/>
      <path id="Caminho_617-6" data-name="Caminho 617" d="M196.314,472.229c-1.734-27.318-22.861-50.76-57.978-64.354-4.778-3.313-8.775-6.66-12.308-9.62-9.661-8.094-17.44-14.584-29.414-8.835-5.806-11.839-12.176-15.58-25.443-15.58H67.892v-8.2a61.9,61.9,0,0,0,20.1,3.7c15.713,0,28.771-7.4,36.9-21.61a3.152,3.152,0,0,0-1.314-4.378c-15.268-7.729-28.841-9.38-40.339-4.9a37.262,37.262,0,0,0-15.347,11.426V339.616a3.152,3.152,0,0,0-6.3,0V373.84H59.666c-15.807.013-21.036,12.63-26.092,24.828a119.246,119.246,0,0,1-5.784,12.558c-25.591,31-33.307,63.4-21.162,88.93,10.225,21.493,33.42,34.769,60.657,34.769.255,0,.511,0,.763,0a71.383,71.383,0,0,0,29.383-6.55,56.63,56.63,0,0,0,31.627,9.333,71.129,71.129,0,0,0,33.622-8.835C184.885,516.921,197.773,495.217,196.314,472.229ZM85.531,344.331c9.005-3.514,19.785-2.452,32.094,3.155-10.329,15.211-27.747,19.5-48.582,11.946C71.268,355.351,76.4,347.893,85.531,344.331ZM67.987,528.619c-.233,0-.466,0-.7,0-24.778,0-45.8-11.9-54.967-31.173-11.073-23.277-3.6-53.319,20.51-82.421a3.036,3.036,0,0,0,.315-.457A121.872,121.872,0,0,0,39.4,401.083c5.377-12.977,9.235-20.929,20.27-20.939h11.5c10.821,0,15.189,2.5,19.886,12.249L83.271,396.5c-13.456,7.092-12.214,20.173-11.013,32.818A114.666,114.666,0,0,1,73,442.339c-7.234,35.466-.416,64.887,18.691,81.655A65.591,65.591,0,0,1,67.987,528.619Zm91.707-5.3c-21,11.312-44.3,10.707-60.811-1.579C79.161,507.059,72,478.48,79.236,443.332a3.359,3.359,0,0,0,.063-.564,118.172,118.172,0,0,0-.763-14.045c-1.27-13.342-1.579-21.768,7.675-26.644l10.6-5.6c3.313-2.027,6.049-2.944,8.608-2.944,5.157,0,9.591,3.716,16.557,9.554,3.716,3.114,7.927,6.645,13.087,10.194a3.271,3.271,0,0,0,.656.344c32.932,12.652,52.723,34.158,54.3,59C191.324,493.13,179.7,512.553,159.694,523.32Z" transform="translate(0 0)" fill="#fff"/>
      <path id="Caminho_618-6" data-name="Caminho 618" d="M42.611,378.771a3.151,3.151,0,1,0-4.665,4.236l5.018,5.525a3.151,3.151,0,0,0,4.665-4.236Z" transform="translate(77.744 89.831)" fill="#fff"/>
      <path id="Caminho_619-6" data-name="Caminho 619" d="M50.6,376.037a3.153,3.153,0,0,0-5.935,2.131l2.515,7.013a3.153,3.153,0,0,0,5.935-2.131Z" transform="translate(93.57 81.671)" fill="#fff"/>
    </g>
    <g id="Grupo_1002" data-name="Grupo 1002" transform="translate(1533 2643.991)" opacity="0.482">
      <path id="Caminho_616-7" data-name="Caminho 616" d="M34.8,409.48c-11.864-5.128-18.571-13.658-21.106-26.836a3.152,3.152,0,1,0-6.19,1.188c2.925,15.205,11.035,25.484,24.794,31.435a3.152,3.152,0,1,0,2.5-5.787Z" transform="translate(13.873 94.884)" fill="#fff"/>
      <path id="Caminho_617-7" data-name="Caminho 617" d="M196.314,472.229c-1.734-27.318-22.861-50.76-57.978-64.354-4.778-3.313-8.775-6.66-12.308-9.62-9.661-8.094-17.44-14.584-29.414-8.835-5.806-11.839-12.176-15.58-25.443-15.58H67.892v-8.2a61.9,61.9,0,0,0,20.1,3.7c15.713,0,28.771-7.4,36.9-21.61a3.152,3.152,0,0,0-1.314-4.378c-15.268-7.729-28.841-9.38-40.339-4.9a37.262,37.262,0,0,0-15.347,11.426V339.616a3.152,3.152,0,0,0-6.3,0V373.84H59.666c-15.807.013-21.036,12.63-26.092,24.828a119.246,119.246,0,0,1-5.784,12.558c-25.591,31-33.307,63.4-21.162,88.93,10.225,21.493,33.42,34.769,60.657,34.769.255,0,.511,0,.763,0a71.383,71.383,0,0,0,29.383-6.55,56.63,56.63,0,0,0,31.627,9.333,71.129,71.129,0,0,0,33.622-8.835C184.885,516.921,197.773,495.217,196.314,472.229ZM85.531,344.331c9.005-3.514,19.785-2.452,32.094,3.155-10.329,15.211-27.747,19.5-48.582,11.946C71.268,355.351,76.4,347.893,85.531,344.331ZM67.987,528.619c-.233,0-.466,0-.7,0-24.778,0-45.8-11.9-54.967-31.173-11.073-23.277-3.6-53.319,20.51-82.421a3.036,3.036,0,0,0,.315-.457A121.872,121.872,0,0,0,39.4,401.083c5.377-12.977,9.235-20.929,20.27-20.939h11.5c10.821,0,15.189,2.5,19.886,12.249L83.271,396.5c-13.456,7.092-12.214,20.173-11.013,32.818A114.666,114.666,0,0,1,73,442.339c-7.234,35.466-.416,64.887,18.691,81.655A65.591,65.591,0,0,1,67.987,528.619Zm91.707-5.3c-21,11.312-44.3,10.707-60.811-1.579C79.161,507.059,72,478.48,79.236,443.332a3.359,3.359,0,0,0,.063-.564,118.172,118.172,0,0,0-.763-14.045c-1.27-13.342-1.579-21.768,7.675-26.644l10.6-5.6c3.313-2.027,6.049-2.944,8.608-2.944,5.157,0,9.591,3.716,16.557,9.554,3.716,3.114,7.927,6.645,13.087,10.194a3.271,3.271,0,0,0,.656.344c32.932,12.652,52.723,34.158,54.3,59C191.324,493.13,179.7,512.553,159.694,523.32Z" transform="translate(0 0)" fill="#fff"/>
      <path id="Caminho_618-7" data-name="Caminho 618" d="M42.611,378.771a3.151,3.151,0,1,0-4.665,4.236l5.018,5.525a3.151,3.151,0,0,0,4.665-4.236Z" transform="translate(77.744 89.831)" fill="#fff"/>
      <path id="Caminho_619-7" data-name="Caminho 619" d="M50.6,376.037a3.153,3.153,0,0,0-5.935,2.131l2.515,7.013a3.153,3.153,0,0,0,5.935-2.131Z" transform="translate(93.57 81.671)" fill="#fff"/>
    </g>
    <g id="Grupo_997" data-name="Grupo 997" transform="translate(520 2930.991)" opacity="0.482">
      <path id="Caminho_616-8" data-name="Caminho 616" d="M34.8,409.48c-11.864-5.128-18.571-13.658-21.106-26.836a3.152,3.152,0,1,0-6.19,1.188c2.925,15.205,11.035,25.484,24.794,31.435a3.152,3.152,0,1,0,2.5-5.787Z" transform="translate(13.873 94.884)" fill="#fff"/>
      <path id="Caminho_617-8" data-name="Caminho 617" d="M196.314,472.229c-1.734-27.318-22.861-50.76-57.978-64.354-4.778-3.313-8.775-6.66-12.308-9.62-9.661-8.094-17.44-14.584-29.414-8.835-5.806-11.839-12.176-15.58-25.443-15.58H67.892v-8.2a61.9,61.9,0,0,0,20.1,3.7c15.713,0,28.771-7.4,36.9-21.61a3.152,3.152,0,0,0-1.314-4.378c-15.268-7.729-28.841-9.38-40.339-4.9a37.262,37.262,0,0,0-15.347,11.426V339.616a3.152,3.152,0,0,0-6.3,0V373.84H59.666c-15.807.013-21.036,12.63-26.092,24.828a119.246,119.246,0,0,1-5.784,12.558c-25.591,31-33.307,63.4-21.162,88.93,10.225,21.493,33.42,34.769,60.657,34.769.255,0,.511,0,.763,0a71.383,71.383,0,0,0,29.383-6.55,56.63,56.63,0,0,0,31.627,9.333,71.129,71.129,0,0,0,33.622-8.835C184.885,516.921,197.773,495.217,196.314,472.229ZM85.531,344.331c9.005-3.514,19.785-2.452,32.094,3.155-10.329,15.211-27.747,19.5-48.582,11.946C71.268,355.351,76.4,347.893,85.531,344.331ZM67.987,528.619c-.233,0-.466,0-.7,0-24.778,0-45.8-11.9-54.967-31.173-11.073-23.277-3.6-53.319,20.51-82.421a3.036,3.036,0,0,0,.315-.457A121.872,121.872,0,0,0,39.4,401.083c5.377-12.977,9.235-20.929,20.27-20.939h11.5c10.821,0,15.189,2.5,19.886,12.249L83.271,396.5c-13.456,7.092-12.214,20.173-11.013,32.818A114.666,114.666,0,0,1,73,442.339c-7.234,35.466-.416,64.887,18.691,81.655A65.591,65.591,0,0,1,67.987,528.619Zm91.707-5.3c-21,11.312-44.3,10.707-60.811-1.579C79.161,507.059,72,478.48,79.236,443.332a3.359,3.359,0,0,0,.063-.564,118.172,118.172,0,0,0-.763-14.045c-1.27-13.342-1.579-21.768,7.675-26.644l10.6-5.6c3.313-2.027,6.049-2.944,8.608-2.944,5.157,0,9.591,3.716,16.557,9.554,3.716,3.114,7.927,6.645,13.087,10.194a3.271,3.271,0,0,0,.656.344c32.932,12.652,52.723,34.158,54.3,59C191.324,493.13,179.7,512.553,159.694,523.32Z" transform="translate(0 0)" fill="#fff"/>
      <path id="Caminho_618-8" data-name="Caminho 618" d="M42.611,378.771a3.151,3.151,0,1,0-4.665,4.236l5.018,5.525a3.151,3.151,0,0,0,4.665-4.236Z" transform="translate(77.744 89.831)" fill="#fff"/>
      <path id="Caminho_619-8" data-name="Caminho 619" d="M50.6,376.037a3.153,3.153,0,0,0-5.935,2.131l2.515,7.013a3.153,3.153,0,0,0,5.935-2.131Z" transform="translate(93.57 81.671)" fill="#fff"/>
    </g>
    <g id="Grupo_998" data-name="Grupo 998" transform="translate(1197 2930.991)" opacity="0.482">
      <path id="Caminho_616-9" data-name="Caminho 616" d="M34.8,409.48c-11.864-5.128-18.571-13.658-21.106-26.836a3.152,3.152,0,1,0-6.19,1.188c2.925,15.205,11.035,25.484,24.794,31.435a3.152,3.152,0,1,0,2.5-5.787Z" transform="translate(13.873 94.884)" fill="#fff"/>
      <path id="Caminho_617-9" data-name="Caminho 617" d="M196.314,472.229c-1.734-27.318-22.861-50.76-57.978-64.354-4.778-3.313-8.775-6.66-12.308-9.62-9.661-8.094-17.44-14.584-29.414-8.835-5.806-11.839-12.176-15.58-25.443-15.58H67.892v-8.2a61.9,61.9,0,0,0,20.1,3.7c15.713,0,28.771-7.4,36.9-21.61a3.152,3.152,0,0,0-1.314-4.378c-15.268-7.729-28.841-9.38-40.339-4.9a37.262,37.262,0,0,0-15.347,11.426V339.616a3.152,3.152,0,0,0-6.3,0V373.84H59.666c-15.807.013-21.036,12.63-26.092,24.828a119.246,119.246,0,0,1-5.784,12.558c-25.591,31-33.307,63.4-21.162,88.93,10.225,21.493,33.42,34.769,60.657,34.769.255,0,.511,0,.763,0a71.383,71.383,0,0,0,29.383-6.55,56.63,56.63,0,0,0,31.627,9.333,71.129,71.129,0,0,0,33.622-8.835C184.885,516.921,197.773,495.217,196.314,472.229ZM85.531,344.331c9.005-3.514,19.785-2.452,32.094,3.155-10.329,15.211-27.747,19.5-48.582,11.946C71.268,355.351,76.4,347.893,85.531,344.331ZM67.987,528.619c-.233,0-.466,0-.7,0-24.778,0-45.8-11.9-54.967-31.173-11.073-23.277-3.6-53.319,20.51-82.421a3.036,3.036,0,0,0,.315-.457A121.872,121.872,0,0,0,39.4,401.083c5.377-12.977,9.235-20.929,20.27-20.939h11.5c10.821,0,15.189,2.5,19.886,12.249L83.271,396.5c-13.456,7.092-12.214,20.173-11.013,32.818A114.666,114.666,0,0,1,73,442.339c-7.234,35.466-.416,64.887,18.691,81.655A65.591,65.591,0,0,1,67.987,528.619Zm91.707-5.3c-21,11.312-44.3,10.707-60.811-1.579C79.161,507.059,72,478.48,79.236,443.332a3.359,3.359,0,0,0,.063-.564,118.172,118.172,0,0,0-.763-14.045c-1.27-13.342-1.579-21.768,7.675-26.644l10.6-5.6c3.313-2.027,6.049-2.944,8.608-2.944,5.157,0,9.591,3.716,16.557,9.554,3.716,3.114,7.927,6.645,13.087,10.194a3.271,3.271,0,0,0,.656.344c32.932,12.652,52.723,34.158,54.3,59C191.324,493.13,179.7,512.553,159.694,523.32Z" transform="translate(0 0)" fill="#fff"/>
      <path id="Caminho_618-9" data-name="Caminho 618" d="M42.611,378.771a3.151,3.151,0,1,0-4.665,4.236l5.018,5.525a3.151,3.151,0,0,0,4.665-4.236Z" transform="translate(77.744 89.831)" fill="#fff"/>
      <path id="Caminho_619-9" data-name="Caminho 619" d="M50.6,376.037a3.153,3.153,0,0,0-5.935,2.131l2.515,7.013a3.153,3.153,0,0,0,5.935-2.131Z" transform="translate(93.57 81.671)" fill="#fff"/>
    </g>
    <g id="Grupo_1003" data-name="Grupo 1003" transform="translate(1533 2930.991)" opacity="0.482">
      <path id="Caminho_616-10" data-name="Caminho 616" d="M34.8,409.48c-11.864-5.128-18.571-13.658-21.106-26.836a3.152,3.152,0,1,0-6.19,1.188c2.925,15.205,11.035,25.484,24.794,31.435a3.152,3.152,0,1,0,2.5-5.787Z" transform="translate(13.873 94.884)" fill="#fff"/>
      <path id="Caminho_617-10" data-name="Caminho 617" d="M196.314,472.229c-1.734-27.318-22.861-50.76-57.978-64.354-4.778-3.313-8.775-6.66-12.308-9.62-9.661-8.094-17.44-14.584-29.414-8.835-5.806-11.839-12.176-15.58-25.443-15.58H67.892v-8.2a61.9,61.9,0,0,0,20.1,3.7c15.713,0,28.771-7.4,36.9-21.61a3.152,3.152,0,0,0-1.314-4.378c-15.268-7.729-28.841-9.38-40.339-4.9a37.262,37.262,0,0,0-15.347,11.426V339.616a3.152,3.152,0,0,0-6.3,0V373.84H59.666c-15.807.013-21.036,12.63-26.092,24.828a119.246,119.246,0,0,1-5.784,12.558c-25.591,31-33.307,63.4-21.162,88.93,10.225,21.493,33.42,34.769,60.657,34.769.255,0,.511,0,.763,0a71.383,71.383,0,0,0,29.383-6.55,56.63,56.63,0,0,0,31.627,9.333,71.129,71.129,0,0,0,33.622-8.835C184.885,516.921,197.773,495.217,196.314,472.229ZM85.531,344.331c9.005-3.514,19.785-2.452,32.094,3.155-10.329,15.211-27.747,19.5-48.582,11.946C71.268,355.351,76.4,347.893,85.531,344.331ZM67.987,528.619c-.233,0-.466,0-.7,0-24.778,0-45.8-11.9-54.967-31.173-11.073-23.277-3.6-53.319,20.51-82.421a3.036,3.036,0,0,0,.315-.457A121.872,121.872,0,0,0,39.4,401.083c5.377-12.977,9.235-20.929,20.27-20.939h11.5c10.821,0,15.189,2.5,19.886,12.249L83.271,396.5c-13.456,7.092-12.214,20.173-11.013,32.818A114.666,114.666,0,0,1,73,442.339c-7.234,35.466-.416,64.887,18.691,81.655A65.591,65.591,0,0,1,67.987,528.619Zm91.707-5.3c-21,11.312-44.3,10.707-60.811-1.579C79.161,507.059,72,478.48,79.236,443.332a3.359,3.359,0,0,0,.063-.564,118.172,118.172,0,0,0-.763-14.045c-1.27-13.342-1.579-21.768,7.675-26.644l10.6-5.6c3.313-2.027,6.049-2.944,8.608-2.944,5.157,0,9.591,3.716,16.557,9.554,3.716,3.114,7.927,6.645,13.087,10.194a3.271,3.271,0,0,0,.656.344c32.932,12.652,52.723,34.158,54.3,59C191.324,493.13,179.7,512.553,159.694,523.32Z" transform="translate(0 0)" fill="#fff"/>
      <path id="Caminho_618-10" data-name="Caminho 618" d="M42.611,378.771a3.151,3.151,0,1,0-4.665,4.236l5.018,5.525a3.151,3.151,0,0,0,4.665-4.236Z" transform="translate(77.744 89.831)" fill="#fff"/>
      <path id="Caminho_619-10" data-name="Caminho 619" d="M50.6,376.037a3.153,3.153,0,0,0-5.935,2.131l2.515,7.013a3.153,3.153,0,0,0,5.935-2.131Z" transform="translate(93.57 81.671)" fill="#fff"/>
    </g>
  </g>
</svg>
