<svg xmlns="http://www.w3.org/2000/svg" xmlns:xlink="http://www.w3.org/1999/xlink" width="1568.636" height="477.042" viewBox="0 0 1568.636 477.042">
  <defs>
    <clipPath id="clip-path">
      <rect id="Retângulo_106" data-name="Retângulo 106" width="207.636" height="199.042" fill="none" stroke="#fff" stroke-width="6"/>
    </clipPath>
  </defs>
  <g id="Grupo_1221" data-name="Grupo 1221" transform="translate(-175.416 -2991.654)">
    <g id="Grupo_1034" data-name="Grupo 1034" transform="translate(1536.416 2991.654)" opacity="0.48">
      <g id="Grupo_975" data-name="Grupo 975" transform="translate(0 0)" clip-path="url(#clip-path)">
        <path id="Caminho_742" data-name="Caminho 742" d="M50.83,23.383c4.289,39.7-28.449,80.582-34.471,86.717" transform="translate(36.715 52.479)" fill="none" stroke="#fff" stroke-linecap="round" stroke-linejoin="round" stroke-width="6"/>
        <path id="Caminho_743" data-name="Caminho 743" d="M85.4,24.417A58.291,58.291,0,1,1,26.984,82.708,58.36,58.36,0,0,1,85.4,24.417Z" transform="translate(60.561 54.8)" fill="none" stroke="#fff" stroke-linecap="round" stroke-linejoin="round" stroke-width="6"/>
        <path id="Caminho_744" data-name="Caminho 744" d="M146.445,70.357c-2.54-24.43-9.217-43.046-32.294-51.312-10.865-3.9-20.41,4.8-20.41,4.8S89.676,7.495,79.846,5.415c-39.315-8.3-69.5,20.4-77.416,59.78-10.836,53.9,43.334,87.551,48.4,88.453,2.436.431,16.835.487,37.313-7.066" transform="translate(2.245 8.932)" fill="none" stroke="#fff" stroke-linecap="round" stroke-linejoin="round" stroke-width="6"/>
        <path id="Caminho_745" data-name="Caminho 745" d="M67.952,32.175a33.065,33.065,0,0,1,13.743,2.959c6.291,2.852,7.264,1.3,14.288.016-1.015,6.187-2.712,7.884.389,13A32.826,32.826,0,0,1,101.157,65.3,33.2,33.2,0,1,1,67.952,32.175Z" transform="translate(78.01 72.211)" fill="none" stroke="#fff" stroke-linecap="round" stroke-linejoin="round" stroke-width="6"/>
        <path id="Caminho_746" data-name="Caminho 746" d="M51.311,1S33.983,2.168,30.132,27.876" transform="translate(67.626 2.245)" fill="none" stroke="#fff" stroke-linecap="round" stroke-linejoin="round" stroke-width="6"/>
      </g>
    </g>
    <g id="Grupo_1054" data-name="Grupo 1054" transform="translate(852.416 2991.654)" opacity="0.48">
      <g id="Grupo_975-2" data-name="Grupo 975" transform="translate(0 0)" clip-path="url(#clip-path)">
        <path id="Caminho_742-2" data-name="Caminho 742" d="M50.83,23.383c4.289,39.7-28.449,80.582-34.471,86.717" transform="translate(36.715 52.479)" fill="none" stroke="#fff" stroke-linecap="round" stroke-linejoin="round" stroke-width="6"/>
        <path id="Caminho_743-2" data-name="Caminho 743" d="M85.4,24.417A58.291,58.291,0,1,1,26.984,82.708,58.36,58.36,0,0,1,85.4,24.417Z" transform="translate(60.561 54.8)" fill="none" stroke="#fff" stroke-linecap="round" stroke-linejoin="round" stroke-width="6"/>
        <path id="Caminho_744-2" data-name="Caminho 744" d="M146.445,70.357c-2.54-24.43-9.217-43.046-32.294-51.312-10.865-3.9-20.41,4.8-20.41,4.8S89.676,7.495,79.846,5.415c-39.315-8.3-69.5,20.4-77.416,59.78-10.836,53.9,43.334,87.551,48.4,88.453,2.436.431,16.835.487,37.313-7.066" transform="translate(2.245 8.932)" fill="none" stroke="#fff" stroke-linecap="round" stroke-linejoin="round" stroke-width="6"/>
        <path id="Caminho_745-2" data-name="Caminho 745" d="M67.952,32.175a33.065,33.065,0,0,1,13.743,2.959c6.291,2.852,7.264,1.3,14.288.016-1.015,6.187-2.712,7.884.389,13A32.826,32.826,0,0,1,101.157,65.3,33.2,33.2,0,1,1,67.952,32.175Z" transform="translate(78.01 72.211)" fill="none" stroke="#fff" stroke-linecap="round" stroke-linejoin="round" stroke-width="6"/>
        <path id="Caminho_746-2" data-name="Caminho 746" d="M51.311,1S33.983,2.168,30.132,27.876" transform="translate(67.626 2.245)" fill="none" stroke="#fff" stroke-linecap="round" stroke-linejoin="round" stroke-width="6"/>
      </g>
    </g>
    <g id="Grupo_1050" data-name="Grupo 1050" transform="translate(1536.416 3269.654)" opacity="0.48">
      <g id="Grupo_975-3" data-name="Grupo 975" transform="translate(0 0)" clip-path="url(#clip-path)">
        <path id="Caminho_742-3" data-name="Caminho 742" d="M50.83,23.383c4.289,39.7-28.449,80.582-34.471,86.717" transform="translate(36.715 52.479)" fill="none" stroke="#fff" stroke-linecap="round" stroke-linejoin="round" stroke-width="6"/>
        <path id="Caminho_743-3" data-name="Caminho 743" d="M85.4,24.417A58.291,58.291,0,1,1,26.984,82.708,58.36,58.36,0,0,1,85.4,24.417Z" transform="translate(60.561 54.8)" fill="none" stroke="#fff" stroke-linecap="round" stroke-linejoin="round" stroke-width="6"/>
        <path id="Caminho_744-3" data-name="Caminho 744" d="M146.445,70.357c-2.54-24.43-9.217-43.046-32.294-51.312-10.865-3.9-20.41,4.8-20.41,4.8S89.676,7.495,79.846,5.415c-39.315-8.3-69.5,20.4-77.416,59.78-10.836,53.9,43.334,87.551,48.4,88.453,2.436.431,16.835.487,37.313-7.066" transform="translate(2.245 8.932)" fill="none" stroke="#fff" stroke-linecap="round" stroke-linejoin="round" stroke-width="6"/>
        <path id="Caminho_745-3" data-name="Caminho 745" d="M67.952,32.175a33.065,33.065,0,0,1,13.743,2.959c6.291,2.852,7.264,1.3,14.288.016-1.015,6.187-2.712,7.884.389,13A32.826,32.826,0,0,1,101.157,65.3,33.2,33.2,0,1,1,67.952,32.175Z" transform="translate(78.01 72.211)" fill="none" stroke="#fff" stroke-linecap="round" stroke-linejoin="round" stroke-width="6"/>
        <path id="Caminho_746-3" data-name="Caminho 746" d="M51.311,1S33.983,2.168,30.132,27.876" transform="translate(67.626 2.245)" fill="none" stroke="#fff" stroke-linecap="round" stroke-linejoin="round" stroke-width="6"/>
      </g>
    </g>
    <g id="Grupo_1052" data-name="Grupo 1052" transform="translate(852.416 3269.654)" opacity="0.48">
      <g id="Grupo_975-4" data-name="Grupo 975" transform="translate(0 0)" clip-path="url(#clip-path)">
        <path id="Caminho_742-4" data-name="Caminho 742" d="M50.83,23.383c4.289,39.7-28.449,80.582-34.471,86.717" transform="translate(36.715 52.479)" fill="none" stroke="#fff" stroke-linecap="round" stroke-linejoin="round" stroke-width="6"/>
        <path id="Caminho_743-4" data-name="Caminho 743" d="M85.4,24.417A58.291,58.291,0,1,1,26.984,82.708,58.36,58.36,0,0,1,85.4,24.417Z" transform="translate(60.561 54.8)" fill="none" stroke="#fff" stroke-linecap="round" stroke-linejoin="round" stroke-width="6"/>
        <path id="Caminho_744-4" data-name="Caminho 744" d="M146.445,70.357c-2.54-24.43-9.217-43.046-32.294-51.312-10.865-3.9-20.41,4.8-20.41,4.8S89.676,7.495,79.846,5.415c-39.315-8.3-69.5,20.4-77.416,59.78-10.836,53.9,43.334,87.551,48.4,88.453,2.436.431,16.835.487,37.313-7.066" transform="translate(2.245 8.932)" fill="none" stroke="#fff" stroke-linecap="round" stroke-linejoin="round" stroke-width="6"/>
        <path id="Caminho_745-4" data-name="Caminho 745" d="M67.952,32.175a33.065,33.065,0,0,1,13.743,2.959c6.291,2.852,7.264,1.3,14.288.016-1.015,6.187-2.712,7.884.389,13A32.826,32.826,0,0,1,101.157,65.3,33.2,33.2,0,1,1,67.952,32.175Z" transform="translate(78.01 72.211)" fill="none" stroke="#fff" stroke-linecap="round" stroke-linejoin="round" stroke-width="6"/>
        <path id="Caminho_746-4" data-name="Caminho 746" d="M51.311,1S33.983,2.168,30.132,27.876" transform="translate(67.626 2.245)" fill="none" stroke="#fff" stroke-linecap="round" stroke-linejoin="round" stroke-width="6"/>
      </g>
    </g>
    <g id="Grupo_1048" data-name="Grupo 1048" transform="translate(1194.416 2991.654)" opacity="0.48">
      <g id="Grupo_975-5" data-name="Grupo 975" transform="translate(0 0)" clip-path="url(#clip-path)">
        <path id="Caminho_742-5" data-name="Caminho 742" d="M50.83,23.383c4.289,39.7-28.449,80.582-34.471,86.717" transform="translate(36.715 52.479)" fill="none" stroke="#fff" stroke-linecap="round" stroke-linejoin="round" stroke-width="6"/>
        <path id="Caminho_743-5" data-name="Caminho 743" d="M85.4,24.417A58.291,58.291,0,1,1,26.984,82.708,58.36,58.36,0,0,1,85.4,24.417Z" transform="translate(60.561 54.8)" fill="none" stroke="#fff" stroke-linecap="round" stroke-linejoin="round" stroke-width="6"/>
        <path id="Caminho_744-5" data-name="Caminho 744" d="M146.445,70.357c-2.54-24.43-9.217-43.046-32.294-51.312-10.865-3.9-20.41,4.8-20.41,4.8S89.676,7.495,79.846,5.415c-39.315-8.3-69.5,20.4-77.416,59.78-10.836,53.9,43.334,87.551,48.4,88.453,2.436.431,16.835.487,37.313-7.066" transform="translate(2.245 8.932)" fill="none" stroke="#fff" stroke-linecap="round" stroke-linejoin="round" stroke-width="6"/>
        <path id="Caminho_745-5" data-name="Caminho 745" d="M67.952,32.175a33.065,33.065,0,0,1,13.743,2.959c6.291,2.852,7.264,1.3,14.288.016-1.015,6.187-2.712,7.884.389,13A32.826,32.826,0,0,1,101.157,65.3,33.2,33.2,0,1,1,67.952,32.175Z" transform="translate(78.01 72.211)" fill="none" stroke="#fff" stroke-linecap="round" stroke-linejoin="round" stroke-width="6"/>
        <path id="Caminho_746-5" data-name="Caminho 746" d="M51.311,1S33.983,2.168,30.132,27.876" transform="translate(67.626 2.245)" fill="none" stroke="#fff" stroke-linecap="round" stroke-linejoin="round" stroke-width="6"/>
      </g>
    </g>
    <g id="Grupo_1053" data-name="Grupo 1053" transform="translate(510.416 2991.654)" opacity="0.48">
      <g id="Grupo_975-6" data-name="Grupo 975" transform="translate(0 0)" clip-path="url(#clip-path)">
        <path id="Caminho_742-6" data-name="Caminho 742" d="M50.83,23.383c4.289,39.7-28.449,80.582-34.471,86.717" transform="translate(36.715 52.479)" fill="none" stroke="#fff" stroke-linecap="round" stroke-linejoin="round" stroke-width="6"/>
        <path id="Caminho_743-6" data-name="Caminho 743" d="M85.4,24.417A58.291,58.291,0,1,1,26.984,82.708,58.36,58.36,0,0,1,85.4,24.417Z" transform="translate(60.561 54.8)" fill="none" stroke="#fff" stroke-linecap="round" stroke-linejoin="round" stroke-width="6"/>
        <path id="Caminho_744-6" data-name="Caminho 744" d="M146.445,70.357c-2.54-24.43-9.217-43.046-32.294-51.312-10.865-3.9-20.41,4.8-20.41,4.8S89.676,7.495,79.846,5.415c-39.315-8.3-69.5,20.4-77.416,59.78-10.836,53.9,43.334,87.551,48.4,88.453,2.436.431,16.835.487,37.313-7.066" transform="translate(2.245 8.932)" fill="none" stroke="#fff" stroke-linecap="round" stroke-linejoin="round" stroke-width="6"/>
        <path id="Caminho_745-6" data-name="Caminho 745" d="M67.952,32.175a33.065,33.065,0,0,1,13.743,2.959c6.291,2.852,7.264,1.3,14.288.016-1.015,6.187-2.712,7.884.389,13A32.826,32.826,0,0,1,101.157,65.3,33.2,33.2,0,1,1,67.952,32.175Z" transform="translate(78.01 72.211)" fill="none" stroke="#fff" stroke-linecap="round" stroke-linejoin="round" stroke-width="6"/>
        <path id="Caminho_746-6" data-name="Caminho 746" d="M51.311,1S33.983,2.168,30.132,27.876" transform="translate(67.626 2.245)" fill="none" stroke="#fff" stroke-linecap="round" stroke-linejoin="round" stroke-width="6"/>
      </g>
    </g>
    <g id="Grupo_1056" data-name="Grupo 1056" transform="translate(175.416 2991.654)" opacity="0.48">
      <g id="Grupo_975-7" data-name="Grupo 975" transform="translate(0 0)" clip-path="url(#clip-path)">
        <path id="Caminho_742-7" data-name="Caminho 742" d="M50.83,23.383c4.289,39.7-28.449,80.582-34.471,86.717" transform="translate(36.715 52.479)" fill="none" stroke="#fff" stroke-linecap="round" stroke-linejoin="round" stroke-width="6"/>
        <path id="Caminho_743-7" data-name="Caminho 743" d="M85.4,24.417A58.291,58.291,0,1,1,26.984,82.708,58.36,58.36,0,0,1,85.4,24.417Z" transform="translate(60.561 54.8)" fill="none" stroke="#fff" stroke-linecap="round" stroke-linejoin="round" stroke-width="6"/>
        <path id="Caminho_744-7" data-name="Caminho 744" d="M146.445,70.357c-2.54-24.43-9.217-43.046-32.294-51.312-10.865-3.9-20.41,4.8-20.41,4.8S89.676,7.495,79.846,5.415c-39.315-8.3-69.5,20.4-77.416,59.78-10.836,53.9,43.334,87.551,48.4,88.453,2.436.431,16.835.487,37.313-7.066" transform="translate(2.245 8.932)" fill="none" stroke="#fff" stroke-linecap="round" stroke-linejoin="round" stroke-width="6"/>
        <path id="Caminho_745-7" data-name="Caminho 745" d="M67.952,32.175a33.065,33.065,0,0,1,13.743,2.959c6.291,2.852,7.264,1.3,14.288.016-1.015,6.187-2.712,7.884.389,13A32.826,32.826,0,0,1,101.157,65.3,33.2,33.2,0,1,1,67.952,32.175Z" transform="translate(78.01 72.211)" fill="none" stroke="#fff" stroke-linecap="round" stroke-linejoin="round" stroke-width="6"/>
        <path id="Caminho_746-7" data-name="Caminho 746" d="M51.311,1S33.983,2.168,30.132,27.876" transform="translate(67.626 2.245)" fill="none" stroke="#fff" stroke-linecap="round" stroke-linejoin="round" stroke-width="6"/>
      </g>
    </g>
    <g id="Grupo_1049" data-name="Grupo 1049" transform="translate(1194.416 3269.654)" opacity="0.48">
      <g id="Grupo_975-8" data-name="Grupo 975" transform="translate(0 0)" clip-path="url(#clip-path)">
        <path id="Caminho_742-8" data-name="Caminho 742" d="M50.83,23.383c4.289,39.7-28.449,80.582-34.471,86.717" transform="translate(36.715 52.479)" fill="none" stroke="#fff" stroke-linecap="round" stroke-linejoin="round" stroke-width="6"/>
        <path id="Caminho_743-8" data-name="Caminho 743" d="M85.4,24.417A58.291,58.291,0,1,1,26.984,82.708,58.36,58.36,0,0,1,85.4,24.417Z" transform="translate(60.561 54.8)" fill="none" stroke="#fff" stroke-linecap="round" stroke-linejoin="round" stroke-width="6"/>
        <path id="Caminho_744-8" data-name="Caminho 744" d="M146.445,70.357c-2.54-24.43-9.217-43.046-32.294-51.312-10.865-3.9-20.41,4.8-20.41,4.8S89.676,7.495,79.846,5.415c-39.315-8.3-69.5,20.4-77.416,59.78-10.836,53.9,43.334,87.551,48.4,88.453,2.436.431,16.835.487,37.313-7.066" transform="translate(2.245 8.932)" fill="none" stroke="#fff" stroke-linecap="round" stroke-linejoin="round" stroke-width="6"/>
        <path id="Caminho_745-8" data-name="Caminho 745" d="M67.952,32.175a33.065,33.065,0,0,1,13.743,2.959c6.291,2.852,7.264,1.3,14.288.016-1.015,6.187-2.712,7.884.389,13A32.826,32.826,0,0,1,101.157,65.3,33.2,33.2,0,1,1,67.952,32.175Z" transform="translate(78.01 72.211)" fill="none" stroke="#fff" stroke-linecap="round" stroke-linejoin="round" stroke-width="6"/>
        <path id="Caminho_746-8" data-name="Caminho 746" d="M51.311,1S33.983,2.168,30.132,27.876" transform="translate(67.626 2.245)" fill="none" stroke="#fff" stroke-linecap="round" stroke-linejoin="round" stroke-width="6"/>
      </g>
    </g>
    <g id="Grupo_1051" data-name="Grupo 1051" transform="translate(510.416 3269.654)" opacity="0.48">
      <g id="Grupo_975-9" data-name="Grupo 975" transform="translate(0 0)" clip-path="url(#clip-path)">
        <path id="Caminho_742-9" data-name="Caminho 742" d="M50.83,23.383c4.289,39.7-28.449,80.582-34.471,86.717" transform="translate(36.715 52.479)" fill="none" stroke="#fff" stroke-linecap="round" stroke-linejoin="round" stroke-width="6"/>
        <path id="Caminho_743-9" data-name="Caminho 743" d="M85.4,24.417A58.291,58.291,0,1,1,26.984,82.708,58.36,58.36,0,0,1,85.4,24.417Z" transform="translate(60.561 54.8)" fill="none" stroke="#fff" stroke-linecap="round" stroke-linejoin="round" stroke-width="6"/>
        <path id="Caminho_744-9" data-name="Caminho 744" d="M146.445,70.357c-2.54-24.43-9.217-43.046-32.294-51.312-10.865-3.9-20.41,4.8-20.41,4.8S89.676,7.495,79.846,5.415c-39.315-8.3-69.5,20.4-77.416,59.78-10.836,53.9,43.334,87.551,48.4,88.453,2.436.431,16.835.487,37.313-7.066" transform="translate(2.245 8.932)" fill="none" stroke="#fff" stroke-linecap="round" stroke-linejoin="round" stroke-width="6"/>
        <path id="Caminho_745-9" data-name="Caminho 745" d="M67.952,32.175a33.065,33.065,0,0,1,13.743,2.959c6.291,2.852,7.264,1.3,14.288.016-1.015,6.187-2.712,7.884.389,13A32.826,32.826,0,0,1,101.157,65.3,33.2,33.2,0,1,1,67.952,32.175Z" transform="translate(78.01 72.211)" fill="none" stroke="#fff" stroke-linecap="round" stroke-linejoin="round" stroke-width="6"/>
        <path id="Caminho_746-9" data-name="Caminho 746" d="M51.311,1S33.983,2.168,30.132,27.876" transform="translate(67.626 2.245)" fill="none" stroke="#fff" stroke-linecap="round" stroke-linejoin="round" stroke-width="6"/>
      </g>
    </g>
    <g id="Grupo_1055" data-name="Grupo 1055" transform="translate(175.416 3269.654)" opacity="0.48">
      <g id="Grupo_975-10" data-name="Grupo 975" transform="translate(0 0)" clip-path="url(#clip-path)">
        <path id="Caminho_742-10" data-name="Caminho 742" d="M50.83,23.383c4.289,39.7-28.449,80.582-34.471,86.717" transform="translate(36.715 52.479)" fill="none" stroke="#fff" stroke-linecap="round" stroke-linejoin="round" stroke-width="6"/>
        <path id="Caminho_743-10" data-name="Caminho 743" d="M85.4,24.417A58.291,58.291,0,1,1,26.984,82.708,58.36,58.36,0,0,1,85.4,24.417Z" transform="translate(60.561 54.8)" fill="none" stroke="#fff" stroke-linecap="round" stroke-linejoin="round" stroke-width="6"/>
        <path id="Caminho_744-10" data-name="Caminho 744" d="M146.445,70.357c-2.54-24.43-9.217-43.046-32.294-51.312-10.865-3.9-20.41,4.8-20.41,4.8S89.676,7.495,79.846,5.415c-39.315-8.3-69.5,20.4-77.416,59.78-10.836,53.9,43.334,87.551,48.4,88.453,2.436.431,16.835.487,37.313-7.066" transform="translate(2.245 8.932)" fill="none" stroke="#fff" stroke-linecap="round" stroke-linejoin="round" stroke-width="6"/>
        <path id="Caminho_745-10" data-name="Caminho 745" d="M67.952,32.175a33.065,33.065,0,0,1,13.743,2.959c6.291,2.852,7.264,1.3,14.288.016-1.015,6.187-2.712,7.884.389,13A32.826,32.826,0,0,1,101.157,65.3,33.2,33.2,0,1,1,67.952,32.175Z" transform="translate(78.01 72.211)" fill="none" stroke="#fff" stroke-linecap="round" stroke-linejoin="round" stroke-width="6"/>
        <path id="Caminho_746-10" data-name="Caminho 746" d="M51.311,1S33.983,2.168,30.132,27.876" transform="translate(67.626 2.245)" fill="none" stroke="#fff" stroke-linecap="round" stroke-linejoin="round" stroke-width="6"/>
      </g>
    </g>
  </g>
</svg>
