<svg xmlns="http://www.w3.org/2000/svg" width="1561.718" height="483.042" viewBox="0 0 1561.718 483.042">
  <g id="Grupo_1093" data-name="Grupo 1093" transform="translate(-146.093 -2991.654)">
    <g id="Grupo_1083" data-name="Grupo 1083" transform="translate(1516.588 2823.657)" opacity="0.477">
      <path id="Caminho_620" data-name="Caminho 620" d="M43.533,190.024a43.5,43.5,0,0,0-20.609,21.2,3.109,3.109,0,1,0,5.636,2.628,37.075,37.075,0,0,1,17.62-18.192,3.112,3.112,0,1,0-2.647-5.633Z" transform="translate(44.584 45.864)" fill="#fff"/>
      <path id="Caminho_621" data-name="Caminho 621" d="M119.491,208.121a50.79,50.79,0,0,0,.883-10.292c8.174,4.3,19.29,8.071,30.97,8.071,13.748,0,28.2-5.213,39.306-20.883a3.106,3.106,0,0,0-.193-3.838c-8.594-9.879-26.513-15.042-43.582-12.569-12.04,1.748-21.685,7-28.015,14.989-.868-3.835-2.09-7.129-3.692-9.144a3.111,3.111,0,0,0-4.871,3.872c3.86,4.852,4.958,23.045,2.883,29.72a75.811,75.811,0,0,0-73.293,68.384L11.907,266.254a3.108,3.108,0,0,0-3.838,1.524A59.672,59.672,0,0,0,5.051,274.8c-12.32,34.428,8.491,73.657,46.394,87.435a79.443,79.443,0,0,0,27.147,4.809,73.336,73.336,0,0,0,31.1-6.768c1.922.134,3.764.215,5.571.215,41.788,0,75.784-34.2,75.784-76.247C191.045,243.626,159.319,210.336,119.491,208.121Zm28.276-33.352c13.751-2.006,28.469,1.636,36.264,8.728-21.7,27.813-53.825,12.743-62.867,7.664C127.9,179.344,140.545,175.817,147.767,174.769Zm-89.9,160.37c-9.823-1.574-20.665-6.438-22.721-19.99l35.695-16.3ZM76.677,301l17.194,35.57c-6.812,6.712-18.861,7.032-30.143.653Zm22.839,32.954L82.378,298.5l36.786,13.378C115.681,324.583,108.381,332.778,99.516,333.951ZM32.675,309.435c-6.6-8.619-7.163-18.976-1.6-29.589l36.967,13.443Zm20.9,46.951C18.877,343.77-.261,308.11,10.908,276.888c.46-1.291.964-2.557,1.53-3.823L25.2,277.709c-6.532,13.057-5.266,26.258,3.617,36.817,1.633,15.272,12.255,24.836,30.074,27.032a40.4,40.4,0,0,0,21.126,6.5c7.527,0,14.32-2.659,19.07-7.841,11.866-.905,21.542-10.7,25.937-26.2l12.927,4.7c-.373,1.356-.787,2.681-1.244,3.966-5,13.975-15.514,25.318-29.6,31.937C90.913,362.224,71.4,362.868,53.57,356.386Zm66.7-2.324a61.468,61.468,0,0,0,22.3-29.3,64.118,64.118,0,0,0,2.121-7.334,3.114,3.114,0,0,0-1.972-3.608L46,278.655a69.573,69.573,0,0,1,69.258-64.441c38.357,0,69.563,31.415,69.563,70.024C184.824,321.155,156.3,351.469,120.269,354.063Z" transform="translate(0 0)" fill="#fff"/>
    </g>
    <g id="Grupo_1086" data-name="Grupo 1086" transform="translate(1516.588 3107.657)" opacity="0.477">
      <path id="Caminho_620-2" data-name="Caminho 620" d="M43.533,190.024a43.5,43.5,0,0,0-20.609,21.2,3.109,3.109,0,1,0,5.636,2.628,37.075,37.075,0,0,1,17.62-18.192,3.112,3.112,0,1,0-2.647-5.633Z" transform="translate(44.584 45.864)" fill="#fff"/>
      <path id="Caminho_621-2" data-name="Caminho 621" d="M119.491,208.121a50.79,50.79,0,0,0,.883-10.292c8.174,4.3,19.29,8.071,30.97,8.071,13.748,0,28.2-5.213,39.306-20.883a3.106,3.106,0,0,0-.193-3.838c-8.594-9.879-26.513-15.042-43.582-12.569-12.04,1.748-21.685,7-28.015,14.989-.868-3.835-2.09-7.129-3.692-9.144a3.111,3.111,0,0,0-4.871,3.872c3.86,4.852,4.958,23.045,2.883,29.72a75.811,75.811,0,0,0-73.293,68.384L11.907,266.254a3.108,3.108,0,0,0-3.838,1.524A59.672,59.672,0,0,0,5.051,274.8c-12.32,34.428,8.491,73.657,46.394,87.435a79.443,79.443,0,0,0,27.147,4.809,73.336,73.336,0,0,0,31.1-6.768c1.922.134,3.764.215,5.571.215,41.788,0,75.784-34.2,75.784-76.247C191.045,243.626,159.319,210.336,119.491,208.121Zm28.276-33.352c13.751-2.006,28.469,1.636,36.264,8.728-21.7,27.813-53.825,12.743-62.867,7.664C127.9,179.344,140.545,175.817,147.767,174.769Zm-89.9,160.37c-9.823-1.574-20.665-6.438-22.721-19.99l35.695-16.3ZM76.677,301l17.194,35.57c-6.812,6.712-18.861,7.032-30.143.653Zm22.839,32.954L82.378,298.5l36.786,13.378C115.681,324.583,108.381,332.778,99.516,333.951ZM32.675,309.435c-6.6-8.619-7.163-18.976-1.6-29.589l36.967,13.443Zm20.9,46.951C18.877,343.77-.261,308.11,10.908,276.888c.46-1.291.964-2.557,1.53-3.823L25.2,277.709c-6.532,13.057-5.266,26.258,3.617,36.817,1.633,15.272,12.255,24.836,30.074,27.032a40.4,40.4,0,0,0,21.126,6.5c7.527,0,14.32-2.659,19.07-7.841,11.866-.905,21.542-10.7,25.937-26.2l12.927,4.7c-.373,1.356-.787,2.681-1.244,3.966-5,13.975-15.514,25.318-29.6,31.937C90.913,362.224,71.4,362.868,53.57,356.386Zm66.7-2.324a61.468,61.468,0,0,0,22.3-29.3,64.118,64.118,0,0,0,2.121-7.334,3.114,3.114,0,0,0-1.972-3.608L46,278.655a69.573,69.573,0,0,1,69.258-64.441c38.357,0,69.563,31.415,69.563,70.024C184.824,321.155,156.3,351.469,120.269,354.063Z" transform="translate(0 0)" fill="#fff"/>
    </g>
    <g id="Grupo_1084" data-name="Grupo 1084" transform="translate(1174.588 2823.657)" opacity="0.477">
      <path id="Caminho_620-3" data-name="Caminho 620" d="M43.533,190.024a43.5,43.5,0,0,0-20.609,21.2,3.109,3.109,0,1,0,5.636,2.628,37.075,37.075,0,0,1,17.62-18.192,3.112,3.112,0,1,0-2.647-5.633Z" transform="translate(44.584 45.864)" fill="#fff"/>
      <path id="Caminho_621-3" data-name="Caminho 621" d="M119.491,208.121a50.79,50.79,0,0,0,.883-10.292c8.174,4.3,19.29,8.071,30.97,8.071,13.748,0,28.2-5.213,39.306-20.883a3.106,3.106,0,0,0-.193-3.838c-8.594-9.879-26.513-15.042-43.582-12.569-12.04,1.748-21.685,7-28.015,14.989-.868-3.835-2.09-7.129-3.692-9.144a3.111,3.111,0,0,0-4.871,3.872c3.86,4.852,4.958,23.045,2.883,29.72a75.811,75.811,0,0,0-73.293,68.384L11.907,266.254a3.108,3.108,0,0,0-3.838,1.524A59.672,59.672,0,0,0,5.051,274.8c-12.32,34.428,8.491,73.657,46.394,87.435a79.443,79.443,0,0,0,27.147,4.809,73.336,73.336,0,0,0,31.1-6.768c1.922.134,3.764.215,5.571.215,41.788,0,75.784-34.2,75.784-76.247C191.045,243.626,159.319,210.336,119.491,208.121Zm28.276-33.352c13.751-2.006,28.469,1.636,36.264,8.728-21.7,27.813-53.825,12.743-62.867,7.664C127.9,179.344,140.545,175.817,147.767,174.769Zm-89.9,160.37c-9.823-1.574-20.665-6.438-22.721-19.99l35.695-16.3ZM76.677,301l17.194,35.57c-6.812,6.712-18.861,7.032-30.143.653Zm22.839,32.954L82.378,298.5l36.786,13.378C115.681,324.583,108.381,332.778,99.516,333.951ZM32.675,309.435c-6.6-8.619-7.163-18.976-1.6-29.589l36.967,13.443Zm20.9,46.951C18.877,343.77-.261,308.11,10.908,276.888c.46-1.291.964-2.557,1.53-3.823L25.2,277.709c-6.532,13.057-5.266,26.258,3.617,36.817,1.633,15.272,12.255,24.836,30.074,27.032a40.4,40.4,0,0,0,21.126,6.5c7.527,0,14.32-2.659,19.07-7.841,11.866-.905,21.542-10.7,25.937-26.2l12.927,4.7c-.373,1.356-.787,2.681-1.244,3.966-5,13.975-15.514,25.318-29.6,31.937C90.913,362.224,71.4,362.868,53.57,356.386Zm66.7-2.324a61.468,61.468,0,0,0,22.3-29.3,64.118,64.118,0,0,0,2.121-7.334,3.114,3.114,0,0,0-1.972-3.608L46,278.655a69.573,69.573,0,0,1,69.258-64.441c38.357,0,69.563,31.415,69.563,70.024C184.824,321.155,156.3,351.469,120.269,354.063Z" transform="translate(0 0)" fill="#fff"/>
    </g>
    <g id="Grupo_1089" data-name="Grupo 1089" transform="translate(488.588 2823.657)" opacity="0.477">
      <path id="Caminho_620-4" data-name="Caminho 620" d="M43.533,190.024a43.5,43.5,0,0,0-20.609,21.2,3.109,3.109,0,1,0,5.636,2.628,37.075,37.075,0,0,1,17.62-18.192,3.112,3.112,0,1,0-2.647-5.633Z" transform="translate(44.584 45.864)" fill="#fff"/>
      <path id="Caminho_621-4" data-name="Caminho 621" d="M119.491,208.121a50.79,50.79,0,0,0,.883-10.292c8.174,4.3,19.29,8.071,30.97,8.071,13.748,0,28.2-5.213,39.306-20.883a3.106,3.106,0,0,0-.193-3.838c-8.594-9.879-26.513-15.042-43.582-12.569-12.04,1.748-21.685,7-28.015,14.989-.868-3.835-2.09-7.129-3.692-9.144a3.111,3.111,0,0,0-4.871,3.872c3.86,4.852,4.958,23.045,2.883,29.72a75.811,75.811,0,0,0-73.293,68.384L11.907,266.254a3.108,3.108,0,0,0-3.838,1.524A59.672,59.672,0,0,0,5.051,274.8c-12.32,34.428,8.491,73.657,46.394,87.435a79.443,79.443,0,0,0,27.147,4.809,73.336,73.336,0,0,0,31.1-6.768c1.922.134,3.764.215,5.571.215,41.788,0,75.784-34.2,75.784-76.247C191.045,243.626,159.319,210.336,119.491,208.121Zm28.276-33.352c13.751-2.006,28.469,1.636,36.264,8.728-21.7,27.813-53.825,12.743-62.867,7.664C127.9,179.344,140.545,175.817,147.767,174.769Zm-89.9,160.37c-9.823-1.574-20.665-6.438-22.721-19.99l35.695-16.3ZM76.677,301l17.194,35.57c-6.812,6.712-18.861,7.032-30.143.653Zm22.839,32.954L82.378,298.5l36.786,13.378C115.681,324.583,108.381,332.778,99.516,333.951ZM32.675,309.435c-6.6-8.619-7.163-18.976-1.6-29.589l36.967,13.443Zm20.9,46.951C18.877,343.77-.261,308.11,10.908,276.888c.46-1.291.964-2.557,1.53-3.823L25.2,277.709c-6.532,13.057-5.266,26.258,3.617,36.817,1.633,15.272,12.255,24.836,30.074,27.032a40.4,40.4,0,0,0,21.126,6.5c7.527,0,14.32-2.659,19.07-7.841,11.866-.905,21.542-10.7,25.937-26.2l12.927,4.7c-.373,1.356-.787,2.681-1.244,3.966-5,13.975-15.514,25.318-29.6,31.937C90.913,362.224,71.4,362.868,53.57,356.386Zm66.7-2.324a61.468,61.468,0,0,0,22.3-29.3,64.118,64.118,0,0,0,2.121-7.334,3.114,3.114,0,0,0-1.972-3.608L46,278.655a69.573,69.573,0,0,1,69.258-64.441c38.357,0,69.563,31.415,69.563,70.024C184.824,321.155,156.3,351.469,120.269,354.063Z" transform="translate(0 0)" fill="#fff"/>
    </g>
    <g id="Grupo_1087" data-name="Grupo 1087" transform="translate(1174.588 3107.657)" opacity="0.477">
      <path id="Caminho_620-5" data-name="Caminho 620" d="M43.533,190.024a43.5,43.5,0,0,0-20.609,21.2,3.109,3.109,0,1,0,5.636,2.628,37.075,37.075,0,0,1,17.62-18.192,3.112,3.112,0,1,0-2.647-5.633Z" transform="translate(44.584 45.864)" fill="#fff"/>
      <path id="Caminho_621-5" data-name="Caminho 621" d="M119.491,208.121a50.79,50.79,0,0,0,.883-10.292c8.174,4.3,19.29,8.071,30.97,8.071,13.748,0,28.2-5.213,39.306-20.883a3.106,3.106,0,0,0-.193-3.838c-8.594-9.879-26.513-15.042-43.582-12.569-12.04,1.748-21.685,7-28.015,14.989-.868-3.835-2.09-7.129-3.692-9.144a3.111,3.111,0,0,0-4.871,3.872c3.86,4.852,4.958,23.045,2.883,29.72a75.811,75.811,0,0,0-73.293,68.384L11.907,266.254a3.108,3.108,0,0,0-3.838,1.524A59.672,59.672,0,0,0,5.051,274.8c-12.32,34.428,8.491,73.657,46.394,87.435a79.443,79.443,0,0,0,27.147,4.809,73.336,73.336,0,0,0,31.1-6.768c1.922.134,3.764.215,5.571.215,41.788,0,75.784-34.2,75.784-76.247C191.045,243.626,159.319,210.336,119.491,208.121Zm28.276-33.352c13.751-2.006,28.469,1.636,36.264,8.728-21.7,27.813-53.825,12.743-62.867,7.664C127.9,179.344,140.545,175.817,147.767,174.769Zm-89.9,160.37c-9.823-1.574-20.665-6.438-22.721-19.99l35.695-16.3ZM76.677,301l17.194,35.57c-6.812,6.712-18.861,7.032-30.143.653Zm22.839,32.954L82.378,298.5l36.786,13.378C115.681,324.583,108.381,332.778,99.516,333.951ZM32.675,309.435c-6.6-8.619-7.163-18.976-1.6-29.589l36.967,13.443Zm20.9,46.951C18.877,343.77-.261,308.11,10.908,276.888c.46-1.291.964-2.557,1.53-3.823L25.2,277.709c-6.532,13.057-5.266,26.258,3.617,36.817,1.633,15.272,12.255,24.836,30.074,27.032a40.4,40.4,0,0,0,21.126,6.5c7.527,0,14.32-2.659,19.07-7.841,11.866-.905,21.542-10.7,25.937-26.2l12.927,4.7c-.373,1.356-.787,2.681-1.244,3.966-5,13.975-15.514,25.318-29.6,31.937C90.913,362.224,71.4,362.868,53.57,356.386Zm66.7-2.324a61.468,61.468,0,0,0,22.3-29.3,64.118,64.118,0,0,0,2.121-7.334,3.114,3.114,0,0,0-1.972-3.608L46,278.655a69.573,69.573,0,0,1,69.258-64.441c38.357,0,69.563,31.415,69.563,70.024C184.824,321.155,156.3,351.469,120.269,354.063Z" transform="translate(0 0)" fill="#fff"/>
    </g>
    <g id="Grupo_1090" data-name="Grupo 1090" transform="translate(488.588 3107.657)" opacity="0.477">
      <path id="Caminho_620-6" data-name="Caminho 620" d="M43.533,190.024a43.5,43.5,0,0,0-20.609,21.2,3.109,3.109,0,1,0,5.636,2.628,37.075,37.075,0,0,1,17.62-18.192,3.112,3.112,0,1,0-2.647-5.633Z" transform="translate(44.584 45.864)" fill="#fff"/>
      <path id="Caminho_621-6" data-name="Caminho 621" d="M119.491,208.121a50.79,50.79,0,0,0,.883-10.292c8.174,4.3,19.29,8.071,30.97,8.071,13.748,0,28.2-5.213,39.306-20.883a3.106,3.106,0,0,0-.193-3.838c-8.594-9.879-26.513-15.042-43.582-12.569-12.04,1.748-21.685,7-28.015,14.989-.868-3.835-2.09-7.129-3.692-9.144a3.111,3.111,0,0,0-4.871,3.872c3.86,4.852,4.958,23.045,2.883,29.72a75.811,75.811,0,0,0-73.293,68.384L11.907,266.254a3.108,3.108,0,0,0-3.838,1.524A59.672,59.672,0,0,0,5.051,274.8c-12.32,34.428,8.491,73.657,46.394,87.435a79.443,79.443,0,0,0,27.147,4.809,73.336,73.336,0,0,0,31.1-6.768c1.922.134,3.764.215,5.571.215,41.788,0,75.784-34.2,75.784-76.247C191.045,243.626,159.319,210.336,119.491,208.121Zm28.276-33.352c13.751-2.006,28.469,1.636,36.264,8.728-21.7,27.813-53.825,12.743-62.867,7.664C127.9,179.344,140.545,175.817,147.767,174.769Zm-89.9,160.37c-9.823-1.574-20.665-6.438-22.721-19.99l35.695-16.3ZM76.677,301l17.194,35.57c-6.812,6.712-18.861,7.032-30.143.653Zm22.839,32.954L82.378,298.5l36.786,13.378C115.681,324.583,108.381,332.778,99.516,333.951ZM32.675,309.435c-6.6-8.619-7.163-18.976-1.6-29.589l36.967,13.443Zm20.9,46.951C18.877,343.77-.261,308.11,10.908,276.888c.46-1.291.964-2.557,1.53-3.823L25.2,277.709c-6.532,13.057-5.266,26.258,3.617,36.817,1.633,15.272,12.255,24.836,30.074,27.032a40.4,40.4,0,0,0,21.126,6.5c7.527,0,14.32-2.659,19.07-7.841,11.866-.905,21.542-10.7,25.937-26.2l12.927,4.7c-.373,1.356-.787,2.681-1.244,3.966-5,13.975-15.514,25.318-29.6,31.937C90.913,362.224,71.4,362.868,53.57,356.386Zm66.7-2.324a61.468,61.468,0,0,0,22.3-29.3,64.118,64.118,0,0,0,2.121-7.334,3.114,3.114,0,0,0-1.972-3.608L46,278.655a69.573,69.573,0,0,1,69.258-64.441c38.357,0,69.563,31.415,69.563,70.024C184.824,321.155,156.3,351.469,120.269,354.063Z" transform="translate(0 0)" fill="#fff"/>
    </g>
    <g id="Grupo_1085" data-name="Grupo 1085" transform="translate(830.588 2823.657)" opacity="0.477">
      <path id="Caminho_620-7" data-name="Caminho 620" d="M43.533,190.024a43.5,43.5,0,0,0-20.609,21.2,3.109,3.109,0,1,0,5.636,2.628,37.075,37.075,0,0,1,17.62-18.192,3.112,3.112,0,1,0-2.647-5.633Z" transform="translate(44.584 45.864)" fill="#fff"/>
      <path id="Caminho_621-7" data-name="Caminho 621" d="M119.491,208.121a50.79,50.79,0,0,0,.883-10.292c8.174,4.3,19.29,8.071,30.97,8.071,13.748,0,28.2-5.213,39.306-20.883a3.106,3.106,0,0,0-.193-3.838c-8.594-9.879-26.513-15.042-43.582-12.569-12.04,1.748-21.685,7-28.015,14.989-.868-3.835-2.09-7.129-3.692-9.144a3.111,3.111,0,0,0-4.871,3.872c3.86,4.852,4.958,23.045,2.883,29.72a75.811,75.811,0,0,0-73.293,68.384L11.907,266.254a3.108,3.108,0,0,0-3.838,1.524A59.672,59.672,0,0,0,5.051,274.8c-12.32,34.428,8.491,73.657,46.394,87.435a79.443,79.443,0,0,0,27.147,4.809,73.336,73.336,0,0,0,31.1-6.768c1.922.134,3.764.215,5.571.215,41.788,0,75.784-34.2,75.784-76.247C191.045,243.626,159.319,210.336,119.491,208.121Zm28.276-33.352c13.751-2.006,28.469,1.636,36.264,8.728-21.7,27.813-53.825,12.743-62.867,7.664C127.9,179.344,140.545,175.817,147.767,174.769Zm-89.9,160.37c-9.823-1.574-20.665-6.438-22.721-19.99l35.695-16.3ZM76.677,301l17.194,35.57c-6.812,6.712-18.861,7.032-30.143.653Zm22.839,32.954L82.378,298.5l36.786,13.378C115.681,324.583,108.381,332.778,99.516,333.951ZM32.675,309.435c-6.6-8.619-7.163-18.976-1.6-29.589l36.967,13.443Zm20.9,46.951C18.877,343.77-.261,308.11,10.908,276.888c.46-1.291.964-2.557,1.53-3.823L25.2,277.709c-6.532,13.057-5.266,26.258,3.617,36.817,1.633,15.272,12.255,24.836,30.074,27.032a40.4,40.4,0,0,0,21.126,6.5c7.527,0,14.32-2.659,19.07-7.841,11.866-.905,21.542-10.7,25.937-26.2l12.927,4.7c-.373,1.356-.787,2.681-1.244,3.966-5,13.975-15.514,25.318-29.6,31.937C90.913,362.224,71.4,362.868,53.57,356.386Zm66.7-2.324a61.468,61.468,0,0,0,22.3-29.3,64.118,64.118,0,0,0,2.121-7.334,3.114,3.114,0,0,0-1.972-3.608L46,278.655a69.573,69.573,0,0,1,69.258-64.441c38.357,0,69.563,31.415,69.563,70.024C184.824,321.155,156.3,351.469,120.269,354.063Z" transform="translate(0 0)" fill="#fff"/>
    </g>
    <g id="Grupo_1091" data-name="Grupo 1091" transform="translate(144.588 2823.657)" opacity="0.477">
      <path id="Caminho_620-8" data-name="Caminho 620" d="M43.533,190.024a43.5,43.5,0,0,0-20.609,21.2,3.109,3.109,0,1,0,5.636,2.628,37.075,37.075,0,0,1,17.62-18.192,3.112,3.112,0,1,0-2.647-5.633Z" transform="translate(44.584 45.864)" fill="#fff"/>
      <path id="Caminho_621-8" data-name="Caminho 621" d="M119.491,208.121a50.79,50.79,0,0,0,.883-10.292c8.174,4.3,19.29,8.071,30.97,8.071,13.748,0,28.2-5.213,39.306-20.883a3.106,3.106,0,0,0-.193-3.838c-8.594-9.879-26.513-15.042-43.582-12.569-12.04,1.748-21.685,7-28.015,14.989-.868-3.835-2.09-7.129-3.692-9.144a3.111,3.111,0,0,0-4.871,3.872c3.86,4.852,4.958,23.045,2.883,29.72a75.811,75.811,0,0,0-73.293,68.384L11.907,266.254a3.108,3.108,0,0,0-3.838,1.524A59.672,59.672,0,0,0,5.051,274.8c-12.32,34.428,8.491,73.657,46.394,87.435a79.443,79.443,0,0,0,27.147,4.809,73.336,73.336,0,0,0,31.1-6.768c1.922.134,3.764.215,5.571.215,41.788,0,75.784-34.2,75.784-76.247C191.045,243.626,159.319,210.336,119.491,208.121Zm28.276-33.352c13.751-2.006,28.469,1.636,36.264,8.728-21.7,27.813-53.825,12.743-62.867,7.664C127.9,179.344,140.545,175.817,147.767,174.769Zm-89.9,160.37c-9.823-1.574-20.665-6.438-22.721-19.99l35.695-16.3ZM76.677,301l17.194,35.57c-6.812,6.712-18.861,7.032-30.143.653Zm22.839,32.954L82.378,298.5l36.786,13.378C115.681,324.583,108.381,332.778,99.516,333.951ZM32.675,309.435c-6.6-8.619-7.163-18.976-1.6-29.589l36.967,13.443Zm20.9,46.951C18.877,343.77-.261,308.11,10.908,276.888c.46-1.291.964-2.557,1.53-3.823L25.2,277.709c-6.532,13.057-5.266,26.258,3.617,36.817,1.633,15.272,12.255,24.836,30.074,27.032a40.4,40.4,0,0,0,21.126,6.5c7.527,0,14.32-2.659,19.07-7.841,11.866-.905,21.542-10.7,25.937-26.2l12.927,4.7c-.373,1.356-.787,2.681-1.244,3.966-5,13.975-15.514,25.318-29.6,31.937C90.913,362.224,71.4,362.868,53.57,356.386Zm66.7-2.324a61.468,61.468,0,0,0,22.3-29.3,64.118,64.118,0,0,0,2.121-7.334,3.114,3.114,0,0,0-1.972-3.608L46,278.655a69.573,69.573,0,0,1,69.258-64.441c38.357,0,69.563,31.415,69.563,70.024C184.824,321.155,156.3,351.469,120.269,354.063Z" transform="translate(0 0)" fill="#fff"/>
    </g>
    <g id="Grupo_1088" data-name="Grupo 1088" transform="translate(830.588 3107.657)" opacity="0.477">
      <path id="Caminho_620-9" data-name="Caminho 620" d="M43.533,190.024a43.5,43.5,0,0,0-20.609,21.2,3.109,3.109,0,1,0,5.636,2.628,37.075,37.075,0,0,1,17.62-18.192,3.112,3.112,0,1,0-2.647-5.633Z" transform="translate(44.584 45.864)" fill="#fff"/>
      <path id="Caminho_621-9" data-name="Caminho 621" d="M119.491,208.121a50.79,50.79,0,0,0,.883-10.292c8.174,4.3,19.29,8.071,30.97,8.071,13.748,0,28.2-5.213,39.306-20.883a3.106,3.106,0,0,0-.193-3.838c-8.594-9.879-26.513-15.042-43.582-12.569-12.04,1.748-21.685,7-28.015,14.989-.868-3.835-2.09-7.129-3.692-9.144a3.111,3.111,0,0,0-4.871,3.872c3.86,4.852,4.958,23.045,2.883,29.72a75.811,75.811,0,0,0-73.293,68.384L11.907,266.254a3.108,3.108,0,0,0-3.838,1.524A59.672,59.672,0,0,0,5.051,274.8c-12.32,34.428,8.491,73.657,46.394,87.435a79.443,79.443,0,0,0,27.147,4.809,73.336,73.336,0,0,0,31.1-6.768c1.922.134,3.764.215,5.571.215,41.788,0,75.784-34.2,75.784-76.247C191.045,243.626,159.319,210.336,119.491,208.121Zm28.276-33.352c13.751-2.006,28.469,1.636,36.264,8.728-21.7,27.813-53.825,12.743-62.867,7.664C127.9,179.344,140.545,175.817,147.767,174.769Zm-89.9,160.37c-9.823-1.574-20.665-6.438-22.721-19.99l35.695-16.3ZM76.677,301l17.194,35.57c-6.812,6.712-18.861,7.032-30.143.653Zm22.839,32.954L82.378,298.5l36.786,13.378C115.681,324.583,108.381,332.778,99.516,333.951ZM32.675,309.435c-6.6-8.619-7.163-18.976-1.6-29.589l36.967,13.443Zm20.9,46.951C18.877,343.77-.261,308.11,10.908,276.888c.46-1.291.964-2.557,1.53-3.823L25.2,277.709c-6.532,13.057-5.266,26.258,3.617,36.817,1.633,15.272,12.255,24.836,30.074,27.032a40.4,40.4,0,0,0,21.126,6.5c7.527,0,14.32-2.659,19.07-7.841,11.866-.905,21.542-10.7,25.937-26.2l12.927,4.7c-.373,1.356-.787,2.681-1.244,3.966-5,13.975-15.514,25.318-29.6,31.937C90.913,362.224,71.4,362.868,53.57,356.386Zm66.7-2.324a61.468,61.468,0,0,0,22.3-29.3,64.118,64.118,0,0,0,2.121-7.334,3.114,3.114,0,0,0-1.972-3.608L46,278.655a69.573,69.573,0,0,1,69.258-64.441c38.357,0,69.563,31.415,69.563,70.024C184.824,321.155,156.3,351.469,120.269,354.063Z" transform="translate(0 0)" fill="#fff"/>
    </g>
    <g id="Grupo_1092" data-name="Grupo 1092" transform="translate(144.588 3107.657)" opacity="0.477">
      <path id="Caminho_620-10" data-name="Caminho 620" d="M43.533,190.024a43.5,43.5,0,0,0-20.609,21.2,3.109,3.109,0,1,0,5.636,2.628,37.075,37.075,0,0,1,17.62-18.192,3.112,3.112,0,1,0-2.647-5.633Z" transform="translate(44.584 45.864)" fill="#fff"/>
      <path id="Caminho_621-10" data-name="Caminho 621" d="M119.491,208.121a50.79,50.79,0,0,0,.883-10.292c8.174,4.3,19.29,8.071,30.97,8.071,13.748,0,28.2-5.213,39.306-20.883a3.106,3.106,0,0,0-.193-3.838c-8.594-9.879-26.513-15.042-43.582-12.569-12.04,1.748-21.685,7-28.015,14.989-.868-3.835-2.09-7.129-3.692-9.144a3.111,3.111,0,0,0-4.871,3.872c3.86,4.852,4.958,23.045,2.883,29.72a75.811,75.811,0,0,0-73.293,68.384L11.907,266.254a3.108,3.108,0,0,0-3.838,1.524A59.672,59.672,0,0,0,5.051,274.8c-12.32,34.428,8.491,73.657,46.394,87.435a79.443,79.443,0,0,0,27.147,4.809,73.336,73.336,0,0,0,31.1-6.768c1.922.134,3.764.215,5.571.215,41.788,0,75.784-34.2,75.784-76.247C191.045,243.626,159.319,210.336,119.491,208.121Zm28.276-33.352c13.751-2.006,28.469,1.636,36.264,8.728-21.7,27.813-53.825,12.743-62.867,7.664C127.9,179.344,140.545,175.817,147.767,174.769Zm-89.9,160.37c-9.823-1.574-20.665-6.438-22.721-19.99l35.695-16.3ZM76.677,301l17.194,35.57c-6.812,6.712-18.861,7.032-30.143.653Zm22.839,32.954L82.378,298.5l36.786,13.378C115.681,324.583,108.381,332.778,99.516,333.951ZM32.675,309.435c-6.6-8.619-7.163-18.976-1.6-29.589l36.967,13.443Zm20.9,46.951C18.877,343.77-.261,308.11,10.908,276.888c.46-1.291.964-2.557,1.53-3.823L25.2,277.709c-6.532,13.057-5.266,26.258,3.617,36.817,1.633,15.272,12.255,24.836,30.074,27.032a40.4,40.4,0,0,0,21.126,6.5c7.527,0,14.32-2.659,19.07-7.841,11.866-.905,21.542-10.7,25.937-26.2l12.927,4.7c-.373,1.356-.787,2.681-1.244,3.966-5,13.975-15.514,25.318-29.6,31.937C90.913,362.224,71.4,362.868,53.57,356.386Zm66.7-2.324a61.468,61.468,0,0,0,22.3-29.3,64.118,64.118,0,0,0,2.121-7.334,3.114,3.114,0,0,0-1.972-3.608L46,278.655a69.573,69.573,0,0,1,69.258-64.441c38.357,0,69.563,31.415,69.563,70.024C184.824,321.155,156.3,351.469,120.269,354.063Z" transform="translate(0 0)" fill="#fff"/>
    </g>
  </g>
</svg>
